dt,current,voltage,time,power
3777,45.2,3.3805,6762185,152.79860000000002
1890,45.1,3.3845,6764075,152.64095
1889,45.3,3.3845,6765964,153.31785
1890,45.2,3.3845,6767854,152.97940000000003
1890,45.1,3.3845,6769744,152.64095
1888,45.5,3.3845,6771632,153.99475
1889,45.5,3.3846,6773521,153.9993
1889,45.4,3.3846,6775410,153.66083999999998
1891,45.4,3.3805,6777301,153.47469999999998
1889,45.5,3.3845,6779190,153.99475
1889,45.2,3.3846,6781079,152.98392
1890,45.1,3.3805,6782969,152.46055
1890,45.4,3.3845,6784859,153.6563
1890,45.4,3.3805,6786749,153.47469999999998
1891,45.4,3.3805,6788640,153.47469999999998
1888,45.5,3.3805,6790528,153.81275
1890,45.6,3.3846,6792418,154.33776
1889,44.8,3.3806,6794307,151.45087999999998
1890,45.4,3.3805,6796197,153.47469999999998
3778,45.3,3.3805,6799975,153.13665
1890,45.1,3.3805,6801865,152.46055
1889,45.5,3.3805,6803754,153.81275
1889,45.5,3.3805,6805643,153.81275
7551,45.5,3.3846,6813194,153.9993
1890,45.5,3.3805,6815084,153.81275
1889,45.4,3.3846,6816973,153.66083999999998
1890,45.1,3.3845,6818863,152.64095
1890,45.4,3.3804,6820753,153.47016
1888,45.5,3.3805,6822641,153.81275
1889,45.5,3.3846,6824530,153.9993
1889,45.1,3.3845,6826419,152.64095
1888,45.5,3.3805,6828307,153.81275
1890,45.4,3.3846,6830197,153.66083999999998
1888,45.0,3.3805,6832085,152.1225
1890,45.2,3.3805,6833975,152.79860000000002
1889,45.5,3.3805,6835864,153.81275
1890,45.5,3.3805,6837754,153.81275
1888,45.0,3.3805,6839642,152.1225
1889,45.4,3.3805,6841531,153.47469999999998
1891,45.4,3.3805,6843422,153.47469999999998
1889,45.1,3.3805,6845311,152.46055
1890,45.3,3.3845,6847201,153.31785
1889,45.4,3.3805,6849090,153.47469999999998
1889,45.5,3.3805,6850979,153.81275
1890,45.5,3.3846,6852869,153.9993
1889,45.4,3.3805,6854758,153.47469999999998
1889,45.5,3.3805,6856647,153.81275
1889,45.5,3.3805,6858536,153.81275
1889,45.3,3.3805,6860425,153.13665
1889,45.5,3.3805,6862314,153.81275
1890,45.5,3.3846,6864204,153.9993
1889,45.6,3.3805,6866093,154.1508
1889,45.5,3.3846,6867982,153.9993
1890,45.5,3.3805,6869872,153.81275
1889,45.3,3.3805,6871761,153.13665
1890,45.6,3.3805,6873651,154.1508
1888,45.5,3.3805,6875539,153.81275
1889,45.2,3.3846,6877428,152.98392
1889,45.3,3.3805,6879317,153.13665
1891,45.3,3.3845,6881208,153.31785
1890,45.6,3.3806,6883098,154.15536
3777,45.5,3.3805,6886875,153.81275
1890,45.6,3.3805,6888765,154.1508
1888,45.5,3.3806,6890653,153.8173
1889,45.4,3.3805,6892542,153.47469999999998
1891,45.4,3.3805,6894433,153.47469999999998
1890,45.2,3.3805,6896323,152.79860000000002
1891,45.2,3.3805,6898214,152.79860000000002
1888,45.5,3.3805,6900102,153.81275
1889,45.5,3.3805,6901991,153.81275
3778,45.3,3.3805,6905769,153.13665
1888,45.5,3.3805,6907657,153.81275
1889,45.5,3.3846,6909546,153.9993
1889,45.2,3.3805,6911435,152.79860000000002
1888,45.5,3.3805,6913323,153.81275
1890,45.5,3.3846,6915213,153.9993
1889,45.6,3.3805,6917102,154.1508
1891,45.6,3.3805,6918993,154.1508
1891,45.6,3.3806,6920884,154.15536
1888,45.5,3.3846,6922772,153.9993
1890,45.5,3.3805,6924662,153.81275
1889,45.5,3.3805,6926551,153.81275
1889,45.1,3.3805,6928440,152.46055
1889,45.3,3.3845,6930329,153.31785
1890,45.4,3.3845,6932219,153.6563
1889,45.5,3.3805,6934108,153.81275
1890,45.6,3.3846,6935998,154.33776
1891,45.6,3.3806,6937889,154.15536
1889,45.5,3.3806,6939778,153.8173
1889,45.2,3.3805,6941667,152.79860000000002
1888,45.5,3.3805,6943555,153.81275
1889,45.4,3.3805,6945444,153.47469999999998
1890,45.2,3.3805,6947334,152.79860000000002
1891,45.3,3.3805,6949225,153.13665
1889,45.5,3.3805,6951114,153.81275
1890,45.5,3.3846,6953004,153.9993
1890,45.5,3.3805,6954894,153.81275
1889,45.4,3.3805,6956783,153.47469999999998
1891,45.4,3.3805,6958674,153.47469999999998
1889,45.3,3.3805,6960563,153.13665
1889,45.2,3.3805,6962452,152.79860000000002
1890,45.4,3.3805,6964342,153.47469999999998
1888,45.5,3.3805,6966230,153.81275
3777,45.4,3.3805,6970007,153.47469999999998
1891,45.4,3.3805,6971898,153.47469999999998
1888,45.5,3.3846,6973786,153.9993
1890,45.1,3.3805,6975676,152.46055
1889,45.4,3.3805,6977565,153.47469999999998
1888,45.5,3.3805,6979453,153.81275
1890,45.5,3.3806,6981343,153.8173
1889,45.2,3.3806,6983232,152.80312
1888,45.5,3.3805,6985120,153.81275
3778,45.1,3.3805,6988898,152.46055
1889,45.3,3.3805,6990787,153.13665
1889,45.5,3.3805,6992676,153.81275
3776,45.6,3.3805,6996452,154.1508
1891,45.6,3.3805,6998343,154.1508
1888,45.5,3.3805,7000231,153.81275
1890,45.1,3.3805,7002121,152.46055
1890,45.2,3.3845,7004011,152.97940000000003
1889,45.4,3.3805,7005900,153.47469999999998
1889,45.5,3.3805,7007789,153.81275
1889,45.6,3.3805,7009678,154.1508
1891,45.6,3.3806,7011569,154.15536
3778,45.3,3.3805,7015347,153.13665
1888,45.5,3.3805,7017235,153.81275
1890,45.6,3.3805,7019125,154.1508
1889,45.4,3.3806,7021014,153.47923999999998
1890,45.2,3.3845,7022904,152.97940000000003
1889,45.5,3.3805,7024793,153.81275
1889,45.5,3.3846,7026682,153.9993
1890,45.6,3.3805,7028572,154.1508
1890,45.6,3.3845,7030462,154.3332
1891,45.6,3.3806,7032353,154.15536
1889,45.3,3.3805,7034242,153.13665
1891,45.3,3.3805,7036133,153.13665
1890,45.4,3.3845,7038023,153.6563
1888,45.5,3.3805,7039911,153.81275
1890,45.6,3.3805,7041801,154.1508
1890,45.6,3.3806,7043691,154.15536
3777,45.5,3.3805,7047468,153.81275
1889,45.5,3.3805,7049357,153.81275
1890,45.5,3.3846,7051247,153.9993
1889,45.3,3.3805,7053136,153.13665
1889,45.2,3.3805,7055025,152.79860000000002
1889,45.5,3.3845,7056914,153.99475
1890,45.5,3.3805,7058804,153.81275
1889,45.4,3.3805,7060693,153.47469999999998
1888,45.5,3.3805,7062581,153.81275
1889,45.5,3.3805,7064470,153.81275
1890,44.9,3.3805,7066360,151.78445
1888,45.5,3.3805,7068248,153.81275
1890,45.5,3.3805,7070138,153.81275
1890,45.2,3.3805,7072028,152.79860000000002
1890,45.3,3.3805,7073918,153.13665
1889,45.6,3.3805,7075807,154.1508
1891,45.6,3.3806,7077698,154.15536
3776,45.5,3.3805,7081474,153.81275
1889,45.6,3.3846,7083363,154.33776
1889,45.5,3.3806,7085252,153.8173
1889,45.5,3.3805,7087141,153.81275
3777,45.2,3.3805,7090918,152.79860000000002
1890,45.4,3.3845,7092808,153.6563
1888,45.5,3.3805,7094696,153.81275
1889,45.6,3.3806,7096585,154.15536
1890,44.6,3.3806,7098475,150.77476
1888,45.5,3.3845,7100363,153.99475
1889,45.5,3.3805,7102252,153.81275
1890,45.2,3.3846,7104142,152.98392
1889,45.3,3.3805,7106031,153.13665
1888,45.5,3.3805,7107919,153.81275
1890,45.5,3.3805,7109809,153.81275
1890,45.6,3.3805,7111699,154.1508
1888,45.5,3.3805,7113587,153.81275
1889,45.6,3.3805,7115476,154.1508
1890,45.1,3.3806,7117366,152.46506
1889,45.4,3.3805,7119255,153.47469999999998
1889,45.5,3.3805,7121144,153.81275
1889,45.2,3.3805,7123033,152.79860000000002
1891,45.2,3.3805,7124924,152.79860000000002
1889,45.5,3.3805,7126813,153.81275
1889,45.5,3.3805,7128702,153.81275
1890,45.4,3.3806,7130592,153.47923999999998
1888,45.5,3.3805,7132480,153.81275
3777,44.8,3.3846,7136257,151.63008
1889,45.4,3.3805,7138146,153.47469999999998
1888,45.5,3.3805,7140034,153.81275
1890,45.2,3.3805,7141924,152.79860000000002
1890,45.3,3.3805,7143814,153.13665
1888,45.5,3.3805,7145702,153.81275
1890,45.6,3.3805,7147592,154.1508
1889,44.9,3.3806,7149481,151.78894
1890,45.4,3.3805,7151371,153.47469999999998
1890,45.4,3.3805,7153261,153.47469999999998
1890,45.3,3.3805,7155151,153.13665
1889,45.1,3.3805,7157040,152.46055
1889,45.5,3.3805,7158929,153.81275
1890,45.5,3.3805,7160819,153.81275
7550,45.2,3.3805,7168369,152.79860000000002
1888,45.5,3.3805,7170257,153.81275
1890,45.5,3.3805,7172147,153.81275
1890,45.1,3.3805,7174037,152.46055
1889,45.4,3.3805,7175926,153.47469999999998
1889,45.5,3.3805,7177815,153.81275
1889,45.5,3.3805,7179704,153.81275
1890,45.2,3.3806,7181594,152.80312
1887,45.5,3.3805,7183481,153.81275
1890,45.5,3.3805,7185371,153.81275
1889,45.2,3.3805,7187260,152.79860000000002
1890,45.3,3.3805,7189150,153.13665
1888,45.5,3.3805,7191038,153.81275
1889,45.6,3.3805,7192927,154.1508
3778,45.4,3.3805,7196705,153.47469999999998
1888,45.5,3.3805,7198593,153.81275
1890,45.1,3.3805,7200483,152.46055
1889,45.2,3.3805,7202372,152.79860000000002
1890,45.3,3.3765,7204262,152.95544999999998
1888,45.5,3.3805,7206150,153.81275
1890,45.6,3.3805,7208040,154.1508
1889,45.1,3.3806,7209929,152.46506
1890,45.4,3.3805,7211819,153.47469999999998
1888,45.5,3.3805,7213707,153.81275
1889,45.3,3.3805,7215596,153.13665
1891,45.3,3.3805,7217487,153.13665
1889,45.6,3.3805,7219376,154.1508
1891,45.6,3.3805,7221267,154.1508
1890,45.6,3.3806,7223157,154.15536
1890,45.4,3.3806,7225047,153.47923999999998
1888,45.5,3.3805,7226935,153.81275
1890,45.4,3.3805,7228825,153.47469999999998
1888,45.5,3.3805,7230713,153.81275
1889,45.4,3.3805,7232602,153.47469999999998
1890,45.2,3.3805,7234492,152.79860000000002
1891,45.2,3.3805,7236383,152.79860000000002
1888,45.5,3.3805,7238271,153.81275
1890,45.6,3.3805,7240161,154.1508
1889,45.4,3.3806,7242050,153.47923999999998
1890,45.6,3.3805,7243940,154.1508
1891,45.6,3.3806,7245831,154.15536
1888,45.5,3.3806,7247719,153.8173
1892,45.5,3.3805,7249611,153.81275
3776,45.3,3.3805,7253387,153.13665
1890,45.4,3.3845,7255277,153.6563
1888,45.5,3.3805,7257165,153.81275
1889,45.6,3.3805,7259054,154.1508
1889,45.5,3.3805,7260943,153.81275
1890,45.5,3.3806,7262833,153.8173
1888,45.0,3.3805,7264721,152.1225
1891,45.4,3.3845,7266612,153.6563
1889,45.5,3.3805,7268501,153.81275
1889,45.2,3.3805,7270390,152.79860000000002
1890,45.3,3.3805,7272280,153.13665
1888,45.5,3.3805,7274168,153.81275
1890,45.5,3.3805,7276058,153.81275
1890,45.5,3.3806,7277948,153.8173
1889,45.5,3.3805,7279837,153.81275
1891,45.5,3.3805,7281728,153.81275
3777,45.3,3.3805,7285505,153.13665
1890,45.4,3.3805,7287395,153.47469999999998
1888,45.5,3.3805,7289283,153.81275
1890,45.5,3.3805,7291173,153.81275
1889,44.9,3.3806,7293062,151.78894
1889,45.5,3.3805,7294951,153.81275
1889,45.4,3.3805,7296840,153.47469999999998
1891,45.2,3.3805,7298731,152.79860000000002
1891,45.2,3.3805,7300622,152.79860000000002
1888,45.5,3.3805,7302510,153.81275
1889,45.5,3.3805,7304399,153.81275
1890,44.8,3.3846,7306289,151.63008
1888,45.5,3.3845,7308177,153.99475
1890,45.5,3.3805,7310067,153.81275
1889,45.3,3.3805,7311956,153.13665
1890,45.1,3.3805,7313846,152.46055
1891,45.4,3.3805,7315737,153.47469999999998
1888,45.5,3.3805,7317625,153.81275
1889,45.6,3.3846,7319514,154.33776
1889,45.4,3.3846,7321403,153.66083999999998
1891,45.4,3.3805,7323294,153.47469999999998
1889,45.5,3.3805,7325183,153.81275
1889,45.2,3.3805,7327072,152.79860000000002
1890,45.4,3.3845,7328962,153.6563
1889,45.5,3.3845,7330851,153.99475
1890,45.6,3.3805,7332741,154.1508
1890,44.9,3.3805,7334631,151.78445
1887,45.5,3.3805,7336518,153.81275
1890,45.5,3.3805,7338408,153.81275
1889,45.3,3.3846,7340297,153.32237999999998
1890,45.1,3.3805,7342187,152.46055
1889,45.6,3.3845,7344076,154.3332
1889,45.5,3.3846,7345965,153.9993
1890,44.9,3.3805,7347855,151.78445
1888,45.5,3.3805,7349743,153.81275
1890,45.5,3.3805,7351633,153.81275
1889,45.3,3.3806,7353522,153.14118
1889,45.2,3.3805,7355411,152.79860000000002
1890,45.4,3.3845,7357301,153.6563
1888,45.5,3.3806,7359189,153.8173
3777,45.5,3.3805,7362966,153.81275
5664,45.3,3.3805,7368630,153.13665
1888,45.5,3.3805,7370518,153.81275
1889,45.5,3.3805,7372407,153.81275
5664,45.5,3.3805,7378071,153.81275
1890,45.1,3.3805,7379961,152.46055
1890,45.4,3.3805,7381851,153.47469999999998
1891,45.4,3.3805,7383742,153.47469999999998
1889,45.2,3.3805,7385631,152.79860000000002
1891,45.2,3.3805,7387522,152.79860000000002
1889,45.4,3.3805,7389411,153.47469999999998
1889,45.5,3.3806,7391300,153.8173
1889,45.6,3.3806,7393189,154.15536
3777,45.5,3.3806,7396966,153.8173
1890,45.5,3.3805,7398856,153.81275
3777,45.5,3.3806,7402633,153.8173
1889,45.2,3.3805,7404522,152.79860000000002
1891,45.2,3.3805,7406413,152.79860000000002
1889,45.6,3.3805,7408302,154.1508
1891,45.6,3.3805,7410193,154.1508
1888,45.5,3.3806,7412081,153.8173
1890,45.5,3.3805,7413971,153.81275
1889,45.6,3.3805,7415860,154.1508
1890,45.1,3.3805,7417750,152.46055
1888,45.5,3.3805,7419638,153.81275
1890,45.4,3.3805,7421528,153.47469999999998
1889,45.3,3.3805,7423417,153.13665
1889,45.1,3.3805,7425306,152.46055
1890,45.6,3.3805,7427196,154.1508
1891,45.6,3.3846,7429087,154.33776
1888,45.5,3.3806,7430975,153.8173
1890,45.4,3.3805,7432865,153.47469999999998
1888,45.5,3.3805,7434753,153.81275
1890,45.3,3.3805,7436643,153.13665
1889,45.2,3.3805,7438532,152.79860000000002
1890,45.4,3.3805,7440422,153.47469999999998
1889,45.6,3.3806,7442311,154.15536
1888,45.5,3.3805,7444199,153.81275
5665,44.9,3.3805,7449864,151.78445
1888,45.5,3.3805,7451752,153.81275
3777,45.2,3.3805,7455529,152.79860000000002
1890,45.2,3.3805,7457419,152.79860000000002
1888,45.5,3.3805,7459307,153.81275
1889,45.6,3.3805,7461196,154.1508
1889,45.5,3.3806,7463085,153.8173
1890,45.5,3.3805,7464975,153.81275
1889,45.5,3.3806,7466864,153.8173
1890,45.1,3.3805,7468754,152.46055
1890,45.3,3.3845,7470644,153.31785
1888,45.4,3.3805,7472532,153.47469999999998
1889,45.5,3.3805,7474421,153.81275
1889,45.6,3.3806,7476310,154.15536
1888,45.5,3.3806,7478198,153.8173
1890,45.5,3.3805,7480088,153.81275
1889,45.5,3.3805,7481977,153.81275
1890,45.2,3.3805,7483867,152.79860000000002
1890,45.4,3.3805,7485757,153.47469999999998
1888,45.5,3.3805,7487645,153.81275
1890,45.5,3.3805,7489535,153.81275
1889,44.8,3.3806,7491424,151.45087999999998
1889,45.4,3.3805,7493313,153.47469999999998
1890,44.3,3.3805,7495203,149.75615
1889,45.3,3.3804,7497092,153.13212
1890,45.2,3.3805,7498982,152.79860000000002
1890,45.6,3.3805,7500872,154.1508
1891,45.6,3.3806,7502763,154.15536
1888,45.5,3.3806,7504651,153.8173
1889,45.4,3.3805,7506540,153.47469999999998
1888,45.5,3.3805,7508428,153.81275
1890,45.2,3.3805,7510318,152.79860000000002
1890,45.3,3.3805,7512208,153.13665
1889,45.4,3.3805,7514097,153.47469999999998
1890,45.6,3.3805,7515987,154.1508
1891,45.6,3.3806,7517878,154.15536
1889,45.4,3.3806,7519767,153.47923999999998
1891,45.4,3.3805,7521658,153.47469999999998
1890,45.4,3.3805,7523548,153.47469999999998
1891,45.4,3.3805,7525439,153.47469999999998
1889,45.3,3.3805,7527328,153.13665
1889,45.2,3.3805,7529217,152.79860000000002
1891,45.4,3.3805,7531108,153.47469999999998
1889,45.1,3.3805,7532997,152.46055
1889,45.5,3.3805,7534886,153.81275
1890,45.4,3.3805,7536776,153.47469999999998
1889,45.2,3.3805,7538665,152.79860000000002
1890,45.1,3.3805,7540555,152.46055
1889,44.9,3.3805,7542444,151.78445
1889,45.4,3.3805,7544333,153.47469999999998
1891,45.3,3.3805,7546224,153.13665
1891,45.1,3.3805,7548115,152.46055
1888,45.5,3.3805,7550003,153.81275
1890,45.4,3.3805,7551893,153.47469999999998
1890,45.1,3.3805,7553783,152.46055
1889,45.4,3.3805,7555672,153.47469999999998
1888,45.5,3.3805,7557560,153.81275
1890,45.5,3.3805,7559450,153.81275
3777,45.4,3.3805,7563227,153.47469999999998
1892,45.4,3.3805,7565119,153.47469999999998
1891,45.4,3.3805,7567010,153.47469999999998
1890,45.1,3.3805,7568900,152.46055
1888,45.5,3.3805,7570788,153.81275
1890,45.5,3.3805,7572678,153.81275
1889,45.2,3.3805,7574567,152.79860000000002
1889,45.4,3.3805,7576456,153.47469999999998
1890,45.4,3.3805,7578346,153.47469999999998
1890,45.3,3.3805,7580236,153.13665
