dt,current,voltage,time,power
1890,45.2,3.2077,4208140,144.98804
1889,45.6,3.1966,4210029,145.76496
1891,45.6,3.2006,4211920,145.94736
1889,45.5,3.1966,4213809,145.4453
1889,45.5,3.1965,4215698,145.44075
1889,45.5,3.1965,4217587,145.44075
1889,45.5,3.1966,4219476,145.4453
1889,45.5,3.1965,4221365,145.44075
3777,45.6,3.1966,4225142,145.76496
1891,45.6,3.1926,4227033,145.58256
1888,45.5,3.2006,4228921,145.6273
1890,45.6,3.1965,4230811,145.7604
1890,45.6,3.1966,4232701,145.76496
1891,45.6,3.1965,4234592,145.7604
1888,45.5,3.2006,4236480,145.6273
1889,45.5,3.1965,4238369,145.44075
1890,45.6,3.2006,4240259,145.94736
1890,45.6,3.1965,4242149,145.7604
1889,45.5,3.2006,4244038,145.6273
1889,45.6,3.1965,4245927,145.7604
1891,45.6,3.1966,4247818,145.76496
1888,45.5,3.1965,4249706,145.44075
1890,45.5,3.2006,4251596,145.6273
5664,44.4,3.2004,4257260,142.09776
1888,45.5,3.1966,4259148,145.4453
1889,45.6,3.2006,4261037,145.94736
1891,45.6,3.1966,4262928,145.76496
1891,45.6,3.1965,4264819,145.7604
1888,45.5,3.2006,4266707,145.6273
1889,45.5,3.2006,4268596,145.6273
1889,45.5,3.1965,4270485,145.44075
1890,45.5,3.2006,4272375,145.6273
1888,44.0,3.2006,4274263,140.8264
1890,43.6,3.2004,4276153,139.53744
1888,45.5,3.2004,4278041,145.6182
1889,45.4,3.2006,4279930,145.30724
1889,45.5,3.1965,4281819,145.44075
1889,45.5,3.1966,4283708,145.4453
1890,45.5,3.1965,4285598,145.44075
3776,45.6,3.1966,4289374,145.76496
1889,45.5,3.1966,4291263,145.4453
1889,45.5,3.2006,4293152,145.6273
1890,45.5,3.1965,4295042,145.44075
5664,45.4,3.1966,4300706,145.12564
1888,45.5,3.1965,4302594,145.44075
1889,45.6,3.1965,4304483,145.7604
1890,45.6,3.1966,4306373,145.76496
1889,45.5,3.1966,4308262,145.4453
1890,45.6,3.2006,4310152,145.94736
1890,45.6,3.1966,4312042,145.76496
3778,45.5,3.1966,4315820,145.4453
1889,45.5,3.2006,4317709,145.6273
1889,45.6,3.1965,4319598,145.7604
3777,45.5,3.1966,4323375,145.4453
1890,45.6,3.2006,4325265,145.94736
1888,45.5,3.1966,4327153,145.4453
1889,45.5,3.2006,4329042,145.6273
1890,45.5,3.1966,4330932,145.4453
1890,45.6,3.2006,4332822,145.94736
1888,45.5,3.1966,4334710,145.4453
1889,45.6,3.1965,4336599,145.7604
1890,45.6,3.1966,4338489,145.76496
3777,45.5,3.2006,4342266,145.6273
1888,44.0,3.1965,4344154,140.646
1890,45.6,3.1966,4346044,145.76496
3777,45.5,3.2006,4349821,145.6273
1890,45.7,3.1965,4351711,146.08005
1889,45.6,3.1966,4353600,145.76496
1890,45.6,3.1966,4355490,145.76496
1888,45.5,3.1966,4357378,145.4453
1890,45.6,3.1965,4359268,145.7604
1888,45.5,3.1966,4361156,145.4453
1890,45.6,3.1966,4363046,145.76496
1888,45.5,3.1966,4364934,145.4453
1890,45.6,3.2006,4366824,145.94736
1890,45.6,3.1966,4368714,145.76496
3777,45.5,3.1966,4372491,145.4453
1889,45.6,3.2006,4374380,145.94736
1891,45.6,3.1966,4376271,145.76496
1890,45.7,3.1966,4378161,146.08462
1889,45.5,3.1966,4380050,145.4453
1889,45.6,3.1966,4381939,145.76496
5668,45.5,3.1966,4387607,145.4453
1888,44.5,3.1966,4389495,142.2487
1889,45.6,3.1964,4391384,145.75584
1891,45.6,3.1966,4393275,145.76496
1888,45.5,3.1966,4395163,145.4453
1889,45.7,3.1966,4397052,146.08462
1890,45.6,3.2006,4398942,145.94736
1891,45.6,3.1966,4400833,145.76496
3781,45.6,3.1965,4404614,145.7604
1890,45.6,3.1966,4406504,145.76496
7555,45.6,3.1926,4414059,145.58256
1888,45.5,3.1966,4415947,145.4453
1890,45.5,3.1965,4417837,145.44075
1890,45.7,3.1965,4419727,146.08005
1891,45.6,3.1966,4421618,145.76496
1890,45.6,3.2006,4423508,145.94736
1889,45.5,3.1966,4425397,145.4453
1889,45.6,3.1965,4427286,145.7604
1890,45.7,3.1965,4429176,146.08005
1888,45.5,3.2006,4431064,145.6273
1890,45.6,3.1965,4432954,145.7604
1891,45.6,3.1966,4434845,145.76496
1892,45.6,3.1966,4436737,145.76496
1891,45.6,3.1966,4438628,145.76496
13222,45.6,3.1926,4451850,145.58256
1890,45.7,3.1965,4453740,146.08005
1890,45.6,3.1966,4455630,145.76496
3776,45.5,3.1966,4459406,145.4453
1890,45.6,3.1966,4461296,145.76496
5665,45.5,3.1966,4466961,145.4453
1890,45.6,3.1966,4468851,145.76496
1891,45.6,3.1925,4470742,145.578
1890,45.6,3.1966,4472632,145.76496
1889,45.5,3.1966,4474521,145.4453
1889,45.6,3.1965,4476410,145.7604
3779,45.6,3.2006,4480189,145.94736
1891,45.6,3.1966,4482080,145.76496
1890,45.6,3.2006,4483970,145.94736
1891,45.6,3.1966,4485861,145.76496
3777,45.5,3.1966,4489638,145.4453
1889,45.6,3.1965,4491527,145.7604
1891,45.6,3.1966,4493418,145.76496
3776,45.5,3.1966,4497194,145.4453
1890,45.6,3.1965,4499084,145.7604
1891,45.6,3.1966,4500975,145.76496
1891,45.6,3.1965,4502866,145.7604
1891,45.6,3.2006,4504757,145.94736
1890,45.6,3.1966,4506647,145.76496
1889,45.7,3.1926,4508536,145.90182000000001
1889,45.6,3.1926,4510425,145.58256
1891,45.6,3.1965,4512316,145.7604
1888,45.5,3.1966,4514204,145.4453
1890,45.5,3.1965,4516094,145.44075
1890,45.6,3.1966,4517984,145.76496
1891,45.6,3.2005,4519875,145.9428
1888,45.5,3.1966,4521763,145.4453
1890,45.5,3.1965,4523653,145.44075
1889,45.6,3.1966,4525542,145.76496
1888,45.5,3.1965,4527430,145.44075
1890,45.6,3.2006,4529320,145.94736
1888,45.5,3.1966,4531208,145.4453
1890,45.6,3.1965,4533098,145.7604
1891,45.6,3.1965,4534989,145.7604
1889,45.5,3.2006,4536878,145.6273
1889,45.6,3.1965,4538767,145.7604
1891,45.6,3.1966,4540658,145.76496
1888,45.5,3.1966,4542546,145.4453
1889,45.6,3.1966,4544435,145.76496
1891,45.6,3.2006,4546326,145.94736
1891,45.6,3.1966,4548217,145.76496
1891,45.4,3.1966,4550108,145.12564
1890,45.6,3.1966,4551998,145.76496
1891,45.6,3.2006,4553889,145.94736
1889,45.7,3.1966,4555778,146.08462
1890,45.6,3.1966,4557668,145.76496
3779,45.6,3.2006,4561447,145.94736
1888,45.5,3.1926,4563335,145.26330000000002
1891,45.6,3.1965,4565226,145.7604
1891,45.6,3.1966,4567117,145.76496
1891,45.6,3.1965,4569008,145.7604
1891,45.6,3.1966,4570899,145.76496
1891,45.6,3.1926,4572790,145.58256
3778,45.6,3.1965,4576568,145.7604
1889,45.5,3.1966,4578457,145.4453
1889,45.6,3.1965,4580346,145.7604
1891,45.6,3.1966,4582237,145.76496
1891,45.6,3.1965,4584128,145.7604
1888,45.5,3.1966,4586016,145.4453
1890,45.6,3.1965,4587906,145.7604
1891,45.6,3.1966,4589797,145.76496
1891,45.6,3.1965,4591688,145.7604
1890,45.6,3.1925,4593578,145.578
1890,45.6,3.1966,4595468,145.76496
1891,45.6,3.1926,4597359,145.58256
1888,45.5,3.1926,4599247,145.26330000000002
1890,45.6,3.1926,4601137,145.58256
1891,45.6,3.1966,4603028,145.76496
3779,45.6,3.1926,4606807,145.58256
1889,45.5,3.1926,4608696,145.26330000000002
1889,45.5,3.1965,4610585,145.44075
3776,45.6,3.1925,4614361,145.578
1889,45.5,3.1926,4616250,145.26330000000002
1889,45.5,3.1966,4618139,145.4453
1890,45.6,3.1925,4620029,145.578
1890,45.7,3.1926,4621919,145.90182000000001
1889,45.6,3.1926,4623808,145.58256
3777,45.5,3.1966,4627585,145.4453
1889,45.6,3.1965,4629474,145.7604
1889,45.7,3.1966,4631363,146.08462
1889,45.6,3.1965,4633252,145.7604
1889,45.5,3.1966,4635141,145.4453
1890,45.6,3.1965,4637031,145.7604
1890,45.6,3.1966,4638921,145.76496
1891,45.6,3.1965,4640812,145.7604
1889,45.5,3.1966,4642701,145.4453
1889,45.6,3.1925,4644590,145.578
1890,45.6,3.1926,4646480,145.58256
1888,45.5,3.1925,4648368,145.25875
1890,45.5,3.1926,4650258,145.26330000000002
1889,45.5,3.1925,4652147,145.25875
1890,45.6,3.1925,4654037,145.578
1888,45.5,3.1925,4655925,145.25875
1889,45.6,3.1925,4657814,145.578
1891,45.6,3.1966,4659705,145.76496
3776,45.5,3.1925,4663481,145.25875
1889,45.7,3.1966,4665370,146.08462
1890,45.6,3.1966,4667260,145.76496
1889,45.4,3.1966,4669149,145.12564
1890,45.6,3.1965,4671039,145.7604
1890,45.6,3.1965,4672929,145.7604
1891,45.6,3.1966,4674820,145.76496
1888,45.5,3.2006,4676708,145.6273
1890,45.5,3.1925,4678598,145.25875
1889,45.6,3.1966,4680487,145.76496
1888,45.5,3.1926,4682375,145.26330000000002
1890,45.5,3.2006,4684265,145.6273
1890,45.5,3.1965,4686155,145.44075
1889,45.6,3.1966,4688044,145.76496
3778,45.4,3.2006,4691822,145.30724
1890,45.7,3.2005,4693712,146.26285000000001
1889,45.6,3.1966,4695601,145.76496
1888,45.5,3.1966,4697489,145.4453
3776,45.6,3.1965,4701265,145.7604
1889,45.5,3.1966,4703154,145.4453
1890,45.5,3.1925,4705044,145.25875
1889,45.5,3.1926,4706933,145.26330000000002
1890,45.6,3.1965,4708823,145.7604
1891,45.6,3.1966,4710714,145.76496
1891,45.6,3.1965,4712605,145.7604
1888,45.5,3.1924,4714493,145.2542
1890,45.6,3.1965,4716383,145.7604
1888,45.5,3.1926,4718271,145.26330000000002
1889,45.5,3.1965,4720160,145.44075
1890,45.6,3.1966,4722050,145.76496
3777,45.5,3.1966,4725827,145.4453
1889,45.7,3.1965,4727716,146.08005
1892,45.6,3.1966,4729608,145.76496
1890,45.6,3.1926,4731498,145.58256
1888,45.5,3.1926,4733386,145.26330000000002
1890,45.6,3.1925,4735276,145.578
1891,45.6,3.1926,4737167,145.58256
3778,45.4,3.1966,4740945,145.12564
1890,45.6,3.1965,4742835,145.7604
1890,45.5,3.1966,4744725,145.4453
1890,45.6,3.1926,4746615,145.58256
1888,45.5,3.2006,4748503,145.6273
1890,45.6,3.1965,4750393,145.7604
1890,45.6,3.1966,4752283,145.76496
1891,45.6,3.1926,4754174,145.58256
1888,45.5,3.1926,4756062,145.26330000000002
1890,45.6,3.1965,4757952,145.7604
1891,45.6,3.1966,4759843,145.76496
1891,45.6,3.1926,4761734,145.58256
1891,45.6,3.1966,4763625,145.76496
7556,45.6,3.1926,4771181,145.58256
1890,45.6,3.1965,4773071,145.7604
1891,45.6,3.1926,4774962,145.58256
1889,45.5,3.1966,4776851,145.4453
1890,45.6,3.1966,4778741,145.76496
1890,45.6,3.1926,4780631,145.58256
1890,45.6,3.1966,4782521,145.76496
3779,45.6,3.1926,4786300,145.58256
3779,45.6,3.1966,4790079,145.76496
1889,45.5,3.1966,4791968,145.4453
3777,45.6,3.1966,4795745,145.76496
1888,45.5,3.1966,4797633,145.4453
1889,45.6,3.1965,4799522,145.7604
1891,45.6,3.1966,4801413,145.76496
1891,45.6,3.1926,4803304,145.58256
1888,45.5,3.1966,4805192,145.4453
1889,45.6,3.1965,4807081,145.7604
1888,45.5,3.1966,4808969,145.4453
1890,45.6,3.1966,4810859,145.76496
1889,45.5,3.1966,4812748,145.4453
1889,45.6,3.1965,4814637,145.7604
1890,45.6,3.1926,4816527,145.58256
1888,45.5,3.1926,4818415,145.26330000000002
1889,45.5,3.1926,4820304,145.26330000000002
1890,45.6,3.2006,4822194,145.94736
1890,45.7,3.1926,4824084,145.90182000000001
1889,45.6,3.1966,4825973,145.76496
1889,45.5,3.1926,4827862,145.26330000000002
1890,45.6,3.1965,4829752,145.7604
1888,45.5,3.1966,4831640,145.4453
1889,45.6,3.1965,4833529,145.7604
1888,45.5,3.1926,4835417,145.26330000000002
1890,45.6,3.1965,4837307,145.7604
1888,45.5,3.1966,4839195,145.4453
1890,45.6,3.1965,4841085,145.7604
1890,45.4,3.1966,4842975,145.12564
1889,45.6,3.1965,4844864,145.7604
1889,45.5,3.1966,4846753,145.4453
1889,45.6,3.1965,4848642,145.7604
1889,45.5,3.1926,4850531,145.26330000000002
1889,45.6,3.1966,4852420,145.76496
1888,45.5,3.1965,4854308,145.44075
1890,45.7,3.1925,4856198,145.89725
1889,45.6,3.1966,4858087,145.76496
1889,45.5,3.1965,4859976,145.44075
1889,45.5,3.1966,4861865,145.4453
1890,45.6,3.1965,4863755,145.7604
1891,45.6,3.1966,4865646,145.76496
1888,45.5,3.1926,4867534,145.26330000000002
1890,45.4,3.1966,4869424,145.12564
1889,45.6,3.1965,4871313,145.7604
1891,45.6,3.1966,4873204,145.76496
3778,45.5,3.1926,4876982,145.26330000000002
1889,45.6,3.1965,4878871,145.7604
1891,45.6,3.1926,4880762,145.58256
1891,45.6,3.1966,4882653,145.76496
1888,43.5,3.1964,4884541,139.04340000000002
1890,45.6,3.1965,4886431,145.7604
1890,45.6,3.1966,4888321,145.76496
1889,45.5,3.1926,4890210,145.26330000000002
1889,45.4,3.1965,4892099,145.12109999999998
1890,45.6,3.1966,4893989,145.76496
5667,45.4,3.1966,4899656,145.12564
1889,45.7,3.1966,4901545,146.08462
1891,45.7,3.2006,4903436,146.26742000000002
1889,45.6,3.1966,4905325,145.76496
1890,45.4,3.1966,4907215,145.12564
1889,45.6,3.1926,4909104,145.58256
1891,45.6,3.1966,4910995,145.76496
1891,45.6,3.1966,4912886,145.76496
1889,45.5,3.1926,4914775,145.26330000000002
1889,45.6,3.1966,4916664,145.76496
1890,45.6,3.1926,4918554,145.58256
1891,45.6,3.1966,4920445,145.76496
3780,45.6,3.1926,4924225,145.58256
1891,45.7,3.1926,4926116,145.90182000000001
1889,45.6,3.1966,4928005,145.76496
1891,45.6,3.1926,4929896,145.58256
1890,45.7,3.1926,4931786,145.90182000000001
1889,45.6,3.1925,4933675,145.578
1888,45.5,3.1926,4935563,145.26330000000002
1889,45.5,3.1965,4937452,145.44075
1890,45.6,3.1925,4939342,145.578
1888,45.5,3.1926,4941230,145.26330000000002
1890,45.6,3.1926,4943120,145.58256
5666,45.5,3.1926,4948786,145.26330000000002
1889,45.2,3.1966,4950675,144.48632
1890,45.6,3.1965,4952565,145.7604
1890,45.6,3.1966,4954455,145.76496
1888,45.5,3.1926,4956343,145.26330000000002
1890,45.6,3.1965,4958233,145.7604
1891,45.6,3.1966,4960124,145.76496
1891,45.6,3.1926,4962015,145.58256
1888,45.5,3.1926,4963903,145.26330000000002
1890,45.6,3.1925,4965793,145.578
1891,45.6,3.1926,4967684,145.58256
1890,45.6,3.1966,4969574,145.76496
1888,45.5,3.1926,4971462,145.26330000000002
1890,45.6,3.1926,4973352,145.58256
1890,45.6,3.1965,4975242,145.7604
1891,45.6,3.1966,4977133,145.76496
1889,45.5,3.1926,4979022,145.26330000000002
1890,45.6,3.1925,4980912,145.578
1891,45.6,3.1926,4982803,145.58256
1890,45.6,3.1965,4984693,145.7604
1888,45.5,3.1926,4986581,145.26330000000002
1890,45.6,3.1925,4988471,145.578
1888,45.5,3.1925,4990359,145.25875
1889,45.6,3.1926,4992248,145.58256
1889,45.5,3.1966,4994137,145.4453
1890,45.6,3.1965,4996027,145.7604
1888,45.5,3.1925,4997915,145.25875
1890,45.6,3.1925,4999805,145.578
1888,45.5,3.1966,5001693,145.4453
1890,45.6,3.1965,5003583,145.7604
1888,45.5,3.1966,5005471,145.4453
1889,45.6,3.1965,5007360,145.7604
1891,45.6,3.2006,5009251,145.94736
1891,45.6,3.1926,5011142,145.58256
1888,45.5,3.1926,5013030,145.26330000000002
1890,45.6,3.1925,5014920,145.578
1891,45.6,3.1925,5016811,145.578
1888,45.5,3.1926,5018699,145.26330000000002
1889,45.5,3.1965,5020588,145.44075
1889,45.6,3.1966,5022477,145.76496
1891,45.6,3.1965,5024368,145.7604
1891,45.6,3.1966,5026259,145.76496
1888,45.5,3.1966,5028147,145.4453
1890,45.6,3.1965,5030037,145.7604
1889,45.5,3.1926,5031926,145.26330000000002
1889,45.5,3.1965,5033815,145.44075
1890,45.6,3.1925,5035705,145.578
1890,45.6,3.1926,5037595,145.58256
3777,45.5,3.1926,5041372,145.26330000000002
1889,45.5,3.1965,5043261,145.44075
1890,45.6,3.1965,5045151,145.7604
1890,45.6,3.1925,5047041,145.578
1891,45.6,3.1926,5048932,145.58256
1891,45.6,3.1966,5050823,145.76496
5667,45.6,3.1926,5056490,145.58256
1890,45.6,3.1966,5058380,145.76496
1891,45.6,3.1926,5060271,145.58256
1891,45.6,3.1965,5062162,145.7604
5668,45.6,3.1966,5067830,145.76496
3781,45.6,3.1926,5071611,145.58256
1890,45.6,3.1965,5073501,145.7604
1891,45.6,3.1966,5075392,145.76496
3778,45.7,3.1966,5079170,146.08462
1888,45.5,3.1965,5081058,145.44075
1888,45.0,3.1965,5082946,143.8425
1890,45.6,3.1965,5084836,145.7604
1892,45.6,3.1925,5086728,145.578
1891,45.6,3.1965,5088619,145.7604
1891,45.6,3.2006,5090510,145.94736
1890,45.6,3.1966,5092400,145.76496
5667,45.6,3.1926,5098067,145.58256
1891,45.6,3.1966,5099958,145.76496
7557,45.6,3.2006,5107515,145.94736
1891,45.6,3.1966,5109406,145.76496
5667,45.6,3.2006,5115073,145.94736
1891,45.6,3.1966,5116964,145.76496
3777,45.5,3.1966,5120741,145.4453
1889,45.6,3.1966,5122630,145.76496
7553,45.5,3.1926,5130183,145.26330000000002
1890,45.5,3.1965,5132073,145.44075
3776,45.6,3.1966,5135849,145.76496
1891,45.6,3.1925,5137740,145.578
1888,45.5,3.1966,5139628,145.4453
1890,45.6,3.1965,5141518,145.7604
1891,45.6,3.1966,5143409,145.76496
1888,45.5,3.1965,5145297,145.44075
1889,45.6,3.1966,5147186,145.76496
1891,45.6,3.1926,5149077,145.58256
1891,45.6,3.1966,5150968,145.76496
1891,45.6,3.1965,5152859,145.7604
1889,45.5,3.1966,5154748,145.4453
1889,45.6,3.1965,5156637,145.7604
1888,45.5,3.1966,5158525,145.4453
1889,45.5,3.1965,5160414,145.44075
1890,45.6,3.1966,5162304,145.76496
1890,45.6,3.2006,5164194,145.94736
1891,45.6,3.1966,5166085,145.76496
1889,45.5,3.1965,5167974,145.44075
1889,45.6,3.1926,5169863,145.58256
1890,45.3,3.2005,5171753,144.98264999999998
1889,45.6,3.1925,5173642,145.578
1888,45.5,3.1926,5175530,145.26330000000002
3777,43.9,3.1926,5179307,140.15514
1890,44.7,3.1964,5181197,142.87908000000002
1888,45.5,3.1965,5183085,145.44075
1890,45.5,3.1926,5184975,145.26330000000002
1890,45.6,3.1926,5186865,145.58256
1891,45.6,3.1966,5188756,145.76496
1890,45.6,3.1926,5190646,145.58256
1888,45.5,3.1926,5192534,145.26330000000002
1890,45.6,3.1965,5194424,145.7604
1891,45.6,3.1966,5196315,145.76496
1888,45.5,3.1926,5198203,145.26330000000002
1890,45.5,3.1925,5200093,145.25875
1890,45.5,3.1926,5201983,145.26330000000002
1889,45.6,3.1966,5203872,145.76496
3777,45.5,3.1966,5207649,145.4453
1890,45.6,3.1925,5209539,145.578
1888,45.5,3.1965,5211427,145.44075
1889,45.6,3.1965,5213316,145.7604
1889,45.5,3.1926,5215205,145.26330000000002
1889,45.6,3.1924,5217094,145.57344
1888,45.5,3.1965,5218982,145.44075
1890,45.6,3.1965,5220872,145.7604
1891,45.6,3.1966,5222763,145.76496
1891,45.6,3.1926,5224654,145.58256
1888,45.5,3.1926,5226542,145.26330000000002
1889,45.6,3.1965,5228431,145.7604
1889,45.5,3.1966,5230320,145.4453
1889,45.6,3.1925,5232209,145.578
1890,44.6,3.1925,5234099,142.3855
1888,43.5,3.1963,5235987,139.03905
1890,45.6,3.1963,5237877,145.75128
1888,45.5,3.1966,5239765,145.4453
3777,45.6,3.1966,5243542,145.76496
1891,45.6,3.2006,5245433,145.94736
1890,45.6,3.1966,5247323,145.76496
1889,45.5,3.1966,5249212,145.4453
1889,45.6,3.1966,5251101,145.76496
1891,45.6,3.2006,5252992,145.94736
1891,45.6,3.1926,5254883,145.58256
1889,45.5,3.1966,5256772,145.4453
1889,45.7,3.1926,5258661,145.90182000000001
1889,45.6,3.1966,5260550,145.76496
3777,45.4,3.1966,5264327,145.12564
1889,45.5,3.1966,5266216,145.4453
1890,45.7,3.1966,5268106,146.08462
1889,45.5,3.2006,5269995,145.6273
1889,45.0,3.1965,5271884,143.8425
1889,45.6,3.1966,5273773,145.76496
3779,45.6,3.2006,5277552,145.94736
1888,45.5,3.1966,5279440,145.4453
1889,45.6,3.1965,5281329,145.7604
1891,45.6,3.1966,5283220,145.76496
1890,45.5,3.1966,5285110,145.4453
1889,45.6,3.2006,5286999,145.94736
1891,45.6,3.1966,5288890,145.76496
1891,45.6,3.1965,5290781,145.7604
3779,45.6,3.1966,5294560,145.76496
1891,45.6,3.1926,5296451,145.58256
1889,45.7,3.1966,5298340,146.08462
1890,45.6,3.1966,5300230,145.76496
1891,45.6,3.2006,5302121,145.94736
1891,45.6,3.1966,5304012,145.76496
3780,45.6,3.1965,5307792,145.7604
1890,45.6,3.1925,5309682,145.578
1891,45.6,3.1966,5311573,145.76496
1889,45.7,3.1926,5313462,145.90182000000001
1890,45.6,3.1926,5315352,145.58256
1888,45.5,3.1925,5317240,145.25875
1890,45.6,3.1965,5319130,145.7604
1891,45.6,3.1926,5321021,145.58256
1891,45.6,3.1966,5322912,145.76496
1889,45.7,3.1965,5324801,146.08005
1890,45.6,3.2006,5326691,145.94736
1890,45.6,3.1966,5328581,145.76496
7553,45.5,3.1966,5336134,145.4453
1890,45.6,3.1965,5338024,145.7604
1891,45.6,3.1926,5339915,145.58256
3779,45.6,3.1966,5343694,145.76496
1890,45.6,3.1926,5345584,145.58256
1891,45.6,3.1966,5347475,145.76496
1890,45.6,3.1965,5349365,145.7604
1889,45.5,3.1966,5351254,145.4453
1889,45.6,3.1965,5353143,145.7604
1891,45.6,3.1926,5355034,145.58256
1890,45.7,3.1966,5356924,146.08462
1888,45.5,3.1925,5358812,145.25875
1889,45.6,3.1965,5360701,145.7604
1891,45.6,3.1966,5362592,145.76496
1891,45.6,3.1925,5364483,145.578
1890,45.6,3.1925,5366373,145.578
1891,45.6,3.1966,5368264,145.76496
1889,45.5,3.1926,5370153,145.26330000000002
1889,45.6,3.1926,5372042,145.58256
1889,45.5,3.1925,5373931,145.25875
1890,45.5,3.1965,5375821,145.44075
3776,45.6,3.1925,5379597,145.578
1888,45.5,3.1965,5381485,145.44075
1889,45.6,3.1966,5383374,145.76496
5666,45.5,3.1966,5389040,145.4453
1889,45.6,3.1926,5390929,145.58256
1891,45.6,3.1966,5392820,145.76496
1891,45.6,3.1926,5394711,145.58256
3778,45.6,3.1925,5398489,145.578
1891,45.6,3.1966,5400380,145.76496
5668,45.6,3.1926,5406048,145.58256
1890,45.3,3.2006,5407938,144.98718
1890,45.6,3.1965,5409828,145.7604
1890,45.6,3.1966,5411718,145.76496
1891,45.5,3.1925,5413609,145.25875
1889,45.3,3.1925,5415498,144.62025
1889,45.4,3.1965,5417387,145.12109999999998
1890,45.6,3.1965,5419277,145.7604
1891,45.6,3.1926,5421168,145.58256
3779,45.6,3.1966,5424947,145.76496
1891,45.6,3.1926,5426838,145.58256
1892,45.6,3.1966,5428730,145.76496
1891,45.6,3.1926,5430621,145.58256
1890,45.6,3.2006,5432511,145.94736
1891,45.6,3.1966,5434402,145.76496
1891,45.6,3.1926,5436293,145.58256
5667,45.6,3.1966,5441960,145.76496
3780,45.6,3.1966,5445740,145.76496
1891,45.6,3.1926,5447631,145.58256
3776,45.5,3.1966,5451407,145.4453
1889,45.5,3.1926,5453296,145.26330000000002
1889,45.6,3.1966,5455185,145.76496
3777,45.5,3.1966,5458962,145.4453
1890,45.6,3.1965,5460852,145.7604
1891,45.6,3.1966,5462743,145.76496
1890,45.6,3.1965,5464633,145.7604
1891,45.6,3.1966,5466524,145.76496
5667,45.6,3.1965,5472191,145.7604
1888,45.5,3.1966,5474079,145.4453
1890,45.6,3.1965,5475969,145.7604
1891,45.6,3.1966,5477860,145.76496
1891,45.6,3.1965,5479751,145.7604
1890,45.6,3.1966,5481641,145.76496
5667,45.6,3.1926,5487308,145.58256
1891,45.6,3.1966,5489199,145.76496
7556,45.6,3.1965,5496755,145.7604
1891,45.6,3.1966,5498646,145.76496
1891,45.6,3.1926,5500537,145.58256
1890,45.6,3.1925,5502427,145.578
1890,45.6,3.1966,5504317,145.76496
1890,45.7,3.1966,5506207,146.08462
1888,45.5,3.1966,5508095,145.4453
1890,45.6,3.1966,5509985,145.76496
1891,45.6,3.1925,5511876,145.578
1891,45.6,3.1966,5513767,145.76496
3777,45.7,3.1966,5517544,146.08462
1890,45.1,3.1966,5519434,144.16666
