dt,current,voltage,time,power
5665,42.6,3.4397,419372,146.53122000000002
1890,45.9,3.4326,421262,157.55633999999998
1889,45.8,3.4326,423151,157.21308
1891,45.8,3.4326,425042,157.21308
1890,45.9,3.4326,426932,157.55633999999998
1889,46.0,3.4326,428821,157.8996
1889,46.0,3.4326,430710,157.8996
1889,45.9,3.4326,432599,157.55633999999998
3778,45.8,3.4326,436377,157.21308
1889,45.9,3.4325,438266,157.55175
1888,46.0,3.4286,440154,157.7156
1890,45.9,3.4326,442044,157.55633999999998
1889,46.0,3.4326,443933,157.8996
1889,45.9,3.4326,445822,157.55633999999998
11330,46.0,3.4326,457152,157.8996
1889,45.9,3.4326,459041,157.55633999999998
1889,46.0,3.4326,460930,157.8996
1890,45.9,3.4326,462820,157.55633999999998
11329,46.0,3.4326,474149,157.8996
1890,46.0,3.4286,476039,157.7156
1889,45.9,3.4326,477928,157.55633999999998
1890,45.8,3.4326,479818,157.21308
1888,46.0,3.4326,481706,157.8996
1890,45.9,3.4326,483596,157.55633999999998
1891,45.9,3.4326,485487,157.55633999999998
1888,46.0,3.4326,487375,157.8996
1890,45.9,3.4326,489265,157.55633999999998
1890,45.9,3.4326,491155,157.55633999999998
3777,46.0,3.4326,494932,157.8996
1890,45.9,3.4326,496822,157.55633999999998
1888,46.0,3.4326,498710,157.8996
1889,46.0,3.4326,500599,157.8996
13213,45.9,3.4326,513812,157.55633999999998
1888,46.0,3.4326,515700,157.8996
1889,46.0,3.4326,517589,157.8996
1889,45.9,3.4326,519478,157.55633999999998
1889,46.0,3.4326,521367,157.8996
1889,46.1,3.4326,523256,158.24286
1890,45.9,3.4326,525146,157.55633999999998
1890,45.9,3.4326,527036,157.55633999999998
3777,46.0,3.4326,530813,157.8996
1890,45.9,3.4326,532703,157.55633999999998
1890,45.9,3.4326,534593,157.55633999999998
1888,46.0,3.4326,536481,157.8996
9439,45.9,3.4286,545920,157.37274
1891,45.9,3.4326,547811,157.55633999999998
1888,46.0,3.4326,549699,157.8996
1890,46.0,3.4326,551589,157.8996
5663,46.0,3.4286,557252,157.7156
1890,45.9,3.4326,559142,157.55633999999998
1888,46.0,3.4326,561030,157.8996
3778,45.1,3.4326,564808,154.81026
1888,46.0,3.4325,566696,157.895
1889,46.0,3.4326,568585,157.8996
7551,46.1,3.4326,576136,158.24286
1889,46.0,3.4326,578025,157.8996
1889,46.0,3.4326,579914,157.8996
9439,46.1,3.4326,589353,158.24286
1888,46.0,3.4326,591241,157.8996
1890,46.0,3.4326,593131,157.8996
1889,46.0,3.4326,595020,157.8996
1890,46.0,3.4326,596910,157.8996
1890,45.9,3.4326,598800,157.55633999999998
1888,46.0,3.4326,600688,157.8996
15101,46.0,3.4366,615789,158.0836
1889,46.0,3.4326,617678,157.8996
1890,46.0,3.4286,619568,157.7156
1889,46.1,3.4326,621457,158.24286
1888,46.0,3.4286,623345,157.7156
1890,46.0,3.4326,625235,157.8996
1889,46.0,3.4326,627124,157.8996
1890,46.0,3.4326,629014,157.8996
9438,45.9,3.4326,638452,157.55633999999998
1889,46.0,3.4326,640341,157.8996
1889,46.0,3.4324,642230,157.8904
1890,46.0,3.4326,644120,157.8996
1890,46.0,3.4326,646010,157.8996
5664,45.9,3.4326,651674,157.55633999999998
1890,45.9,3.4366,653564,157.73994
1890,45.9,3.4326,655454,157.55633999999998
1889,46.0,3.4326,657343,157.8996
1889,46.0,3.4326,659232,157.8996
1890,46.0,3.4286,661122,157.7156
1889,46.0,3.4326,663011,157.8996
3777,46.0,3.4326,666788,157.8996
1890,46.0,3.4285,668678,157.711
1889,46.0,3.4326,670567,157.8996
11326,45.9,3.4326,681893,157.55633999999998
1888,46.0,3.4326,683781,157.8996
5664,45.7,3.4326,689445,156.86982
1889,45.8,3.4326,691334,157.21308
1890,46.0,3.4326,693224,157.8996
1890,45.9,3.4326,695114,157.55633999999998
1891,45.9,3.4326,697005,157.55633999999998
1889,46.0,3.4326,698894,157.8996
7551,46.0,3.4286,706445,157.7156
1889,45.9,3.4326,708334,157.55633999999998
1890,46.0,3.4326,710224,157.8996
1890,45.1,3.4326,712114,154.81026
1890,45.8,3.4285,714004,157.0253
1889,46.0,3.4286,715893,157.7156
1890,46.0,3.4326,717783,157.8996
13213,45.9,3.4326,730996,157.55633999999998
1888,46.0,3.4326,732884,157.8996
1890,46.0,3.4326,734774,157.8996
1889,46.0,3.4326,736663,157.8996
1889,45.9,3.4326,738552,157.55633999999998
1890,45.3,3.4326,740442,155.49677999999997
1888,46.0,3.4326,742330,157.8996
3778,45.9,3.4326,746108,157.55633999999998
1889,46.0,3.4326,747997,157.8996
1889,46.0,3.4326,749886,157.8996
1890,46.0,3.4326,751776,157.8996
3776,45.9,3.4326,755552,157.55633999999998
1889,46.0,3.4286,757441,157.7156
1889,46.0,3.4326,759330,157.8996
1890,45.9,3.4326,761220,157.55633999999998
1890,45.2,3.4326,763110,155.15352000000001
1888,46.0,3.4326,764998,157.8996
1890,46.0,3.4326,766888,157.8996
1890,46.0,3.4326,768778,157.8996
1889,45.9,3.4326,770667,157.55633999999998
3776,46.0,3.4326,774443,157.8996
3776,45.9,3.4326,778219,157.55633999999998
1890,46.0,3.4326,780109,157.8996
1889,46.0,3.4326,781998,157.8996
1890,46.0,3.4326,783888,157.8996
1890,46.0,3.4326,785778,157.8996
3776,46.1,3.4326,789554,158.24286
1888,46.0,3.4326,791442,157.8996
7553,46.0,3.4286,798995,157.7156
1890,45.9,3.4326,800885,157.55633999999998
1888,46.0,3.4326,802773,157.8996
1890,46.0,3.4326,804663,157.8996
1889,46.0,3.4326,806552,157.8996
1889,46.0,3.4326,808441,157.8996
3777,46.0,3.4366,812218,158.0836
1891,46.0,3.4326,814109,157.8996
3777,45.9,3.4326,817886,157.55633999999998
1888,46.0,3.4326,819774,157.8996
1890,46.0,3.4326,821664,157.8996
5663,45.9,3.4326,827327,157.55633999999998
1888,46.0,3.4326,829215,157.8996
1890,46.0,3.4326,831105,157.8996
1889,46.0,3.4324,832994,157.8904
1890,46.0,3.4326,834884,157.8996
1890,45.9,3.4326,836774,157.55633999999998
1888,46.0,3.4326,838662,157.8996
1890,45.9,3.4286,840552,157.37274
1888,46.0,3.4326,842440,157.8996
1889,46.0,3.4326,844329,157.8996
1890,45.9,3.4286,846219,157.37274
1889,46.0,3.4326,848108,157.8996
1890,45.9,3.4326,849998,157.55633999999998
1888,46.0,3.4326,851886,157.8996
1890,45.8,3.4326,853776,157.21308
1888,46.0,3.4326,855664,157.8996
1889,45.9,3.4326,857553,157.55633999999998
1888,46.0,3.4366,859441,158.0836
1890,46.0,3.4326,861331,157.8996
3777,46.0,3.4326,865108,157.8996
1890,46.0,3.4326,866998,157.8996
3777,46.0,3.4286,870775,157.7156
1890,46.0,3.4326,872665,157.8996
9438,46.0,3.4325,882103,157.895
1889,46.0,3.4326,883992,157.8996
1890,45.9,3.4286,885882,157.37274
1889,46.0,3.4326,887771,157.8996
1889,45.9,3.4326,889660,157.55633999999998
1888,46.0,3.4326,891548,157.8996
1890,46.0,3.4326,893438,157.8996
1889,46.0,3.4326,895327,157.8996
1890,46.0,3.4326,897217,157.8996
5665,45.9,3.4326,902882,157.55633999999998
1889,46.0,3.4326,904771,157.8996
1888,45.5,3.4326,906659,156.1833
1888,46.0,3.4325,908547,157.895
1890,46.0,3.4326,910437,157.8996
3777,45.9,3.4326,914214,157.55633999999998
1888,46.0,3.4326,916102,157.8996
1889,46.0,3.4326,917991,157.8996
15100,43.6,3.4326,933091,149.66136
1889,46.0,3.4324,934980,157.8904
1890,46.0,3.4326,936870,157.8996
3776,45.9,3.4326,940646,157.55633999999998
1889,46.0,3.4326,942535,157.8996
1889,46.0,3.4326,944424,157.8996
1889,45.9,3.4326,946313,157.55633999999998
1891,45.9,3.4326,948204,157.55633999999998
3778,46.0,3.4326,951982,157.8996
1889,46.0,3.4326,953871,157.8996
1890,45.9,3.4326,955761,157.55633999999998
1888,46.0,3.4326,957649,157.8996
1890,46.0,3.4326,959539,157.8996
1890,46.0,3.4326,961429,157.8996
1889,46.0,3.4325,963318,157.895
1890,46.0,3.4326,965208,157.8996
1889,45.8,3.4326,967097,157.21308
1889,46.0,3.4326,968986,157.8996
1890,46.0,3.4326,970876,157.8996
1889,45.9,3.4366,972765,157.73994
1888,46.0,3.4326,974653,157.8996
1889,45.9,3.4326,976542,157.55633999999998
1888,46.0,3.4326,978430,157.8996
3777,45.9,3.4326,982207,157.55633999999998
1889,46.0,3.4326,984096,157.8996
1889,45.1,3.4326,985985,154.81026
1890,45.9,3.4326,987875,157.55633999999998
3777,46.0,3.4326,991652,157.8996
1889,46.0,3.4324,993541,157.8904
1889,45.9,3.4326,995430,157.55633999999998
1891,45.9,3.4326,997321,157.55633999999998
3777,46.0,3.4326,1001098,157.8996
1889,46.0,3.4326,1002987,157.8996
7552,46.0,3.4286,1010539,157.7156
1889,45.9,3.4326,1012428,157.55633999999998
1891,45.9,3.4326,1014319,157.55633999999998
1888,46.0,3.4326,1016207,157.8996
1890,46.0,3.4326,1018097,157.8996
1889,46.0,3.4326,1019986,157.8996
1890,46.0,3.4326,1021876,157.8996
3777,45.9,3.4286,1025653,157.37274
1888,46.0,3.4326,1027541,157.8996
1890,46.0,3.4286,1029431,157.7156
1890,46.0,3.4326,1031321,157.8996
5663,45.9,3.4286,1036984,157.37274
1889,46.0,3.4326,1038873,157.8996
1890,45.9,3.4326,1040763,157.55633999999998
3776,46.0,3.4286,1044539,157.7156
1890,46.0,3.4326,1046429,157.8996
5664,45.8,3.4326,1052093,157.21308
1888,46.0,3.4326,1053981,157.8996
1890,45.9,3.4326,1055871,157.55633999999998
1889,46.0,3.4326,1057760,157.8996
1889,46.0,3.4326,1059649,157.8996
1890,46.0,3.4326,1061539,157.8996
1889,45.9,3.4326,1063428,157.55633999999998
1890,45.8,3.4326,1065318,157.21308
1888,46.0,3.4325,1067206,157.895
1889,46.0,3.4366,1069095,158.0836
1890,46.0,3.4326,1070985,157.8996
3777,46.1,3.4326,1074762,158.24286
1888,46.0,3.4326,1076650,157.8996
1889,45.9,3.4326,1078539,157.55633999999998
1888,46.0,3.4326,1080427,157.8996
1890,46.0,3.4326,1082317,157.8996
1889,45.9,3.4326,1084206,157.55633999999998
1888,46.0,3.4326,1086094,157.8996
7552,46.0,3.4326,1093646,157.8996
1889,45.9,3.4326,1095535,157.55633999999998
1888,46.0,3.4326,1097423,157.8996
1890,45.9,3.4326,1099313,157.55633999999998
1888,46.0,3.4326,1101201,157.8996
3777,44.9,3.4326,1104978,154.12374
1888,46.0,3.4325,1106866,157.895
1890,46.0,3.4326,1108756,157.8996
1889,46.0,3.4326,1110645,157.8996
1890,46.0,3.4326,1112535,157.8996
3777,46.1,3.4286,1116312,158.05846
1888,46.0,3.4286,1118200,157.7156
1890,46.0,3.4326,1120090,157.8996
9438,46.1,3.4326,1129528,158.24286
1889,45.9,3.4326,1131417,157.55633999999998
1890,46.1,3.4326,1133307,158.24286
1890,45.9,3.4326,1135197,157.55633999999998
1890,45.9,3.4326,1137087,157.55633999999998
1889,46.0,3.4326,1138976,157.8996
3777,45.9,3.4286,1142753,157.37274
1890,45.9,3.4326,1144643,157.55633999999998
1889,46.0,3.4326,1146532,157.8996
1889,46.0,3.4326,1148421,157.8996
11326,46.0,3.4326,1159747,157.8996
1890,44.6,3.4326,1161637,153.09396
1888,46.0,3.4325,1163525,157.895
1889,45.9,3.4326,1165414,157.55633999999998
1888,46.0,3.4326,1167302,157.8996
1890,45.9,3.4326,1169192,157.55633999999998
1888,46.0,3.4326,1171080,157.8996
1890,45.9,3.4326,1172970,157.55633999999998
3777,46.0,3.4326,1176747,157.8996
1889,46.0,3.4326,1178636,157.8996
5664,46.0,3.4326,1184300,157.8996
1889,46.0,3.4326,1186189,157.8996
1890,45.8,3.4366,1188079,157.39628
1888,46.0,3.4326,1189967,157.8996
3778,45.9,3.4326,1193745,157.55633999999998
1888,46.0,3.4326,1195633,157.8996
1890,46.0,3.4326,1197523,157.8996
1889,45.9,3.4326,1199412,157.55633999999998
3776,46.0,3.4326,1203188,157.8996
1890,46.0,3.4326,1205078,157.8996
9439,45.9,3.4324,1214517,157.54716
1888,46.0,3.4326,1216405,157.8996
1889,46.0,3.4326,1218294,157.8996
1890,46.0,3.4286,1220184,157.7156
1889,46.0,3.4326,1222073,157.8996
1890,46.0,3.4286,1223963,157.7156
1890,46.0,3.4326,1225853,157.8996
1890,46.0,3.4326,1227743,157.8996
5663,46.0,3.4326,1233406,157.8996
1889,46.0,3.4326,1235295,157.8996
1890,46.1,3.4326,1237185,158.24286
1888,46.0,3.4286,1239073,157.7156
1890,46.0,3.4285,1240963,157.711
1890,46.0,3.4326,1242853,157.8996
1889,46.1,3.4326,1244742,158.24286
1889,46.0,3.4326,1246631,157.8996
3775,46.0,3.4326,1250406,157.8996
1890,46.0,3.4286,1252296,157.7156
1889,45.9,3.4326,1254185,157.55633999999998
1888,46.0,3.4326,1256073,157.8996
1890,45.9,3.4326,1257963,157.55633999999998
1888,46.0,3.4326,1259851,157.8996
1890,46.0,3.4326,1261741,157.8996
3777,46.0,3.4326,1265518,157.8996
1889,46.0,3.4326,1267407,157.8996
1890,45.9,3.4326,1269297,157.55633999999998
1888,46.0,3.4326,1271185,157.8996
3776,46.0,3.4326,1274961,157.8996
1890,46.0,3.4326,1276851,157.8996
3777,45.9,3.4286,1280628,157.37274
1888,46.0,3.4286,1282516,157.7156
1890,46.0,3.4326,1284406,157.8996
5663,46.0,3.4285,1290069,157.711
1890,46.0,3.4326,1291959,157.8996
3778,44.8,3.4326,1295737,153.78047999999998
1890,45.6,3.4326,1297627,156.52656
1887,46.0,3.4326,1299514,157.8996
5664,46.0,3.4326,1305178,157.8996
1890,45.8,3.4326,1307068,157.21308
1888,46.0,3.4326,1308956,157.8996
1890,46.0,3.4326,1310846,157.8996
1890,46.0,3.4286,1312736,157.7156
1890,46.0,3.4326,1314626,157.8996
3776,45.9,3.4326,1318402,157.55633999999998
1889,46.0,3.4326,1320291,157.8996
1889,45.9,3.4286,1322180,157.37274
1890,45.6,3.4326,1324070,156.52656
1890,45.9,3.4326,1325960,157.55633999999998
1888,46.0,3.4326,1327848,157.8996
1890,45.9,3.4326,1329738,157.55633999999998
1888,46.0,3.4326,1331626,157.8996
7551,45.9,3.4326,1339177,157.55633999999998
1888,46.0,3.4326,1341065,157.8996
1890,46.0,3.4326,1342955,157.8996
3778,45.9,3.4326,1346733,157.55633999999998
1890,46.1,3.4326,1348623,158.24286
1889,45.9,3.4326,1350512,157.55633999999998
1891,45.9,3.4326,1352403,157.55633999999998
1889,46.0,3.4325,1354292,157.895
1889,45.9,3.4326,1356181,157.55633999999998
1889,46.0,3.4326,1358070,157.8996
1890,46.0,3.4326,1359960,157.8996
1889,46.0,3.4326,1361849,157.8996
1890,46.0,3.4326,1363739,157.8996
3777,45.9,3.4326,1367516,157.55633999999998
1891,45.9,3.4326,1369407,157.55633999999998
1888,46.0,3.4326,1371295,157.8996
16988,46.0,3.4326,1388283,157.8996
1889,46.0,3.4326,1390172,157.8996
3777,46.1,3.4326,1393949,158.24286
1890,43.9,3.4326,1395839,150.69114
1889,46.0,3.4326,1397728,157.8996
1891,46.1,3.4326,1399619,158.24286
1890,46.1,3.4326,1401509,158.24286
1888,46.0,3.4326,1403397,157.8996
1890,46.0,3.4286,1405287,157.7156
1889,46.0,3.4326,1407176,157.8996
9441,44.6,3.4326,1416617,153.09396
1888,46.0,3.4326,1418505,157.8996
1890,45.9,3.4326,1420395,157.55633999999998
1888,46.0,3.4326,1422283,157.8996
1890,45.9,3.4326,1424173,157.55633999999998
1888,46.0,3.4326,1426061,157.8996
1889,46.0,3.4326,1427950,157.8996
1890,45.9,3.4286,1429840,157.37274
1889,46.0,3.4326,1431729,157.8996
1891,46.0,3.4326,1433620,157.8996
1889,45.9,3.4326,1435509,157.55633999999998
3778,43.8,3.4326,1439287,150.34787999999998
1889,46.0,3.4284,1441176,157.7064
1889,46.0,3.4326,1443065,157.8996
1890,46.0,3.4326,1444955,157.8996
1889,46.0,3.4326,1446844,157.8996
5665,45.9,3.4326,1452509,157.55633999999998
1888,46.0,3.4326,1454397,157.8996
9439,45.9,3.4326,1463836,157.55633999999998
1889,46.0,3.4366,1465725,158.0836
1890,46.0,3.4326,1467615,157.8996
1890,45.9,3.4286,1469505,157.37274
1888,46.0,3.4325,1471393,157.895
1889,46.0,3.4326,1473282,157.8996
1890,45.9,3.4326,1475172,157.55633999999998
1888,46.0,3.4326,1477060,157.8996
5666,45.9,3.4326,1482726,157.55633999999998
1890,45.1,3.4326,1484616,154.81026
1889,45.9,3.4326,1486505,157.55633999999998
1891,45.9,3.4326,1488396,157.55633999999998
1889,46.0,3.4326,1490285,157.8996
1889,45.9,3.4326,1492174,157.55633999999998
1889,46.0,3.4326,1494063,157.8996
1889,46.0,3.4326,1495952,157.8996
5666,45.8,3.4326,1501618,157.21308
1889,46.0,3.4286,1503507,157.7156
1889,45.8,3.4326,1505396,157.21308
1889,45.9,3.4326,1507285,157.55633999999998
1889,46.0,3.4326,1509174,157.8996
1890,46.0,3.4325,1511064,157.895
1889,46.0,3.4326,1512953,157.8996
1890,45.9,3.4326,1514843,157.55633999999998
1889,46.0,3.4326,1516732,157.8996
1890,45.8,3.4286,1518622,157.02988
1889,46.0,3.4326,1520511,157.8996
1889,45.9,3.4286,1522400,157.37274
1888,46.0,3.4326,1524288,157.8996
1890,46.0,3.4286,1526178,157.7156
1889,46.0,3.4326,1528067,157.8996
1890,45.9,3.4326,1529957,157.55633999999998
1888,46.0,3.4326,1531845,157.8996
1891,46.0,3.4325,1533736,157.895
1889,46.0,3.4326,1535625,157.8996
7551,45.9,3.4326,1543176,157.55633999999998
1889,46.0,3.4326,1545065,157.8996
5665,46.0,3.4326,1550730,157.8996
1890,46.0,3.4326,1552620,157.8996
3775,45.9,3.4326,1556395,157.55633999999998
1889,46.0,3.4326,1558284,157.8996
3777,44.6,3.4326,1562061,153.09396
1888,46.0,3.4325,1563949,157.895
1890,46.0,3.4326,1565839,157.8996
1890,46.0,3.4286,1567729,157.7156
1890,46.0,3.4326,1569619,157.8996
7551,46.0,3.4286,1577170,157.7156
1889,46.0,3.4326,1579059,157.8996
5665,44.0,3.4326,1584724,151.0344
1889,46.0,3.4324,1586613,157.8904
1889,46.0,3.4326,1588502,157.8996
1890,46.0,3.4326,1590392,157.8996
1889,46.1,3.4326,1592281,158.24286
1889,46.0,3.4326,1594170,157.8996
1889,45.9,3.4326,1596059,157.55633999999998
1891,45.9,3.4326,1597950,157.55633999999998
1888,46.0,3.4326,1599838,157.8996
1891,46.0,3.4326,1601729,157.8996
1890,46.0,3.4326,1603619,157.8996
3776,43.6,3.4326,1607395,149.66136
1889,46.0,3.4326,1609284,157.8996
1890,45.9,3.4326,1611174,157.55633999999998
1888,46.0,3.4326,1613062,157.8996
3777,46.0,3.4326,1616839,157.8996
1891,46.0,3.4326,1618730,157.8996
1890,46.0,3.4326,1620620,157.8996
1889,44.8,3.4326,1622509,153.78047999999998
1889,45.9,3.4286,1624398,157.37274
1888,46.0,3.4326,1626286,157.8996
1890,45.9,3.4326,1628176,157.55633999999998
1888,46.0,3.4326,1630064,157.8996
1890,45.8,3.4326,1631954,157.21308
1888,46.0,3.4326,1633842,157.8996
13214,45.8,3.4326,1647056,157.21308
1889,46.0,3.4326,1648945,157.8996
1889,46.0,3.4286,1650834,157.7156
1891,44.8,3.4326,1652725,153.78047999999998
1890,45.9,3.4325,1654615,157.55175
1889,46.0,3.4286,1656504,157.7156
1889,46.0,3.4326,1658393,157.8996
1889,45.3,3.4326,1660282,155.49677999999997
1889,46.0,3.4325,1662171,157.895
1889,45.8,3.4326,1664060,157.21308
1889,46.0,3.4326,1665949,157.8996
1889,45.9,3.4326,1667838,157.55633999999998
1890,46.0,3.4326,1669728,157.8996
1890,45.9,3.4326,1671618,157.55633999999998
1889,46.0,3.4326,1673507,157.8996
1889,46.0,3.4326,1675396,157.8996
1890,46.0,3.4326,1677286,157.8996
3776,45.8,3.4326,1681062,157.21308
1889,46.0,3.4326,1682951,157.8996
3778,45.9,3.4326,1686729,157.55633999999998
1889,46.0,3.4326,1688618,157.8996
1889,46.0,3.4285,1690507,157.711
1890,46.0,3.4326,1692397,157.8996
1889,45.9,3.4326,1694286,157.55633999999998
1889,46.0,3.4326,1696175,157.8996
1890,46.0,3.4326,1698065,157.8996
1889,46.0,3.4325,1699954,157.895
1890,46.1,3.4326,1701844,158.24286
1889,46.0,3.4286,1703733,157.7156
1890,46.0,3.4286,1705623,157.7156
1889,46.0,3.4326,1707512,157.8996
1890,45.9,3.4326,1709402,157.55633999999998
1888,46.0,3.4326,1711290,157.8996
1890,45.9,3.4326,1713180,157.55633999999998
1888,45.5,3.4326,1715068,156.1833
1888,46.0,3.4326,1716956,157.8996
1890,46.0,3.4326,1718846,157.8996
3778,46.0,3.4286,1722624,157.7156
1889,46.0,3.4326,1724513,157.8996
3777,46.0,3.4286,1728290,157.7156
1889,46.0,3.4326,1730179,157.8996
3776,45.9,3.4326,1733955,157.55633999999998
1889,46.0,3.4326,1735844,157.8996
1890,46.0,3.4326,1737734,157.8996
1890,46.0,3.4324,1739624,157.8904
1889,46.0,3.4326,1741513,157.8996
9438,45.9,3.4326,1750951,157.55633999999998
1888,46.0,3.4326,1752839,157.8996
3779,46.0,3.4326,1756618,157.8996
5664,45.9,3.4326,1762282,157.55633999999998
1888,46.0,3.4325,1764170,157.895
1890,46.0,3.4366,1766060,158.0836
1889,46.0,3.4326,1767949,157.8996
5667,45.9,3.4326,1773616,157.55633999999998
1888,46.0,3.4326,1775504,157.8996
1889,46.0,3.4326,1777393,157.8996
1889,45.9,3.4326,1779282,157.55633999999998
1890,46.1,3.4326,1781172,158.24286
1888,46.0,3.4326,1783060,157.8996
1890,46.0,3.4326,1784950,157.8996
1890,46.0,3.4326,1786840,157.8996
1890,46.0,3.4326,1788730,157.8996
1890,46.0,3.4366,1790620,158.0836
1889,46.0,3.4326,1792509,157.8996
3777,45.9,3.4286,1796286,157.37274
1888,46.0,3.4326,1798174,157.8996
3777,45.9,3.4326,1801951,157.55633999999998
1891,45.9,3.4326,1803842,157.55633999999998
1891,45.3,3.4326,1805733,155.49677999999997
1888,46.0,3.4365,1807621,158.079
1890,45.9,3.4326,1809511,157.55633999999998
1888,46.0,3.4326,1811399,157.8996
1889,45.9,3.4326,1813288,157.55633999999998
1889,46.0,3.4326,1815177,157.8996
1889,46.0,3.4366,1817066,158.0836
1889,46.0,3.4326,1818955,157.8996
3778,46.0,3.4326,1822733,157.8996
1889,46.0,3.4326,1824622,157.8996
1890,45.9,3.4326,1826512,157.55633999999998
3776,46.0,3.4326,1830288,157.8996
5665,44.9,3.4326,1835953,154.12374
1888,46.0,3.4326,1837841,157.8996
1891,45.9,3.4326,1839732,157.55633999999998
1888,46.0,3.4326,1841620,157.8996
1889,46.0,3.4326,1843509,157.8996
3777,46.0,3.4286,1847286,157.7156
1890,46.0,3.4326,1849176,157.8996
3776,45.7,3.4326,1852952,156.86982
1889,46.0,3.4326,1854841,157.8996
1891,46.0,3.4326,1856732,157.8996
1889,45.8,3.4326,1858621,157.21308
1888,46.0,3.4326,1860509,157.8996
1890,45.9,3.4326,1862399,157.55633999999998
1888,46.0,3.4326,1864287,157.8996
5665,46.0,3.4286,1869952,157.7156
1889,46.0,3.4326,1871841,157.8996
3779,45.7,3.4326,1875620,156.86982
1887,46.0,3.4326,1877507,157.8996
9439,45.9,3.4326,1886946,157.55633999999998
1888,46.0,3.4326,1888834,157.8996
1891,46.1,3.4326,1890725,158.24286
1889,46.0,3.4286,1892614,157.7156
1889,45.1,3.4326,1894503,154.81026
1888,46.0,3.4326,1896391,157.8996
7551,45.9,3.4326,1903942,157.55633999999998
3777,46.0,3.4326,1907719,157.8996
1892,46.0,3.4326,1909611,157.8996
1889,46.0,3.4326,1911500,157.8996
1889,46.0,3.4326,1913389,157.8996
5664,45.9,3.4326,1919053,157.55633999999998
1889,46.0,3.4326,1920942,157.8996
13215,46.0,3.4326,1934157,157.8996
1889,46.0,3.4326,1936046,157.8996
5664,46.1,3.4326,1941710,158.24286
1888,46.0,3.4326,1943598,157.8996
1890,45.9,3.4326,1945488,157.55633999999998
1888,46.0,3.4326,1947376,157.8996
1889,46.0,3.4326,1949265,157.8996
5664,45.9,3.4326,1954929,157.55633999999998
1889,46.0,3.4326,1956818,157.8996
1889,45.9,3.4286,1958707,157.37274
1889,46.1,3.4326,1960596,158.24286
1889,46.0,3.4326,1962485,157.8996
1889,46.0,3.4326,1964374,157.8996
3777,45.9,3.4326,1968151,157.55633999999998
1890,45.7,3.4326,1970041,156.86982
1889,45.8,3.4326,1971930,157.21308
1889,46.0,3.4326,1973819,157.8996
1889,46.0,3.4326,1975708,157.8996
1890,46.0,3.4326,1977598,157.8996
1889,46.0,3.4326,1979487,157.8996
1889,46.1,3.4326,1981376,158.24286
1890,45.9,3.4326,1983266,157.55633999999998
1890,45.9,3.4326,1985156,157.55633999999998
1889,46.0,3.4326,1987045,157.8996
3776,45.9,3.4326,1990821,157.55633999999998
1889,46.0,3.4286,1992710,157.7156
1889,45.9,3.4326,1994599,157.55633999999998
1888,46.0,3.4326,1996487,157.8996
1890,46.0,3.4326,1998377,157.8996
3776,46.0,3.4326,2002153,157.8996
1890,46.0,3.4326,2004043,157.8996
5664,46.0,3.4286,2009707,157.7156
1889,46.0,3.4326,2011596,157.8996
5664,44.3,3.4326,2017260,152.06418
1889,44.8,3.4326,2019149,153.78047999999998
1888,46.0,3.4325,2021037,157.895
1890,46.0,3.4326,2022927,157.8996
1889,45.9,3.4326,2024816,157.55633999999998
1888,46.0,3.4326,2026704,157.8996
1890,46.1,3.4326,2028594,158.24286
1887,46.0,3.4326,2030481,157.8996
1890,46.0,3.4326,2032371,157.8996
3775,45.5,3.4326,2036146,156.1833
1889,46.0,3.4325,2038035,157.895
1890,46.0,3.4326,2039925,157.8996
1889,46.0,3.4325,2041814,157.895
1890,46.0,3.4326,2043704,157.8996
1889,46.0,3.4326,2045593,157.8996
3776,46.0,3.4326,2049369,157.8996
1890,46.0,3.4326,2051259,157.8996
1889,46.0,3.4326,2053148,157.8996
3777,45.9,3.4326,2056925,157.55633999999998
1889,46.0,3.4326,2058814,157.8996
1889,46.0,3.4326,2060703,157.8996
13213,46.0,3.4326,2073916,157.8996
3777,46.1,3.4326,2077693,158.24286
1889,45.4,3.4326,2079582,155.84004
1888,46.0,3.4326,2081470,157.8996
1890,46.0,3.4286,2083360,157.7156
1889,46.0,3.4326,2085249,157.8996
3777,45.9,3.4326,2089026,157.55633999999998
1889,46.0,3.4326,2090915,157.8996
1889,46.0,3.4326,2092804,157.8996
1890,46.0,3.4366,2094694,158.0836
1889,46.0,3.4326,2096583,157.8996
3776,46.0,3.4286,2100359,157.7156
1890,46.0,3.4326,2102249,157.8996
1890,45.9,3.4326,2104139,157.55633999999998
1888,46.0,3.4326,2106027,157.8996
1890,45.9,3.4326,2107917,157.55633999999998
1888,46.0,3.4326,2109805,157.8996
1890,46.0,3.4326,2111695,157.8996
3776,46.0,3.4325,2115471,157.895
1889,45.8,3.4286,2117360,157.02988
1889,46.0,3.4326,2119249,157.8996
1890,46.0,3.4326,2121139,157.8996
1889,46.0,3.4326,2123028,157.8996
1890,46.0,3.4326,2124918,157.8996
1890,46.0,3.4326,2126808,157.8996
7551,45.8,3.4326,2134359,157.21308
1888,46.0,3.4326,2136247,157.8996
1889,46.0,3.4326,2138136,157.8996
1890,45.9,3.4286,2140026,157.37274
1890,43.8,3.4326,2141916,150.34787999999998
1888,46.0,3.4324,2143804,157.8904
1890,46.0,3.4326,2145694,157.8996
3776,45.9,3.4326,2149470,157.55633999999998
1890,45.9,3.4326,2151360,157.55633999999998
1889,46.0,3.4326,2153249,157.8996
1889,46.0,3.4326,2155138,157.8996
1890,45.9,3.4286,2157028,157.37274
1888,46.0,3.4326,2158916,157.8996
1890,46.0,3.4286,2160806,157.7156
1890,45.9,3.4326,2162696,157.55633999999998
1888,46.0,3.4286,2164584,157.7156
1889,45.8,3.4326,2166473,157.21308
1888,46.0,3.4326,2168361,157.8996
1890,46.0,3.4326,2170251,157.8996
1889,46.0,3.4326,2172140,157.8996
1889,46.0,3.4326,2174029,157.8996
3777,46.1,3.4326,2177806,158.24286
1888,46.0,3.4326,2179694,157.8996
1890,45.9,3.4286,2181584,157.37274
1889,46.1,3.4326,2183473,158.24286
1888,46.0,3.4286,2185361,157.7156
1890,46.0,3.4326,2187251,157.8996
3777,46.0,3.4286,2191028,157.7156
1890,45.9,3.4326,2192918,157.55633999999998
1888,45.0,3.4286,2194806,154.287
1888,46.0,3.4326,2196694,157.8996
1889,46.0,3.4326,2198583,157.8996
1890,46.0,3.4326,2200473,157.8996
1889,44.8,3.4326,2202362,153.78047999999998
1888,46.0,3.4326,2204250,157.8996
1889,46.0,3.4326,2206139,157.8996
1890,46.0,3.4326,2208029,157.8996
7551,46.0,3.4326,2215580,157.8996
1889,46.0,3.4326,2217469,157.8996
1889,45.9,3.4326,2219358,157.55633999999998
1890,46.1,3.4326,2221248,158.24286
1888,46.0,3.4326,2223136,157.8996
9438,46.1,3.4326,2232574,158.24286
1888,46.0,3.4286,2234462,157.7156
1890,46.0,3.4326,2236352,157.8996
1890,45.9,3.4326,2238242,157.55633999999998
1888,46.0,3.4326,2240130,157.8996
5665,45.8,3.4326,2245795,157.21308
1888,46.0,3.4326,2247683,157.8996
1889,45.9,3.4326,2249572,157.55633999999998
1888,46.0,3.4326,2251460,157.8996
1890,46.0,3.4326,2253350,157.8996
5664,45.9,3.4326,2259014,157.55633999999998
1889,46.0,3.4326,2260903,157.8996
1889,45.9,3.4326,2262792,157.55633999999998
1889,46.0,3.4326,2264681,157.8996
1888,46.0,3.4326,2266569,157.8996
11327,46.0,3.4326,2277896,157.8996
1890,46.0,3.4285,2279786,157.711
1889,46.1,3.4326,2281675,158.24286
1888,46.0,3.4326,2283563,157.8996
1889,45.9,3.4286,2285452,157.37274
1889,46.0,3.4326,2287341,157.8996
5664,46.1,3.4326,2293005,158.24286
1890,45.9,3.4326,2294895,157.55633999999998
1888,46.0,3.4326,2296783,157.8996
1889,45.9,3.4326,2298672,157.55633999999998
1889,46.0,3.4326,2300561,157.8996
1889,45.8,3.4326,2302450,157.21308
1888,46.0,3.4286,2304338,157.7156
1891,46.0,3.4326,2306229,157.8996
1890,45.9,3.4326,2308119,157.55633999999998
1888,46.0,3.4326,2310007,157.8996
1890,45.9,3.4326,2311897,157.55633999999998
1888,46.0,3.4326,2313785,157.8996
1890,45.9,3.4326,2315675,157.55633999999998
1888,46.0,3.4326,2317563,157.8996
1889,45.9,3.4326,2319452,157.55633999999998
1888,46.0,3.4326,2321340,157.8996
3778,45.9,3.4326,2325118,157.55633999999998
1888,46.0,3.4326,2327006,157.8996
1890,45.8,3.4326,2328896,157.21308
1889,46.0,3.4326,2330785,157.8996
1889,46.0,3.4286,2332674,157.7156
1889,45.7,3.4326,2334563,156.86982
1889,45.9,3.4326,2336452,157.55633999999998
1889,46.0,3.4326,2338341,157.8996
7552,45.9,3.4326,2345893,157.55633999999998
5666,45.7,3.4326,2351559,156.86982
1888,46.0,3.4326,2353447,157.8996
3778,46.0,3.4286,2357225,157.7156
1890,46.0,3.4326,2359115,157.8996
1890,45.9,3.4325,2361005,157.55175
1889,46.0,3.4326,2362894,157.8996
5663,46.0,3.4286,2368557,157.7156
1889,46.0,3.4326,2370446,157.8996
7553,46.0,3.4326,2377999,157.8996
1890,46.0,3.4326,2379889,157.8996
1890,45.9,3.4326,2381779,157.55633999999998
1888,46.0,3.4326,2383667,157.8996
1889,46.0,3.4325,2385556,157.895
1889,46.1,3.4326,2387445,158.24286
1889,44.0,3.4286,2389334,150.8584
1889,46.0,3.4284,2391223,157.7064
1891,46.0,3.4326,2393114,157.8996
1889,46.0,3.4326,2395003,157.8996
5663,45.0,3.4326,2400666,154.46699999999998
1888,46.0,3.4326,2402554,157.8996
1890,46.1,3.4326,2404444,158.24286
1888,46.0,3.4326,2406332,157.8996
1890,46.0,3.4326,2408222,157.8996
1890,46.0,3.4326,2410112,157.8996
1890,43.6,3.4326,2412002,149.66136
1889,46.0,3.4284,2413891,157.7064
1890,46.0,3.4326,2415781,157.8996
3776,46.0,3.4286,2419557,157.7156
1889,45.9,3.4326,2421446,157.55633999999998
1888,46.0,3.4326,2423334,157.8996
3779,46.0,3.4326,2427113,157.8996
1890,46.0,3.4326,2429003,157.8996
1890,45.9,3.4286,2430893,157.37274
1888,46.0,3.4326,2432781,157.8996
1890,46.0,3.4326,2434671,157.8996
5662,45.1,3.4326,2440333,154.81026
1891,45.9,3.4326,2442224,157.55633999999998
1892,45.9,3.4286,2444116,157.37274
1889,46.1,3.4326,2446005,158.24286
1889,46.0,3.4286,2447894,157.7156
1890,46.0,3.4326,2449784,157.8996
3776,45.9,3.4326,2453560,157.55633999999998
1887,46.0,3.4326,2455447,157.8996
1890,46.0,3.4326,2457337,157.8996
1891,46.0,3.4326,2459228,157.8996
1890,46.0,3.4326,2461118,157.8996
3777,46.1,3.4326,2464895,158.24286
1890,46.1,3.4286,2466785,158.05846
1889,46.0,3.4326,2468674,157.8996
1889,45.9,3.4326,2470563,157.55633999999998
1891,45.9,3.4326,2472454,157.55633999999998
1890,45.9,3.4326,2474344,157.55633999999998
1888,46.0,3.4326,2476232,157.8996
3778,46.0,3.4286,2480010,157.7156
1889,46.1,3.4326,2481899,158.24286
1889,46.0,3.4326,2483788,157.8996
3776,45.9,3.4326,2487564,157.55633999999998
1888,46.0,3.4326,2489452,157.8996
1890,46.0,3.4326,2491342,157.8996
5663,45.9,3.4326,2497005,157.55633999999998
1889,46.0,3.4326,2498894,157.8996
1890,45.9,3.4286,2500784,157.37274
1888,46.0,3.4326,2502672,157.8996
1889,46.0,3.4326,2504561,157.8996
1890,45.8,3.4326,2506451,157.21308
1888,46.0,3.4326,2508339,157.8996
1891,45.9,3.4326,2510230,157.55633999999998
1888,46.0,3.4326,2512118,157.8996
1890,46.0,3.4326,2514008,157.8996
1890,44.1,3.4286,2515898,151.20126
1888,46.0,3.4326,2517786,157.8996
1890,46.0,3.4326,2519676,157.8996
3776,45.8,3.4326,2523452,157.21308
1889,46.0,3.4326,2525341,157.8996
1889,46.0,3.4326,2527230,157.8996
7552,45.9,3.4326,2534782,157.55633999999998
1890,43.7,3.4326,2536672,150.00462000000002
1888,46.0,3.4284,2538560,157.7064
1889,46.0,3.4326,2540449,157.8996
1889,46.0,3.4326,2542338,157.8996
1891,46.0,3.4326,2544229,157.8996
1890,45.4,3.4326,2546119,155.84004
1888,46.0,3.4326,2548007,157.8996
5664,45.9,3.4326,2553671,157.55633999999998
1888,46.0,3.4326,2555559,157.8996
1890,46.0,3.4286,2557449,157.7156
3778,46.0,3.4326,2561227,157.8996
1890,46.1,3.4286,2563117,158.05846
1889,46.0,3.4326,2565006,157.8996
1888,45.5,3.4324,2566894,156.17419999999998
1889,46.0,3.4325,2568783,157.895
1889,46.0,3.4286,2570672,157.7156
1890,46.0,3.4326,2572562,157.8996
1889,46.0,3.4326,2574451,157.8996
7554,45.9,3.4326,2582005,157.55633999999998
1888,46.0,3.4326,2583893,157.8996
1890,45.9,3.4326,2585783,157.55633999999998
1888,46.0,3.4326,2587671,157.8996
1890,46.0,3.4324,2589561,157.8904
1889,45.9,3.4326,2591450,157.55633999999998
1890,45.9,3.4326,2593340,157.55633999999998
1889,46.0,3.4326,2595229,157.8996
1890,46.0,3.4326,2597119,157.8996
3777,45.9,3.4326,2600896,157.55633999999998
1890,45.9,3.4326,2602786,157.55633999999998
1889,46.0,3.4326,2604675,157.8996
1889,46.0,3.4326,2606564,157.8996
1889,46.0,3.4326,2608453,157.8996
1889,46.0,3.4326,2610342,157.8996
3777,45.8,3.4286,2614119,157.02988
1888,46.0,3.4286,2616007,157.7156
1890,44.1,3.4326,2617897,151.37766
1888,46.0,3.4324,2619785,157.8904
1890,46.0,3.4326,2621675,157.8996
1889,46.0,3.4326,2623564,157.8996
1889,45.9,3.4326,2625453,157.55633999999998
1888,46.0,3.4326,2627341,157.8996
1890,45.9,3.4286,2629231,157.37274
1888,46.0,3.4326,2631119,157.8996
1890,45.9,3.4326,2633009,157.55633999999998
1891,45.9,3.4326,2634900,157.55633999999998
1889,46.0,3.4326,2636789,157.8996
1889,46.0,3.4326,2638678,157.8996
1889,46.0,3.4326,2640567,157.8996
1890,45.9,3.4326,2642457,157.55633999999998
1888,46.0,3.4326,2644345,157.8996
1889,46.0,3.4326,2646234,157.8996
1890,46.0,3.4324,2648124,157.8904
1890,46.0,3.4326,2650014,157.8996
16989,46.1,3.4326,2667003,158.24286
1889,46.0,3.4326,2668892,157.8996
1889,46.0,3.4326,2670781,157.8996
1890,46.0,3.4286,2672671,157.7156
1889,46.0,3.4366,2674560,158.0836
1889,46.0,3.4326,2676449,157.8996
1889,45.9,3.4326,2678338,157.55633999999998
1891,46.1,3.4326,2680229,158.24286
1890,45.9,3.4326,2682119,157.55633999999998
1888,46.0,3.4326,2684007,157.8996
1890,46.0,3.4326,2685897,157.8996
1890,46.0,3.4286,2687787,157.7156
1889,45.9,3.4326,2689676,157.55633999999998
1888,46.0,3.4326,2691564,157.8996
1889,46.0,3.4326,2693453,157.8996
9440,45.9,3.4326,2702893,157.55633999999998
1891,45.9,3.4326,2704784,157.55633999999998
1888,46.0,3.4326,2706672,157.8996
3777,45.6,3.4326,2710449,156.52656
1888,46.0,3.4326,2712337,157.8996
3779,46.0,3.4326,2716116,157.8996
1889,45.8,3.4326,2718005,157.21308
1889,46.0,3.4326,2719894,157.8996
1890,46.0,3.4326,2721784,157.8996
1889,46.0,3.4326,2723673,157.8996
5663,46.0,3.4324,2729336,157.8904
1890,45.9,3.4326,2731226,157.55633999999998
3778,46.0,3.4326,2735004,157.8996
1890,45.9,3.4326,2736894,157.55633999999998
1888,46.0,3.4326,2738782,157.8996
7551,46.0,3.4326,2746333,157.8996
1889,46.0,3.4326,2748222,157.8996
5666,45.9,3.4326,2753888,157.55633999999998
1888,46.0,3.4326,2755776,157.8996
9438,45.9,3.4326,2765214,157.55633999999998
1889,46.1,3.4326,2767103,158.24286
1888,46.0,3.4326,2768991,157.8996
1890,44.8,3.4286,2770881,153.60127999999997
1890,45.9,3.4325,2772771,157.55175
1888,46.0,3.4326,2774659,157.8996
1890,46.0,3.4326,2776549,157.8996
3777,46.0,3.4324,2780326,157.8904
1889,46.0,3.4326,2782215,157.8996
5665,45.9,3.4326,2787880,157.55633999999998
1888,46.0,3.4326,2789768,157.8996
1890,46.0,3.4326,2791658,157.8996
3775,46.0,3.4326,2795433,157.8996
1890,45.9,3.4326,2797323,157.55633999999998
1888,46.0,3.4326,2799211,157.8996
1890,46.0,3.4326,2801101,157.8996
1889,46.0,3.4286,2802990,157.7156
1890,46.0,3.4286,2804880,157.7156
1890,46.0,3.4326,2806770,157.8996
3776,45.9,3.4286,2810546,157.37274
1889,46.1,3.4326,2812435,158.24286
1889,45.8,3.4326,2814324,157.21308
1889,46.0,3.4326,2816213,157.8996
1889,46.0,3.4326,2818102,157.8996
9439,45.9,3.4326,2827541,157.55633999999998
1890,45.9,3.4326,2829431,157.55633999999998
1889,46.0,3.4326,2831320,157.8996
1890,45.9,3.4326,2833210,157.55633999999998
1888,46.0,3.4326,2835098,157.8996
1889,45.9,3.4326,2836987,157.55633999999998
1889,46.0,3.4326,2838876,157.8996
1890,46.0,3.4326,2840766,157.8996
1889,45.9,3.4326,2842655,157.55633999999998
1888,46.0,3.4326,2844543,157.8996
3776,45.3,3.4326,2848319,155.49677999999997
1889,46.0,3.4325,2850208,157.895
1890,46.0,3.4326,2852098,157.8996
5664,45.9,3.4326,2857762,157.55633999999998
1889,46.0,3.4326,2859651,157.8996
3775,45.9,3.4326,2863426,157.55633999999998
1888,46.0,3.4326,2865314,157.8996
1890,46.0,3.4326,2867204,157.8996
1890,46.0,3.4326,2869094,157.8996
1889,45.9,3.4326,2870983,157.55633999999998
1889,46.0,3.4326,2872872,157.8996
1890,44.2,3.4326,2874762,151.72092
1888,46.0,3.4326,2876650,157.8996
1889,46.0,3.4286,2878539,157.7156
1890,46.0,3.4326,2880429,157.8996
5664,46.0,3.4326,2886093,157.8996
1890,45.9,3.4326,2887983,157.55633999999998
1888,46.0,3.4326,2889871,157.8996
1890,45.3,3.4326,2891761,155.49677999999997
1888,46.0,3.4326,2893649,157.8996
3777,45.8,3.4326,2897426,157.21308
1889,45.9,3.4326,2899315,157.55633999999998
1888,46.0,3.4286,2901203,157.7156
1890,46.0,3.4326,2903093,157.8996
1890,45.9,3.4326,2904983,157.55633999999998
1888,46.0,3.4326,2906871,157.8996
1890,46.0,3.4326,2908761,157.8996
3777,46.1,3.4326,2912538,158.24286
1887,46.0,3.4326,2914425,157.8996
1890,46.0,3.4326,2916315,157.8996
1889,46.0,3.4326,2918204,157.8996
1890,46.0,3.4366,2920094,158.0836
1888,45.5,3.4326,2921982,156.1833
1889,46.0,3.4325,2923871,157.895
1890,45.8,3.4326,2925761,157.21308
1888,46.0,3.4326,2927649,157.8996
5664,46.0,3.4286,2933313,157.7156
1890,46.0,3.4326,2935203,157.8996
1889,46.0,3.4326,2937092,157.8996
3777,46.0,3.4326,2940869,157.8996
1890,45.9,3.4326,2942759,157.55633999999998
1888,46.0,3.4326,2944647,157.8996
1889,46.0,3.4326,2946536,157.8996
3776,46.0,3.4326,2950312,157.8996
1890,46.0,3.4326,2952202,157.8996
3777,46.1,3.4326,2955979,158.24286
1888,46.0,3.4326,2957867,157.8996
1890,45.9,3.4286,2959757,157.37274
1888,46.0,3.4326,2961645,157.8996
1890,46.0,3.4326,2963535,157.8996
1889,46.0,3.4326,2965424,157.8996
1889,46.0,3.4325,2967313,157.895
1890,46.0,3.4326,2969203,157.8996
3777,45.9,3.4326,2972980,157.55633999999998
3777,46.0,3.4326,2976757,157.8996
3776,46.0,3.4366,2980533,158.0836
1890,44.7,3.4286,2982423,153.25842
1888,46.0,3.4326,2984311,157.8996
7552,45.9,3.4326,2991863,157.55633999999998
1888,46.0,3.4326,2993751,157.8996
1889,46.0,3.4326,2995640,157.8996
1889,46.0,3.4326,2997529,157.8996
1890,46.0,3.4326,2999419,157.8996
1889,46.0,3.4326,3001308,157.8996
3777,45.9,3.4326,3005085,157.55633999999998
1889,46.0,3.4326,3006974,157.8996
1890,45.9,3.4366,3008864,157.73994
1888,46.0,3.4326,3010752,157.8996
1890,46.0,3.4326,3012642,157.8996
9437,45.9,3.4326,3022079,157.55633999999998
1889,46.0,3.4326,3023968,157.8996
7551,45.9,3.4326,3031519,157.55633999999998
1889,46.0,3.4326,3033408,157.8996
1889,46.1,3.4326,3035297,158.24286
1888,46.0,3.4326,3037185,157.8996
1890,45.9,3.4326,3039075,157.55633999999998
1888,46.0,3.4326,3040963,157.8996
1890,46.0,3.4326,3042853,157.8996
1889,46.0,3.4286,3044742,157.7156
1890,46.0,3.4326,3046632,157.8996
3777,45.9,3.4326,3050409,157.55633999999998
1888,46.0,3.4326,3052297,157.8996
1890,46.0,3.4326,3054187,157.8996
1889,46.1,3.4325,3056076,158.23825000000002
1889,46.0,3.4326,3057965,157.8996
1889,46.0,3.4326,3059854,157.8996
20764,46.0,3.4326,3080618,157.8996
1890,46.0,3.4326,3082508,157.8996
1889,44.2,3.4326,3084397,151.72092
1889,46.0,3.4324,3086286,157.8904
1889,46.0,3.4286,3088175,157.7156
1890,46.0,3.4326,3090065,157.8996
1890,46.0,3.4326,3091955,157.8996
1890,45.9,3.4326,3093845,157.55633999999998
1889,46.0,3.4326,3095734,157.8996
5663,45.9,3.4326,3101397,157.55633999999998
1889,46.0,3.4326,3103286,157.8996
1890,45.9,3.4326,3105176,157.55633999999998
1890,45.9,3.4326,3107066,157.55633999999998
1889,46.0,3.4326,3108955,157.8996
1889,46.0,3.4326,3110844,157.8996
1891,45.7,3.4325,3112735,156.86525
1889,46.1,3.4326,3114624,158.24286
1888,46.0,3.4326,3116512,157.8996
1890,46.0,3.4326,3118402,157.8996
1889,45.9,3.4326,3120291,157.55633999999998
1889,46.0,3.4326,3122180,157.8996
3776,45.9,3.4326,3125956,157.55633999999998
1891,45.9,3.4326,3127847,157.55633999999998
1889,46.0,3.4326,3129736,157.8996
11325,46.0,3.4366,3141061,158.0836
1890,46.0,3.4326,3142951,157.8996
1890,46.0,3.4326,3144841,157.8996
1891,45.9,3.4326,3146732,157.55633999999998
1890,45.9,3.4326,3148622,157.55633999999998
1889,46.0,3.4326,3150511,157.8996
1889,45.9,3.4326,3152400,157.55633999999998
5668,45.9,3.4326,3158068,157.55633999999998
1888,46.0,3.4326,3159956,157.8996
1889,45.5,3.4326,3161845,156.1833
1889,46.0,3.4326,3163734,157.8996
7551,45.9,3.4326,3171285,157.55633999999998
1888,46.0,3.4326,3173173,157.8996
1889,46.0,3.4286,3175062,157.7156
1890,45.9,3.4326,3176952,157.55633999999998
1889,46.0,3.4286,3178841,157.7156
3778,46.1,3.4326,3182619,158.24286
1890,46.1,3.4326,3184509,158.24286
1890,45.9,3.4326,3186399,157.55633999999998
1888,46.0,3.4326,3188287,157.8996
1890,45.9,3.4326,3190177,157.55633999999998
1888,46.0,3.4326,3192065,157.8996
1890,46.0,3.4326,3193955,157.8996
1890,43.7,3.4326,3195845,150.00462000000002
1889,46.0,3.4326,3197734,157.8996
5663,45.9,3.4326,3203397,157.55633999999998
1889,46.0,3.4326,3205286,157.8996
16988,45.5,3.4326,3222274,156.1833
1890,45.9,3.4325,3224164,157.55175
1888,46.0,3.4326,3226052,157.8996
1890,46.0,3.4326,3227942,157.8996
7553,46.0,3.4326,3235495,157.8996
1890,45.9,3.4326,3237385,157.55633999999998
1888,46.0,3.4326,3239273,157.8996
1889,46.0,3.4286,3241162,157.7156
1889,46.0,3.4326,3243051,157.8996
1890,46.0,3.4326,3244941,157.8996
1890,45.9,3.4326,3246831,157.55633999999998
1888,46.0,3.4326,3248719,157.8996
1892,46.0,3.4326,3250611,157.8996
1889,44.7,3.4326,3252500,153.43722
1888,46.0,3.4326,3254388,157.8996
3777,46.0,3.4286,3258165,157.7156
1889,46.0,3.4326,3260054,157.8996
1890,46.0,3.4286,3261944,157.7156
1890,46.0,3.4326,3263834,157.8996
5665,46.0,3.4326,3269499,157.8996
1889,46.0,3.4326,3271388,157.8996
1890,45.9,3.4326,3273278,157.55633999999998
1891,45.9,3.4326,3275169,157.55633999999998
1888,46.0,3.4326,3277057,157.8996
1890,45.9,3.4325,3278947,157.55175
1888,46.0,3.4326,3280835,157.8996
1891,46.0,3.4326,3282726,157.8996
1890,46.1,3.4326,3284616,158.24286
1889,46.0,3.4326,3286505,157.8996
1889,46.0,3.4326,3288394,157.8996
5664,46.0,3.4325,3294058,157.895
1889,46.0,3.4326,3295947,157.8996
3778,45.9,3.4326,3299725,157.55633999999998
1892,45.9,3.4326,3301617,157.55633999999998
1888,46.0,3.4326,3303505,157.8996
11325,45.9,3.4326,3314830,157.55633999999998
1888,46.0,3.4326,3316718,157.8996
5666,45.9,3.4286,3322384,157.37274
1891,45.9,3.4326,3324275,157.55633999999998
1888,46.0,3.4326,3326163,157.8996
1889,46.0,3.4324,3328052,157.8904
1890,46.0,3.4326,3329942,157.8996
1889,45.9,3.4326,3331831,157.55633999999998
1889,44.5,3.4326,3333720,152.7507
1891,45.9,3.4326,3335611,157.55633999999998
1889,46.0,3.4326,3337500,157.8996
1889,46.0,3.4326,3339389,157.8996
3776,45.9,3.4326,3343165,157.55633999999998
1889,46.0,3.4366,3345054,158.0836
1889,46.0,3.4286,3346943,157.7156
1890,45.9,3.4326,3348833,157.55633999999998
1888,46.0,3.4326,3350721,157.8996
1892,45.9,3.4326,3352613,157.55633999999998
1888,46.0,3.4326,3354501,157.8996
1889,46.0,3.4326,3356390,157.8996
1890,46.0,3.4324,3358280,157.8904
1890,46.0,3.4326,3360170,157.8996
3777,45.9,3.4326,3363947,157.55633999999998
1888,46.0,3.4326,3365835,157.8996
9441,46.0,3.4326,3375276,157.8996
1890,46.0,3.4326,3377166,157.8996
3776,45.8,3.4326,3380942,157.21308
1890,45.9,3.4326,3382832,157.55633999999998
1892,45.9,3.4326,3384724,157.55633999999998
1889,46.0,3.4366,3386613,158.0836
1890,46.0,3.4326,3388503,157.8996
3776,45.9,3.4286,3392279,157.37274
1889,46.0,3.4326,3394168,157.8996
1890,46.0,3.4326,3396058,157.8996
1889,45.9,3.4326,3397947,157.55633999999998
1889,46.0,3.4326,3399836,157.8996
1890,46.0,3.4326,3401726,157.8996
1891,45.9,3.4326,3403617,157.55633999999998
1888,46.0,3.4326,3405505,157.8996
1887,44.0,3.4326,3407392,151.0344
1889,46.0,3.4286,3409281,157.7156
1889,46.0,3.4326,3411170,157.8996
1889,45.9,3.4326,3413059,157.55633999999998
1889,46.0,3.4326,3414948,157.8996
13215,45.9,3.4326,3428163,157.55633999999998
1888,46.0,3.4326,3430051,157.8996
1889,46.0,3.4325,3431940,157.895
1890,46.0,3.4326,3433830,157.8996
1889,45.9,3.4326,3435719,157.55633999999998
1890,44.0,3.4326,3437609,151.0344
1888,46.0,3.4326,3439497,157.8996
1890,45.9,3.4326,3441387,157.55633999999998
1888,46.0,3.4326,3443275,157.8996
1890,45.8,3.4286,3445165,157.02988
1888,46.0,3.4326,3447053,157.8996
1890,46.0,3.4326,3448943,157.8996
1889,46.0,3.4326,3450832,157.8996
1890,46.0,3.4326,3452722,157.8996
5666,45.9,3.4326,3458388,157.55633999999998
1888,46.0,3.4326,3460276,157.8996
1890,46.0,3.4326,3462166,157.8996
1889,46.0,3.4326,3464055,157.8996
1890,46.0,3.4326,3465945,157.8996
1889,45.9,3.4324,3467834,157.54716
1890,46.0,3.4326,3469724,157.8996
1890,46.0,3.4326,3471614,157.8996
1890,45.9,3.4326,3473504,157.55633999999998
1889,44.8,3.4326,3475393,153.78047999999998
1888,46.0,3.4325,3477281,157.895
1890,46.0,3.4326,3479171,157.8996
1889,45.9,3.4326,3481060,157.55633999999998
1888,46.0,3.4326,3482948,157.8996
7554,45.9,3.4286,3490502,157.37274
1888,46.0,3.4326,3492390,157.8996
1889,45.8,3.4326,3494279,157.21308
1888,44.0,3.4326,3496167,151.0344
1889,46.0,3.4326,3498056,157.8996
1890,46.1,3.4326,3499946,158.24286
1888,46.0,3.4326,3501834,157.8996
1891,46.0,3.4326,3503725,157.8996
1890,46.1,3.4326,3505615,158.24286
1888,46.0,3.4326,3507503,157.8996
1889,46.0,3.4326,3509392,157.8996
3777,46.0,3.4326,3513169,157.8996
1889,46.0,3.4326,3515058,157.8996
1889,43.6,3.4326,3516947,149.66136
1889,46.0,3.4284,3518836,157.7064
1891,46.1,3.4326,3520727,158.24286
1890,45.1,3.4326,3522617,154.81026
1888,46.0,3.4326,3524505,157.8996
11326,45.9,3.4326,3535831,157.55633999999998
1888,46.0,3.4326,3537719,157.8996
5666,46.1,3.4326,3543385,158.24286
1888,46.0,3.4286,3545273,157.7156
1889,45.9,3.4326,3547162,157.55633999999998
1889,46.0,3.4326,3549051,157.8996
11324,45.9,3.4326,3560375,157.55633999999998
3777,46.0,3.4326,3564152,157.8996
7551,46.0,3.4286,3571703,157.7156
1890,45.9,3.4326,3573593,157.55633999999998
1888,46.0,3.4326,3575481,157.8996
1889,46.0,3.4326,3577370,157.8996
3777,45.9,3.4326,3581147,157.55633999999998
1889,46.0,3.4326,3583036,157.8996
1889,46.0,3.4326,3584925,157.8996
5664,45.9,3.4326,3590589,157.55633999999998
1889,46.0,3.4326,3592478,157.8996
1889,45.9,3.4326,3594367,157.55633999999998
1888,46.0,3.4326,3596255,157.8996
1890,46.0,3.4286,3598145,157.7156
1890,46.0,3.4326,3600035,157.8996
5664,46.0,3.4326,3605699,157.8996
1889,45.8,3.4326,3607588,157.21308
1890,45.9,3.4326,3609478,157.55633999999998
1888,46.0,3.4326,3611366,157.8996
1889,46.0,3.4286,3613255,157.7156
1890,46.0,3.4326,3615145,157.8996
3777,46.1,3.4326,3618922,158.24286
1888,46.0,3.4326,3620810,157.8996
1890,46.0,3.4326,3622700,157.8996
1889,45.9,3.4326,3624589,157.55633999999998
1889,46.0,3.4326,3626478,157.8996
1889,45.9,3.4326,3628367,157.55633999999998
1890,45.8,3.4326,3630257,157.21308
1888,46.0,3.4286,3632145,157.7156
1890,46.0,3.4326,3634035,157.8996
5664,45.8,3.4326,3639699,157.21308
1889,45.9,3.4286,3641588,157.37274
1891,45.9,3.4326,3643479,157.55633999999998
1888,46.0,3.4326,3645367,157.8996
1890,46.0,3.4326,3647257,157.8996
5664,45.9,3.4326,3652921,157.55633999999998
1888,46.0,3.4326,3654809,157.8996
1890,45.8,3.4326,3656699,157.21308
1888,46.0,3.4326,3658587,157.8996
1889,46.0,3.4286,3660476,157.7156
1890,46.0,3.4326,3662366,157.8996
1889,45.9,3.4326,3664255,157.55633999999998
1891,45.9,3.4326,3666146,157.55633999999998
1888,46.0,3.4326,3668034,157.8996
1890,46.0,3.4326,3669924,157.8996
13212,46.1,3.4326,3683136,158.24286
1889,46.0,3.4286,3685025,157.7156
3777,46.1,3.4326,3688802,158.24286
1889,45.9,3.4326,3690691,157.55633999999998
1888,46.0,3.4326,3692579,157.8996
5664,46.0,3.4326,3698243,157.8996
1889,45.9,3.4326,3700132,157.55633999999998
3777,46.0,3.4326,3703909,157.8996
1890,45.9,3.4326,3705799,157.55633999999998
1888,46.0,3.4326,3707687,157.8996
1889,45.9,3.4286,3709576,157.37274
1889,46.0,3.4326,3711465,157.8996
1888,44.5,3.4326,3713353,152.7507
1889,45.9,3.4325,3715242,157.55175
1889,46.0,3.4326,3717131,157.8996
1890,45.9,3.4326,3719021,157.55633999999998
1888,46.0,3.4326,3720909,157.8996
7551,46.0,3.4326,3728460,157.8996
1889,46.0,3.4326,3730349,157.8996
5664,46.0,3.4286,3736013,157.7156
1890,46.0,3.4326,3737903,157.8996
7550,45.9,3.4326,3745453,157.55633999999998
1888,46.0,3.4326,3747341,157.8996
1889,46.0,3.4326,3749230,157.8996
3778,45.9,3.4326,3753008,157.55633999999998
1888,46.0,3.4326,3754896,157.8996
1890,46.0,3.4326,3756786,157.8996
24537,46.0,3.4286,3781323,157.7156
1890,45.9,3.4326,3783213,157.55633999999998
1888,46.0,3.4326,3785101,157.8996
1889,45.9,3.4326,3786990,157.55633999999998
1889,46.0,3.4326,3788879,157.8996
1890,46.0,3.4326,3790769,157.8996
1889,45.8,3.4326,3792658,157.21308
1889,45.9,3.4326,3794547,157.55633999999998
1889,46.0,3.4326,3796436,157.8996
1889,46.0,3.4326,3798325,157.8996
3777,45.9,3.4326,3802102,157.55633999999998
1888,46.0,3.4326,3803990,157.8996
1890,45.9,3.4326,3805880,157.55633999999998
1888,46.0,3.4326,3807768,157.8996
1890,46.0,3.4326,3809658,157.8996
1889,46.0,3.4326,3811547,157.8996
3776,46.0,3.4326,3815323,157.8996
1890,46.0,3.4326,3817213,157.8996
1889,45.9,3.4326,3819102,157.55633999999998
1888,46.0,3.4326,3820990,157.8996
1890,46.0,3.4326,3822880,157.8996
3777,46.0,3.4286,3826657,157.7156
1889,46.0,3.4326,3828546,157.8996
1889,45.9,3.4326,3830435,157.55633999999998
1888,46.0,3.4326,3832323,157.8996
1890,46.0,3.4326,3834213,157.8996
5664,45.9,3.4326,3839877,157.55633999999998
1888,46.0,3.4286,3841765,157.7156
1890,45.8,3.4326,3843655,157.21308
1888,46.0,3.4326,3845543,157.8996
1889,46.0,3.4326,3847432,157.8996
3777,46.0,3.4326,3851209,157.8996
1890,45.9,3.4326,3853099,157.55633999999998
1888,46.0,3.4326,3854987,157.8996
1890,46.0,3.4326,3856877,157.8996
9439,46.0,3.4326,3866316,157.8996
3776,45.9,3.4326,3870092,157.55633999999998
1891,45.9,3.4326,3871983,157.55633999999998
1889,46.0,3.4326,3873872,157.8996
1890,46.0,3.4326,3875762,157.8996
15100,46.0,3.4326,3890862,157.8996
1889,46.0,3.4326,3892751,157.8996
7551,46.0,3.4326,3900302,157.8996
1890,45.9,3.4326,3902192,157.55633999999998
1888,46.0,3.4326,3904080,157.8996
1889,46.0,3.4326,3905969,157.8996
1890,46.0,3.4286,3907859,157.7156
1890,46.0,3.4326,3909749,157.8996
5663,45.9,3.4326,3915412,157.55633999999998
1889,46.0,3.4326,3917301,157.8996
1889,45.9,3.4326,3919190,157.55633999999998
1889,46.0,3.4326,3921079,157.8996
1889,46.0,3.4326,3922968,157.8996
3778,45.9,3.4326,3926746,157.55633999999998
1888,46.0,3.4326,3928634,157.8996
1889,46.0,3.4326,3930523,157.8996
1889,46.0,3.4326,3932412,157.8996
1890,46.0,3.4326,3934302,157.8996
7551,46.0,3.4326,3941853,157.8996
1890,46.0,3.4326,3943743,157.8996
3776,45.9,3.4326,3947519,157.55633999999998
1888,46.0,3.4326,3949407,157.8996
3777,46.0,3.4286,3953184,157.7156
1890,45.9,3.4326,3955074,157.55633999999998
1888,46.0,3.4326,3956962,157.8996
7551,45.9,3.4286,3964513,157.37274
1891,45.9,3.4326,3966404,157.55633999999998
3777,46.0,3.4326,3970181,157.8996
1890,46.0,3.4326,3972071,157.8996
3777,46.1,3.4326,3975848,158.24286
1888,46.0,3.4286,3977736,157.7156
1890,46.0,3.4326,3979626,157.8996
1889,45.8,3.4326,3981515,157.21308
1889,46.0,3.4326,3983404,157.8996
1890,46.0,3.4326,3985294,157.8996
9439,45.9,3.4326,3994733,157.55633999999998
1888,46.0,3.4326,3996621,157.8996
1890,46.1,3.4326,3998511,158.24286
1888,46.0,3.4326,4000399,157.8996
1889,46.0,3.4326,4002288,157.8996
18876,45.9,3.4326,4021164,157.55633999999998
1889,46.0,3.4326,4023053,157.8996
1890,46.0,3.4326,4024943,157.8996
1889,45.9,3.4326,4026832,157.55633999999998
1889,46.0,3.4326,4028721,157.8996
3778,46.0,3.4326,4032499,157.8996
15101,46.1,3.4326,4047600,158.24286
1887,46.0,3.4326,4049487,157.8996
1890,46.0,3.4326,4051377,157.8996
1889,45.7,3.4286,4053266,156.68702
1889,46.0,3.4326,4055155,157.8996
1889,46.0,3.4326,4057044,157.8996
3777,45.9,3.4326,4060821,157.55633999999998
1888,46.0,3.4326,4062709,157.8996
1890,46.0,3.4366,4064599,158.0836
1889,45.9,3.4326,4066488,157.55633999999998
1889,46.0,3.4326,4068377,157.8996
1889,46.0,3.4326,4070266,157.8996
3777,45.9,3.4326,4074043,157.55633999999998
1891,45.9,3.4326,4075934,157.55633999999998
1891,45.9,3.4326,4077825,157.55633999999998
1891,45.9,3.4326,4079716,157.55633999999998
1891,46.1,3.4326,4081607,158.24286
1888,46.0,3.4326,4083495,157.8996
1890,45.9,3.4326,4085385,157.55633999999998
1888,46.0,3.4286,4087273,157.7156
1889,46.0,3.4326,4089162,157.8996
1889,45.9,3.4326,4091051,157.55633999999998
1891,45.9,3.4326,4092942,157.55633999999998
1888,46.0,3.4326,4094830,157.8996
1890,45.9,3.4326,4096720,157.55633999999998
1890,46.0,3.4326,4098610,157.8996
1889,46.0,3.4326,4100499,157.8996
3777,46.1,3.4326,4104276,158.24286
1889,46.0,3.4326,4106165,157.8996
1889,46.0,3.4326,4108054,157.8996
1890,45.9,3.4326,4109944,157.55633999999998
1888,46.0,3.4326,4111832,157.8996
5666,45.9,3.4286,4117498,157.37274
1889,46.0,3.4326,4119387,157.8996
1889,46.1,3.4326,4121276,158.24286
1889,46.0,3.4326,4123165,157.8996
1889,46.0,3.4326,4125054,157.8996
1890,45.8,3.4326,4126944,157.21308
1888,46.0,3.4286,4128832,157.7156
1892,45.9,3.4326,4130724,157.55633999999998
1890,46.0,3.4326,4132614,157.8996
3775,46.0,3.4326,4136389,157.8996
7552,45.8,3.4326,4143941,157.21308
1888,46.0,3.4286,4145829,157.7156
1890,46.0,3.4326,4147719,157.8996
3778,46.0,3.4326,4151497,157.8996
1890,46.0,3.4326,4153387,157.8996
5664,46.1,3.4326,4159051,158.24286
1888,46.0,3.4326,4160939,157.8996
1890,46.0,3.4366,4162829,158.0836
1890,46.0,3.4326,4164719,157.8996
1891,45.9,3.4326,4166610,157.55633999999998
1888,46.0,3.4326,4168498,157.8996
7551,46.0,3.4326,4176049,157.8996
1890,46.0,3.4326,4177939,157.8996
5665,46.0,3.4286,4183604,157.7156
1889,45.9,3.4326,4185493,157.55633999999998
1888,46.0,3.4326,4187381,157.8996
1890,46.0,3.4326,4189271,157.8996
7551,45.9,3.4326,4196822,157.55633999999998
1888,46.0,3.4326,4198710,157.8996
1890,46.0,3.4326,4200600,157.8996
1889,45.9,3.4326,4202489,157.55633999999998
1889,46.1,3.4326,4204378,158.24286
1888,46.0,3.4326,4206266,157.8996
1890,46.0,3.4326,4208156,157.8996
1889,46.0,3.4326,4210045,157.8996
1889,46.0,3.4366,4211934,158.0836
1890,45.9,3.4326,4213824,157.55633999999998
1888,46.0,3.4326,4215712,157.8996
1890,46.0,3.4326,4217602,157.8996
7550,46.0,3.4326,4225152,157.8996
1890,46.0,3.4326,4227042,157.8996
7551,45.9,3.4326,4234593,157.55633999999998
3776,46.0,3.4326,4238369,157.8996
1889,46.0,3.4326,4240258,157.8996
1890,46.0,3.4286,4242148,157.7156
1889,46.0,3.4326,4244037,157.8996
5664,44.9,3.4286,4249701,153.94413999999998
1888,46.0,3.4326,4251589,157.8996
9438,45.9,3.4326,4261027,157.55633999999998
1888,46.0,3.4326,4262915,157.8996
1890,46.0,3.4326,4264805,157.8996
3777,45.9,3.4326,4268582,157.55633999999998
1888,46.0,3.4326,4270470,157.8996
1889,46.0,3.4286,4272359,157.7156
1890,46.0,3.4326,4274249,157.8996
1890,46.0,3.4286,4276139,157.7156
1889,46.0,3.4326,4278028,157.8996
1890,45.9,3.4326,4279918,157.55633999999998
1888,46.0,3.4326,4281806,157.8996
1890,45.9,3.4326,4283696,157.55633999999998
1888,46.0,3.4326,4285584,157.8996
1890,46.0,3.4326,4287474,157.8996
1889,45.9,3.4326,4289363,157.55633999999998
3779,45.9,3.4326,4293142,157.55633999999998
5665,46.0,3.4326,4298807,157.8996
7550,45.8,3.4326,4306357,157.21308
1888,46.0,3.4326,4308245,157.8996
7552,46.1,3.4326,4315797,158.24286
1889,46.0,3.4326,4317686,157.8996
11325,45.9,3.4326,4329011,157.55633999999998
1889,46.0,3.4326,4330900,157.8996
5663,44.8,3.4326,4336563,153.78047999999998
1889,45.9,3.4326,4338452,157.55633999999998
1889,46.0,3.4286,4340341,157.7156
1889,46.0,3.4326,4342230,157.8996
5664,45.5,3.4326,4347894,156.1833
1888,46.0,3.4326,4349782,157.8996
9438,45.9,3.4326,4359220,157.55633999999998
1889,46.0,3.4326,4361109,157.8996
1889,46.0,3.4326,4362998,157.8996
5665,45.9,3.4326,4368663,157.55633999999998
1891,45.9,3.4326,4370554,157.55633999999998
1888,46.0,3.4326,4372442,157.8996
1889,46.0,3.4326,4374331,157.8996
1890,45.9,3.4326,4376221,157.55633999999998
1889,46.0,3.4326,4378110,157.8996
1890,46.0,3.4326,4380000,157.8996
7551,46.0,3.4326,4387551,157.8996
1889,46.0,3.4286,4389440,157.7156
1889,46.0,3.4366,4391329,158.0836
1890,46.0,3.4326,4393219,157.8996
3778,46.0,3.4326,4396997,157.8996
1890,46.0,3.4326,4398887,157.8996
3777,45.9,3.4326,4402664,157.55633999999998
1889,46.1,3.4326,4404553,158.24286
1888,46.0,3.4326,4406441,157.8996
1889,45.9,3.4326,4408330,157.55633999999998
1888,46.0,3.4326,4410218,157.8996
1891,46.0,3.4326,4412109,157.8996
1889,46.1,3.4326,4413998,158.24286
1890,45.9,3.4326,4415888,157.55633999999998
1889,46.0,3.4326,4417777,157.8996
1889,46.0,3.4326,4419666,157.8996
5664,45.9,3.4326,4425330,157.55633999999998
1888,46.0,3.4326,4427218,157.8996
1890,46.0,3.4326,4429108,157.8996
5664,45.9,3.4326,4434772,157.55633999999998
1889,46.0,3.4326,4436661,157.8996
1889,46.0,3.4286,4438550,157.7156
1889,46.0,3.4326,4440439,157.8996
5664,45.9,3.4326,4446103,157.55633999999998
1888,46.0,3.4326,4447991,157.8996
9439,45.9,3.4326,4457430,157.55633999999998
1888,46.0,3.4326,4459318,157.8996
1889,46.0,3.4326,4461207,157.8996
3777,45.9,3.4366,4464984,157.73994
1889,46.0,3.4326,4466873,157.8996
1889,46.0,3.4326,4468762,157.8996
13213,45.9,3.4326,4481975,157.55633999999998
1891,45.9,3.4326,4483866,157.55633999999998
1891,45.9,3.4326,4485757,157.55633999999998
1889,45.8,3.4326,4487646,157.21308
1889,46.0,3.4326,4489535,157.8996
1889,46.0,3.4326,4491424,157.8996
5664,46.0,3.4326,4497088,157.8996
1890,46.0,3.4326,4498978,157.8996
1890,45.8,3.4286,4500868,157.02988
1888,46.0,3.4326,4502756,157.8996
1890,46.0,3.4286,4504646,157.7156
1889,46.0,3.4326,4506535,157.8996
1889,46.0,3.4286,4508424,157.7156
1890,46.0,3.4326,4510314,157.8996
1890,46.0,3.4326,4512204,157.8996
1889,46.0,3.4326,4514093,157.8996
5665,44.7,3.4326,4519758,153.43722
1888,46.0,3.4326,4521646,157.8996
1890,46.1,3.4326,4523536,158.24286
1888,46.0,3.4326,4525424,157.8996
1890,46.0,3.4326,4527314,157.8996
3776,45.9,3.4326,4531090,157.55633999999998
1889,46.0,3.4326,4532979,157.8996
1890,46.0,3.4326,4534869,157.8996
3776,45.9,3.4326,4538645,157.55633999999998
1889,46.0,3.4326,4540534,157.8996
1889,46.0,3.4326,4542423,157.8996
1890,46.0,3.4326,4544313,157.8996
1889,45.9,3.4326,4546202,157.55633999999998
1891,45.9,3.4326,4548093,157.55633999999998
3777,46.0,3.4326,4551870,157.8996
1890,45.9,3.4326,4553760,157.55633999999998
1888,46.0,3.4326,4555648,157.8996
1889,45.3,3.4326,4557537,155.49677999999997
1888,46.0,3.4326,4559425,157.8996
1890,46.0,3.4326,4561315,157.8996
3776,45.8,3.4326,4565091,157.21308
1889,46.0,3.4326,4566980,157.8996
1890,46.0,3.4326,4568870,157.8996
1889,45.9,3.4326,4570759,157.55633999999998
1889,46.0,3.4326,4572648,157.8996
1889,45.9,3.4326,4574537,157.55633999999998
1888,46.0,3.4326,4576425,157.8996
7551,45.9,3.4326,4583976,157.55633999999998
1889,46.0,3.4326,4585865,157.8996
5664,45.9,3.4286,4591529,157.37274
1890,45.9,3.4326,4593419,157.55633999999998
3779,45.9,3.4326,4597198,157.55633999999998
1888,46.0,3.4326,4599086,157.8996
1890,46.0,3.4326,4600976,157.8996
1890,45.9,3.4286,4602866,157.37274
1888,46.0,3.4326,4604754,157.8996
1890,45.1,3.4326,4606644,154.81026
1887,46.0,3.4326,4608531,157.8996
1890,45.9,3.4326,4610421,157.55633999999998
1890,45.9,3.4326,4612311,157.55633999999998
1889,46.0,3.4326,4614200,157.8996
1889,46.0,3.4326,4616089,157.8996
1890,46.0,3.4326,4617979,157.8996
1890,46.0,3.4326,4619869,157.8996
11325,45.9,3.4326,4631194,157.55633999999998
1889,46.0,3.4326,4633083,157.8996
11326,45.9,3.4326,4644409,157.55633999999998
1888,46.0,3.4326,4646297,157.8996
1889,45.4,3.4326,4648186,155.84004
1890,45.9,3.4326,4650076,157.55633999999998
1888,46.0,3.4286,4651964,157.7156
1890,46.0,3.4326,4653854,157.8996
5664,46.0,3.4326,4659518,157.8996
1889,46.0,3.4326,4661407,157.8996
3777,45.3,3.4286,4665184,155.31557999999998
1888,46.0,3.4326,4667072,157.8996
7553,45.9,3.4326,4674625,157.55633999999998
1888,46.0,3.4326,4676513,157.8996
13214,45.9,3.4326,4689727,157.55633999999998
1889,46.0,3.4326,4691616,157.8996
1890,45.9,3.4326,4693506,157.55633999999998
1888,46.0,3.4326,4695394,157.8996
1890,46.0,3.4326,4697284,157.8996
11327,46.0,3.4286,4708611,157.7156
1889,45.9,3.4326,4710500,157.55633999999998
1889,46.0,3.4326,4712389,157.8996
1889,46.0,3.4326,4714278,157.8996
1890,46.0,3.4326,4716168,157.8996
1890,46.0,3.4326,4718058,157.8996
3777,46.0,3.4286,4721835,157.7156
1890,46.0,3.4326,4723725,157.8996
1891,46.0,3.4286,4725616,157.7156
1889,46.0,3.4326,4727505,157.8996
1890,46.0,3.4286,4729395,157.7156
1889,46.0,3.4326,4731284,157.8996
1890,45.9,3.4286,4733174,157.37274
1888,46.0,3.4326,4735062,157.8996
1890,46.0,3.4326,4736952,157.8996
3778,45.9,3.4326,4740730,157.55633999999998
1891,45.9,3.4326,4742621,157.55633999999998
1888,46.0,3.4326,4744509,157.8996
1889,46.0,3.4326,4746398,157.8996
1890,46.0,3.4326,4748288,157.8996
1889,46.0,3.4326,4750177,157.8996
5664,45.9,3.4326,4755841,157.55633999999998
1890,46.0,3.4326,4757731,157.8996
1889,45.9,3.4326,4759620,157.55633999999998
1889,45.8,3.4326,4761509,157.21308
1889,46.0,3.4326,4763398,157.8996
1889,46.0,3.4326,4765287,157.8996
1890,46.0,3.4326,4767177,157.8996
3776,46.0,3.4286,4770953,157.7156
1890,45.9,3.4326,4772843,157.55633999999998
1890,46.0,3.4326,4774733,157.8996
11325,45.9,3.4326,4786058,157.55633999999998
1888,46.0,3.4326,4787946,157.8996
3778,46.1,3.4325,4791724,158.23825000000002
1891,50.3,3.4286,4793615,172.45857999999998
1890,50.3,3.429,4795505,172.47869999999998
1890,50.4,3.429,4797395,172.8216
1889,50.3,3.429,4799284,172.47869999999998
1890,50.4,3.429,4801174,172.8216
1891,50.4,3.429,4803065,172.8216
1888,45.0,3.425,4804953,154.125
1890,46.1,3.4286,4806843,158.05846
1892,46.1,3.4326,4808735,158.24286
1888,46.0,3.4286,4810623,157.7156
1889,45.9,3.4326,4812512,157.55633999999998
1889,46.0,3.4286,4814401,157.7156
1889,46.0,3.4326,4816290,157.8996
5664,45.9,3.4326,4821954,157.55633999999998
1889,46.0,3.4326,4823843,157.8996
1890,45.9,3.4326,4825733,157.55633999999998
1889,46.0,3.4326,4827622,157.8996
1889,45.9,3.4326,4829511,157.55633999999998
1888,46.0,3.4326,4831399,157.8996
1889,46.1,3.4326,4833288,158.24286
1889,46.0,3.4326,4835177,157.8996
1889,45.9,3.4326,4837066,157.55633999999998
1889,46.0,3.4326,4838955,157.8996
1890,46.0,3.4326,4840845,157.8996
5664,46.0,3.4326,4846509,157.8996
1889,46.0,3.4326,4848398,157.8996
3777,45.9,3.4326,4852175,157.55633999999998
1889,46.0,3.4326,4854064,157.8996
1890,46.0,3.4326,4855954,157.8996
1890,46.0,3.4326,4857844,157.8996
3778,46.0,3.4286,4861622,157.7156
1889,45.9,3.4326,4863511,157.55633999999998
1888,46.0,3.4326,4865399,157.8996
7551,46.0,3.4326,4872950,157.8996
1890,46.0,3.4326,4874840,157.8996
1891,45.9,3.4326,4876731,157.55633999999998
1889,44.8,3.4326,4878620,153.78047999999998
1888,46.0,3.4326,4880508,157.8996
3777,45.9,3.4326,4884285,157.55633999999998
1889,46.0,3.4326,4886174,157.8996
1889,46.0,3.4326,4888063,157.8996
9441,46.0,3.4286,4897504,157.7156
1889,46.0,3.4326,4899393,157.8996
16990,45.9,3.4326,4916383,157.55633999999998
1888,46.0,3.4326,4918271,157.8996
5664,45.9,3.4326,4923935,157.55633999999998
1888,46.0,3.4326,4925823,157.8996
1890,46.0,3.4326,4927713,157.8996
1889,46.0,3.4326,4929602,157.8996
1890,46.0,3.4326,4931492,157.8996
1889,46.0,3.4286,4933381,157.7156
1890,46.0,3.4326,4935271,157.8996
5664,45.9,3.4286,4940935,157.37274
1888,46.0,3.4326,4942823,157.8996
1890,46.0,3.4326,4944713,157.8996
1889,44.7,3.4326,4946602,153.43722
1888,46.0,3.4325,4948490,157.895
1890,46.0,3.4326,4950380,157.8996
3776,46.0,3.4286,4954156,157.7156
1890,45.9,3.4326,4956046,157.55633999999998
1888,46.0,3.4326,4957934,157.8996
1890,45.9,3.4326,4959824,157.55633999999998
1888,46.0,3.4286,4961712,157.7156
1889,45.9,3.4326,4963601,157.55633999999998
1890,45.6,3.4286,4965491,156.34416
1888,46.0,3.4326,4967379,157.8996
1889,45.9,3.4286,4969268,157.37274
1889,46.0,3.4326,4971157,157.8996
1889,45.8,3.4326,4973046,157.21308
1888,46.0,3.4326,4974934,157.8996
1890,46.0,3.4326,4976824,157.8996
1890,46.0,3.4326,4978714,157.8996
1890,46.0,3.4366,4980604,158.0836
1889,46.0,3.4326,4982493,157.8996
11326,46.0,3.4326,4993819,157.8996
1889,45.9,3.4326,4995708,157.55633999999998
1889,46.0,3.4326,4997597,157.8996
1889,46.0,3.4326,4999486,157.8996
3777,45.9,3.4326,5003263,157.55633999999998
1888,46.0,3.4326,5005151,157.8996
1890,46.0,3.4326,5007041,157.8996
1890,46.0,3.4326,5008931,157.8996
1889,46.0,3.4326,5010820,157.8996
3776,46.0,3.4326,5014596,157.8996
1890,45.9,3.4326,5016486,157.55633999999998
1888,46.0,3.4326,5018374,157.8996
1889,46.0,3.4326,5020263,157.8996
1890,44.8,3.4326,5022153,153.78047999999998
1889,45.9,3.4325,5024042,157.55175
1891,45.9,3.4326,5025933,157.55633999999998
3777,46.0,3.4326,5029710,157.8996
1889,46.0,3.4326,5031599,157.8996
3777,46.0,3.4286,5035376,157.7156
1889,46.0,3.4326,5037265,157.8996
5664,46.0,3.4286,5042929,157.7156
1890,46.0,3.4326,5044819,157.8996
1890,46.0,3.4326,5046709,157.8996
3776,46.0,3.4286,5050485,157.7156
1890,45.9,3.4326,5052375,157.55633999999998
1889,46.1,3.4326,5054264,158.24286
1889,46.0,3.4326,5056153,157.8996
1889,45.9,3.4326,5058042,157.55633999999998
1889,46.0,3.4326,5059931,157.8996
1888,45.0,3.4366,5061819,154.647
1890,45.9,3.4325,5063709,157.55175
1888,46.0,3.4326,5065597,157.8996
1889,46.0,3.4286,5067486,157.7156
1890,45.9,3.4326,5069376,157.55633999999998
1888,46.0,3.4326,5071264,157.8996
1889,46.0,3.4326,5073153,157.8996
3777,46.0,3.4326,5076930,157.8996
1890,46.0,3.4326,5078820,157.8996
5662,46.0,3.4286,5084482,157.7156
1890,46.0,3.4326,5086372,157.8996
1889,46.0,3.4326,5088261,157.8996
3777,45.9,3.4326,5092038,157.55633999999998
1888,46.0,3.4286,5093926,157.7156
1890,46.0,3.4326,5095816,157.8996
1889,45.9,3.4326,5097705,157.55633999999998
5667,45.9,3.4326,5103372,157.55633999999998
1889,46.0,3.4326,5105261,157.8996
3777,45.9,3.4326,5109038,157.55633999999998
1888,46.0,3.4326,5110926,157.8996
7551,45.8,3.4326,5118477,157.21308
1888,46.0,3.4326,5120365,157.8996
1889,46.0,3.4326,5122254,157.8996
1890,46.0,3.4326,5124144,157.8996
1889,46.0,3.4326,5126033,157.8996
5664,45.9,3.4325,5131697,157.55175
1888,46.0,3.4326,5133585,157.8996
1889,45.8,3.4326,5135474,157.21308
1888,46.0,3.4326,5137362,157.8996
1890,46.0,3.4326,5139252,157.8996
1889,45.9,3.4326,5141141,157.55633999999998
1889,46.0,3.4326,5143030,157.8996
1890,45.9,3.4326,5144920,157.55633999999998
1888,46.0,3.4326,5146808,157.8996
1890,46.0,3.4326,5148698,157.8996
1889,45.7,3.4325,5150587,156.86525
1888,46.0,3.4326,5152475,157.8996
1889,46.0,3.4326,5154364,157.8996
11325,46.0,3.4326,5165689,157.8996
1890,45.8,3.4326,5167579,157.21308
1888,46.0,3.4326,5169467,157.8996
1889,46.0,3.4326,5171356,157.8996
1890,45.9,3.4326,5173246,157.55633999999998
1888,46.0,3.4286,5175134,157.7156
1890,46.0,3.4326,5177024,157.8996
15099,46.0,3.4326,5192123,157.8996
1890,46.0,3.4326,5194013,157.8996
5664,45.9,3.4326,5199677,157.55633999999998
1888,46.0,3.4326,5201565,157.8996
1889,46.0,3.4326,5203454,157.8996
3777,46.0,3.4326,5207231,157.8996
1890,46.0,3.4326,5209121,157.8996
1889,46.0,3.4326,5211010,157.8996
5665,46.0,3.4326,5216675,157.8996
1889,46.0,3.4326,5218564,157.8996
1889,45.9,3.4326,5220453,157.55633999999998
3779,45.9,3.4286,5224232,157.37274
1888,46.0,3.4326,5226120,157.8996
1890,46.0,3.4326,5228010,157.8996
1890,45.9,3.4326,5229900,157.55633999999998
1888,46.0,3.4326,5231788,157.8996
1890,46.0,3.4326,5233678,157.8996
1889,46.0,3.4326,5235567,157.8996
5663,45.9,3.4326,5241230,157.55633999999998
1889,46.0,3.4326,5243119,157.8996
1889,46.0,3.4326,5245008,157.8996
1890,45.9,3.4326,5246898,157.55633999999998
1889,46.0,3.4326,5248787,157.8996
1889,46.0,3.4326,5250676,157.8996
9440,45.9,3.4326,5260116,157.55633999999998
1888,46.0,3.4286,5262004,157.7156
1890,45.9,3.4326,5263894,157.55633999999998
1888,46.0,3.4326,5265782,157.8996
1890,46.0,3.4326,5267672,157.8996
1889,46.0,3.4286,5269561,157.7156
1889,46.0,3.4326,5271450,157.8996
1890,46.0,3.4326,5273340,157.8996
5665,46.0,3.4326,5279005,157.8996
1890,46.0,3.4326,5280895,157.8996
5664,45.9,3.4326,5286559,157.55633999999998
1888,46.0,3.4286,5288447,157.7156
1890,45.9,3.4326,5290337,157.55633999999998
1889,46.0,3.4326,5292226,157.8996
1891,46.0,3.4326,5294117,157.8996
1889,45.9,3.4326,5296006,157.55633999999998
1891,45.9,3.4326,5297897,157.55633999999998
1889,46.0,3.4326,5299786,157.8996
1889,46.0,3.4326,5301675,157.8996
1889,45.9,3.4326,5303564,157.55633999999998
1888,46.0,3.4286,5305452,157.7156
1890,46.0,3.4326,5307342,157.8996
5664,45.8,3.4325,5313006,157.2085
1888,46.0,3.4326,5314894,157.8996
1890,45.9,3.4326,5316784,157.55633999999998
1891,45.9,3.4326,5318675,157.55633999999998
1888,46.0,3.4326,5320563,157.8996
1889,46.0,3.4326,5322452,157.8996
1890,45.9,3.4326,5324342,157.55633999999998
1890,45.9,3.4326,5326232,157.55633999999998
1889,46.0,3.4326,5328121,157.8996
1890,45.9,3.4326,5330011,157.55633999999998
1890,44.8,3.4326,5331901,153.78047999999998
1888,46.0,3.4325,5333789,157.895
1890,46.0,3.4326,5335679,157.8996
11326,46.1,3.4326,5347005,158.24286
1888,46.0,3.4326,5348893,157.8996
1890,46.0,3.4326,5350783,157.8996
1889,45.9,3.4326,5352672,157.55633999999998
3777,46.0,3.4326,5356449,157.8996
1890,46.0,3.4326,5358339,157.8996
3779,46.0,3.4326,5362118,157.8996
3777,46.0,3.4326,5365895,157.8996
1889,46.0,3.4286,5367784,157.7156
1890,46.0,3.4326,5369674,157.8996
7551,46.0,3.4326,5377225,157.8996
1890,46.0,3.4326,5379115,157.8996
1890,46.0,3.4326,5381005,157.8996
1890,45.9,3.4326,5382895,157.55633999999998
1888,46.0,3.4326,5384783,157.8996
1890,46.0,3.4326,5386673,157.8996
7551,46.0,3.4326,5394224,157.8996
3778,46.0,3.4326,5398002,157.8996
3777,46.1,3.4326,5401779,158.24286
1888,46.0,3.4326,5403667,157.8996
1889,46.0,3.4326,5405556,157.8996
3777,45.9,3.4326,5409333,157.55633999999998
1888,46.0,3.4326,5411221,157.8996
1891,46.0,3.4326,5413112,157.8996
3777,46.1,3.4326,5416889,158.24286
1889,45.9,3.4326,5418778,157.55633999999998
1890,45.2,3.4326,5420668,155.15352000000001
1889,45.9,3.4325,5422557,157.55175
1890,45.9,3.4326,5424447,157.55633999999998
1888,46.0,3.4326,5426335,157.8996
1891,46.0,3.4286,5428226,157.7156
1891,46.0,3.4326,5430117,157.8996
5664,46.0,3.4326,5435781,157.8996
1889,46.0,3.4326,5437670,157.8996
13213,46.0,3.4286,5450883,157.7156
1890,46.0,3.4326,5452773,157.8996
1890,46.1,3.4326,5454663,158.24286
1888,46.0,3.4326,5456551,157.8996
1889,45.9,3.4326,5458440,157.55633999999998
1891,45.9,3.4326,5460331,157.55633999999998
1888,46.0,3.4326,5462219,157.8996
3778,45.9,3.4326,5465997,157.55633999999998
1888,46.0,3.4326,5467885,157.8996
7551,45.9,3.4286,5475436,157.37274
1890,45.9,3.4326,5477326,157.55633999999998
1889,46.0,3.4326,5479215,157.8996
1889,46.0,3.4286,5481104,157.7156
1890,46.0,3.4326,5482994,157.8996
1890,46.0,3.4326,5484884,157.8996
1889,46.0,3.4286,5486773,157.7156
1890,46.0,3.4326,5488663,157.8996
5663,45.3,3.4326,5494326,155.49677999999997
1889,46.0,3.4325,5496215,157.895
1889,45.9,3.4326,5498104,157.55633999999998
1889,46.0,3.4326,5499993,157.8996
3777,46.0,3.4366,5503770,158.0836
1889,45.9,3.4326,5505659,157.55633999999998
1891,45.9,3.4326,5507550,157.55633999999998
1888,46.0,3.4326,5509438,157.8996
1889,45.9,3.4326,5511327,157.55633999999998
1888,46.0,3.4326,5513215,157.8996
1890,46.0,3.4326,5515105,157.8996
3777,46.0,3.4286,5518882,157.7156
1890,46.0,3.4326,5520772,157.8996
3776,45.8,3.4326,5524548,157.21308
1889,46.0,3.4326,5526437,157.8996
7551,45.9,3.4286,5533988,157.37274
1889,46.0,3.4326,5535877,157.8996
3776,45.9,3.4326,5539653,157.55633999999998
1888,46.0,3.4326,5541541,157.8996
1890,46.0,3.4326,5543431,157.8996
1889,45.8,3.4326,5545320,157.21308
1890,45.9,3.4326,5547210,157.55633999999998
1888,46.0,3.4326,5549098,157.8996
5664,45.9,3.4326,5554762,157.55633999999998
1891,45.9,3.4326,5556653,157.55633999999998
1888,46.0,3.4326,5558541,157.8996
1890,46.0,3.4326,5560431,157.8996
1889,46.0,3.4326,5562320,157.8996
1890,46.0,3.4286,5564210,157.7156
1889,46.0,3.4326,5566099,157.8996
7552,46.0,3.4326,5573651,157.8996
1889,46.0,3.4326,5575540,157.8996
5663,45.3,3.4326,5581203,155.49677999999997
1890,46.1,3.4326,5583093,158.24286
1890,45.9,3.4326,5584983,157.55633999999998
1888,46.0,3.4326,5586871,157.8996
1890,45.9,3.4326,5588761,157.55633999999998
1888,46.0,3.4326,5590649,157.8996
1890,46.0,3.4326,5592539,157.8996
1890,50.3,3.4326,5594429,172.65977999999998
1890,50.3,3.429,5596319,172.47869999999998
1891,50.3,3.425,5598210,172.27749999999997
1890,50.4,3.429,5600100,172.8216
1891,50.4,3.429,5601991,172.8216
1890,49.9,3.429,5603881,171.10709999999997
1889,45.9,3.429,5605770,157.3911
1889,46.0,3.4286,5607659,157.7156
1889,46.0,3.4326,5609548,157.8996
1890,45.9,3.4326,5611438,157.55633999999998
1888,46.0,3.4326,5613326,157.8996
1890,46.0,3.4326,5615216,157.8996
9439,47.5,3.4286,5624655,162.8585
1889,50.3,3.4288,5626544,172.46864
1890,50.3,3.429,5628434,172.47869999999998
1889,50.4,3.429,5630323,172.8216
1890,50.3,3.429,5632213,172.47869999999998
1890,50.3,3.429,5634103,172.47869999999998
1890,45.9,3.429,5635993,157.3911
1891,45.9,3.4326,5637884,157.55633999999998
1888,46.0,3.4326,5639772,157.8996
1890,46.0,3.4326,5641662,157.8996
1889,46.0,3.4326,5643551,157.8996
1889,45.7,3.4326,5645440,156.86982
1888,46.0,3.4326,5647328,157.8996
5665,45.9,3.4326,5652993,157.55633999999998
1889,46.0,3.4326,5654882,157.8996
1890,46.0,3.4286,5656772,157.7156
1889,46.0,3.4326,5658661,157.8996
3776,45.9,3.4326,5662437,157.55633999999998
1889,46.0,3.4326,5664326,157.8996
3777,45.9,3.4326,5668103,157.55633999999998
1888,46.0,3.4326,5669991,157.8996
1890,46.0,3.4326,5671881,157.8996
7551,44.8,3.4326,5679432,153.78047999999998
1889,45.9,3.4326,5681321,157.55633999999998
1889,46.0,3.4326,5683210,157.8996
1889,45.9,3.4326,5685099,157.55633999999998
1889,46.0,3.4326,5686988,157.8996
1890,45.9,3.4326,5688878,157.55633999999998
1891,45.9,3.4326,5690769,157.55633999999998
1889,46.1,3.4326,5692658,158.24286
1888,46.0,3.4326,5694546,157.8996
1889,46.0,3.4326,5696435,157.8996
1890,46.0,3.4286,5698325,157.7156
1889,46.0,3.4326,5700214,157.8996
3777,45.9,3.4286,5703991,157.37274
1889,46.0,3.4326,5705880,157.8996
1890,46.0,3.4326,5707770,157.8996
3776,45.9,3.4326,5711546,157.55633999999998
3776,46.0,3.4326,5715322,157.8996
1890,45.9,3.4326,5717212,157.55633999999998
1888,46.0,3.4326,5719100,157.8996
3777,45.9,3.4286,5722877,157.37274
1888,46.0,3.4326,5724765,157.8996
1890,46.0,3.4326,5726655,157.8996
5664,46.0,3.4326,5732319,157.8996
1889,45.9,3.4326,5734208,157.55633999999998
1889,46.0,3.4326,5736097,157.8996
1889,46.0,3.4326,5737986,157.8996
1890,45.9,3.4326,5739876,157.55633999999998
1889,46.0,3.4326,5741765,157.8996
1889,46.0,3.4326,5743654,157.8996
18874,45.9,3.4326,5762528,157.55633999999998
3777,46.0,3.4326,5766305,157.8996
1890,46.0,3.4326,5768195,157.8996
1889,45.9,3.4325,5770084,157.55175
1891,45.9,3.4286,5771975,157.37274
1889,46.0,3.4326,5773864,157.8996
1890,46.0,3.4326,5775754,157.8996
5662,46.0,3.4326,5781416,157.8996
1890,46.0,3.4326,5783306,157.8996
3777,45.9,3.4326,5787083,157.55633999999998
1888,46.0,3.4326,5788971,157.8996
9439,45.9,3.4326,5798410,157.55633999999998
1888,46.0,3.4326,5800298,157.8996
1890,46.0,3.4326,5802188,157.8996
1889,46.0,3.4286,5804077,157.7156
1890,46.0,3.4326,5805967,157.8996
5664,46.0,3.4326,5811631,157.8996
1890,46.0,3.4326,5813521,157.8996
5663,46.0,3.4326,5819184,157.8996
1889,46.0,3.4326,5821073,157.8996
3777,45.9,3.4286,5824850,157.37274
1889,46.0,3.4326,5826739,157.8996
1890,46.0,3.4286,5828629,157.7156
1889,46.0,3.4326,5830518,157.8996
1890,46.0,3.4326,5832408,157.8996
1889,45.9,3.4326,5834297,157.55633999999998
1891,45.9,3.4326,5836188,157.55633999999998
1888,46.0,3.4326,5838076,157.8996
1890,45.9,3.4326,5839966,157.55633999999998
1889,46.0,3.4326,5841855,157.8996
1889,45.9,3.4326,5843744,157.55633999999998
1889,46.0,3.4286,5845633,157.7156
1889,45.9,3.4326,5847522,157.55633999999998
1888,46.0,3.4326,5849410,157.8996
1889,46.0,3.4326,5851299,157.8996
1890,45.9,3.4326,5853189,157.55633999999998
1889,46.0,3.4326,5855078,157.8996
3777,45.9,3.4326,5858855,157.55633999999998
1888,45.0,3.4326,5860743,154.46699999999998
1889,46.0,3.4326,5862632,157.8996
1889,46.0,3.4326,5864521,157.8996
9438,45.9,3.4326,5873959,157.55633999999998
1889,46.0,3.4326,5875848,157.8996
3777,45.9,3.4326,5879625,157.55633999999998
1888,46.0,3.4326,5881513,157.8996
1889,46.0,3.4326,5883402,157.8996
3777,46.0,3.4326,5887179,157.8996
1889,46.0,3.4326,5889068,157.8996
11327,45.9,3.4326,5900395,157.55633999999998
1891,45.9,3.4326,5902286,157.55633999999998
1888,46.0,3.4326,5904174,157.8996
5665,45.9,3.4326,5909839,157.55633999999998
1889,46.0,3.4326,5911728,157.8996
5665,46.0,3.4286,5917393,157.7156
1889,45.9,3.4326,5919282,157.55633999999998
1889,46.0,3.4326,5921171,157.8996
1889,46.0,3.4326,5923060,157.8996
3777,45.9,3.4326,5926837,157.55633999999998
1892,45.9,3.4366,5928729,157.73994
1889,46.0,3.4326,5930618,157.8996
1890,45.9,3.4326,5932508,157.55633999999998
1888,46.0,3.4326,5934396,157.8996
15102,46.0,3.4326,5949498,157.8996
1890,46.0,3.4326,5951388,157.8996
1890,46.1,3.4326,5953278,158.24286
1888,46.0,3.4286,5955166,157.7156
1889,46.0,3.4326,5957055,157.8996
1890,46.0,3.4325,5958945,157.895
1890,46.0,3.4326,5960835,157.8996
1890,45.7,3.4326,5962725,156.86982
1891,45.9,3.4326,5964616,157.55633999999998
1888,46.0,3.4326,5966504,157.8996
1889,45.9,3.4326,5968393,157.55633999999998
1891,45.9,3.4326,5970284,157.55633999999998
1888,46.0,3.4326,5972172,157.8996
1889,46.0,3.4326,5974061,157.8996
1890,46.0,3.4286,5975951,157.7156
1890,46.0,3.4326,5977841,157.8996
11327,46.0,3.4286,5989168,157.7156
1890,46.0,3.4326,5991058,157.8996
1889,45.9,3.4286,5992947,157.37274
1889,46.0,3.4326,5994836,157.8996
1891,45.9,3.4326,5996727,157.55633999999998
1889,46.0,3.4326,5998616,157.8996
9438,45.9,3.4326,6008054,157.55633999999998
3777,46.0,3.4326,6011831,157.8996
1889,45.9,3.4326,6013720,157.55633999999998
1891,46.0,3.4326,6015611,157.8996
1889,45.9,3.4326,6017500,157.55633999999998
1888,46.0,3.4326,6019388,157.8996
1890,46.0,3.4326,6021278,157.8996
9438,46.1,3.4326,6030716,158.24286
1891,46.0,3.4326,6032607,157.8996
1889,46.0,3.4326,6034496,157.8996
1889,45.9,3.4326,6036385,157.55633999999998
1889,46.0,3.4326,6038274,157.8996
5664,46.0,3.4326,6043938,157.8996
5664,45.9,3.4326,6049602,157.55633999999998
1888,46.0,3.4326,6051490,157.8996
1889,45.9,3.4326,6053379,157.55633999999998
1889,46.0,3.4326,6055268,157.8996
1889,46.0,3.4326,6057157,157.8996
1890,46.0,3.4286,6059047,157.7156
1890,45.9,3.4326,6060937,157.55633999999998
1888,46.0,3.4326,6062825,157.8996
3777,45.9,3.4326,6066602,157.55633999999998
1888,46.0,3.4326,6068490,157.8996
1889,45.9,3.4326,6070379,157.55633999999998
1889,46.0,3.4326,6072268,157.8996
1889,46.0,3.4326,6074157,157.8996
1889,46.0,3.4326,6076046,157.8996
1890,45.9,3.4326,6077936,157.55633999999998
1888,46.0,3.4326,6079824,157.8996
1890,46.0,3.4286,6081714,157.7156
3777,46.0,3.4326,6085491,157.8996
11325,46.0,3.4326,6096816,157.8996
1890,46.0,3.4326,6098706,157.8996
1889,46.0,3.4326,6100595,157.8996
1890,46.0,3.4326,6102485,157.8996
1889,45.9,3.4326,6104374,157.55633999999998
1889,46.0,3.4326,6106263,157.8996
1889,45.9,3.4326,6108152,157.55633999999998
1889,46.0,3.4326,6110041,157.8996
1889,46.0,3.4326,6111930,157.8996
11325,46.0,3.4326,6123255,157.8996
1890,46.0,3.4326,6125145,157.8996
7551,46.0,3.4326,6132696,157.8996
1890,45.9,3.4326,6134586,157.55633999999998
1890,45.9,3.4326,6136476,157.55633999999998
1888,46.0,3.4326,6138364,157.8996
1890,45.9,3.4326,6140254,157.55633999999998
1888,46.0,3.4326,6142142,157.8996
1889,45.9,3.4326,6144031,157.55633999999998
1889,46.0,3.4326,6145920,157.8996
1889,45.3,3.4326,6147809,155.49677999999997
1889,46.0,3.4325,6149698,157.895
1889,46.0,3.4326,6151587,157.8996
1889,45.9,3.4326,6153476,157.55633999999998
1888,46.0,3.4326,6155364,157.8996
3777,46.1,3.4326,6159141,158.24286
1888,46.0,3.4326,6161029,157.8996
1890,46.0,3.4326,6162919,157.8996
1890,45.9,3.4326,6164809,157.55633999999998
1890,45.9,3.4326,6166699,157.55633999999998
1889,46.0,3.4326,6168588,157.8996
1889,45.9,3.4326,6170477,157.55633999999998
1890,45.9,3.4326,6172367,157.55633999999998
1889,46.0,3.4326,6174256,157.8996
1889,45.9,3.4326,6176145,157.55633999999998
1889,46.0,3.4326,6178034,157.8996
1889,46.0,3.4326,6179923,157.8996
5664,45.9,3.4326,6185587,157.55633999999998
1888,46.0,3.4326,6187475,157.8996
5664,45.9,3.4326,6193139,157.55633999999998
1888,46.0,3.4326,6195027,157.8996
1890,46.0,3.4326,6196917,157.8996
1889,45.9,3.4326,6198806,157.55633999999998
1889,46.0,3.4326,6200695,157.8996
1889,45.9,3.4326,6202584,157.55633999999998
1888,46.0,3.4326,6204472,157.8996
1889,45.9,3.4326,6206361,157.55633999999998
1889,46.0,3.4326,6208250,157.8996
1889,46.0,3.4326,6210139,157.8996
1890,45.9,3.4326,6212029,157.55633999999998
1889,46.0,3.4326,6213918,157.8996
7551,46.0,3.4326,6221469,157.8996
1889,46.0,3.4326,6223358,157.8996
1890,45.6,3.4326,6225248,156.52656
1888,46.0,3.4326,6227136,157.8996
1890,46.0,3.4326,6229026,157.8996
3777,45.2,3.4326,6232803,155.15352000000001
1888,46.0,3.4325,6234691,157.895
1889,46.0,3.4326,6236580,157.8996
1889,45.9,3.4326,6238469,157.55633999999998
1888,46.0,3.4326,6240357,157.8996
1890,46.0,3.4326,6242247,157.8996
3777,45.9,3.4326,6246024,157.55633999999998
1888,46.0,3.4326,6247912,157.8996
1890,46.0,3.4326,6249802,157.8996
3776,46.0,3.4326,6253578,157.8996
1889,46.0,3.4326,6255467,157.8996
3777,45.9,3.4326,6259244,157.55633999999998
1890,45.9,3.4326,6261134,157.55633999999998
1889,46.0,3.4326,6263023,157.8996
1889,45.9,3.4326,6264912,157.55633999999998
1891,45.9,3.4326,6266803,157.55633999999998
1891,45.9,3.4326,6268694,157.55633999999998
1887,46.0,3.4326,6270581,157.8996
3777,45.9,3.4286,6274358,157.37274
1888,46.0,3.4326,6276246,157.8996
1890,45.9,3.4326,6278136,157.55633999999998
1888,46.0,3.4326,6280024,157.8996
1889,46.0,3.4326,6281913,157.8996
1890,46.0,3.4286,6283803,157.7156
1889,46.0,3.4326,6285692,157.8996
16988,45.9,3.4326,6302680,157.55633999999998
1888,46.0,3.4326,6304568,157.8996
11325,45.9,3.4326,6315893,157.55633999999998
1889,46.0,3.4326,6317782,157.8996
1889,46.0,3.4286,6319671,157.7156
1890,46.0,3.4326,6321561,157.8996
1889,45.9,3.4326,6323450,157.55633999999998
1890,45.9,3.4326,6325340,157.55633999999998
5666,46.0,3.4326,6331006,157.8996
1890,46.0,3.4326,6332896,157.8996
1889,46.0,3.4326,6334785,157.8996
3777,46.0,3.4326,6338562,157.8996
3777,45.9,3.4326,6342339,157.55633999999998
1890,46.0,3.4326,6344229,157.8996
5664,45.9,3.4326,6349893,157.55633999999998
1888,46.0,3.4326,6351781,157.8996
5664,45.9,3.4326,6357445,157.55633999999998
1889,46.1,3.4326,6359334,158.24286
1890,46.0,3.4326,6361224,157.8996
1890,45.9,3.4326,6363114,157.55633999999998
1889,46.0,3.4326,6365003,157.8996
1890,46.0,3.4326,6366893,157.8996
1890,45.9,3.4326,6368783,157.55633999999998
1888,46.0,3.4326,6370671,157.8996
1889,46.0,3.4326,6372560,157.8996
3776,46.0,3.4326,6376336,157.8996
1891,45.9,3.4326,6378227,157.55633999999998
1889,46.0,3.4326,6380116,157.8996
1889,46.0,3.4326,6382005,157.8996
1890,45.9,3.4326,6383895,157.55633999999998
1888,46.0,3.4326,6385783,157.8996
1890,46.0,3.4286,6387673,157.7156
1890,46.0,3.4326,6389563,157.8996
1889,45.9,3.4326,6391452,157.55633999999998
1889,46.0,3.4326,6393341,157.8996
1889,45.9,3.4366,6395230,157.73994
1891,45.9,3.4326,6397121,157.55633999999998
1889,46.0,3.4326,6399010,157.8996
1890,45.9,3.4326,6400900,157.55633999999998
1888,46.0,3.4326,6402788,157.8996
1890,45.9,3.4326,6404678,157.55633999999998
1887,46.0,3.4326,6406565,157.8996
1890,46.0,3.4286,6408455,157.7156
1889,46.0,3.4326,6410344,157.8996
1890,45.9,3.4326,6412234,157.55633999999998
1888,46.0,3.4326,6414122,157.8996
3777,45.9,3.4286,6417899,157.37274
1891,45.9,3.4366,6419790,157.73994
1888,46.0,3.4326,6421678,157.8996
1889,46.0,3.4326,6423567,157.8996
3776,45.9,3.4326,6427343,157.55633999999998
1891,45.9,3.4326,6429234,157.55633999999998
1888,46.0,3.4326,6431122,157.8996
1890,45.9,3.4326,6433012,157.55633999999998
1888,46.0,3.4326,6434900,157.8996
5664,45.9,3.4325,6440564,157.55175
1888,46.0,3.4326,6442452,157.8996
1889,46.1,3.4326,6444341,158.24286
1889,46.0,3.4286,6446230,157.7156
1889,46.0,3.4326,6448119,157.8996
1890,46.0,3.4286,6450009,157.7156
1890,46.0,3.4326,6451899,157.8996
9437,45.9,3.4326,6461336,157.55633999999998
1890,46.0,3.4326,6463226,157.8996
1890,46.0,3.4286,6465116,157.7156
1890,46.0,3.4326,6467006,157.8996
9438,46.0,3.4286,6476444,157.7156
1890,46.0,3.4326,6478334,157.8996
3779,46.0,3.4326,6482113,157.8996
1889,45.9,3.4286,6484002,157.37274
1889,46.0,3.4326,6485891,157.8996
1890,46.0,3.4326,6487781,157.8996
11326,45.9,3.4326,6499107,157.55633999999998
1889,46.0,3.4326,6500996,157.8996
1890,45.9,3.4326,6502886,157.55633999999998
1888,45.5,3.4326,6504774,156.1833
1889,46.0,3.4326,6506663,157.8996
1889,45.9,3.4326,6508552,157.55633999999998
1889,46.0,3.4326,6510441,157.8996
1889,46.0,3.4326,6512330,157.8996
1889,46.0,3.4286,6514219,157.7156
1891,46.0,3.4326,6516110,157.8996
1889,46.0,3.4366,6517999,158.0836
1890,45.2,3.4326,6519889,155.15352000000001
1889,46.0,3.4285,6521778,157.711
1889,45.9,3.4326,6523667,157.55633999999998
1888,46.0,3.4326,6525555,157.8996
1889,45.9,3.4326,6527444,157.55633999999998
1888,46.0,3.4326,6529332,157.8996
1890,45.9,3.4326,6531222,157.55633999999998
1890,46.0,3.4326,6533112,157.8996
1889,45.9,3.4326,6535001,157.55633999999998
1889,46.0,3.4326,6536890,157.8996
1889,46.0,3.4326,6538779,157.8996
1890,46.0,3.4326,6540669,157.8996
1889,46.0,3.4326,6542558,157.8996
1890,45.9,3.4326,6544448,157.55633999999998
1890,45.9,3.4326,6546338,157.55633999999998
1890,46.0,3.4326,6548228,157.8996
1890,45.9,3.4326,6550118,157.55633999999998
1888,46.0,3.4326,6552006,157.8996
1890,45.9,3.4326,6553896,157.55633999999998
1889,46.0,3.4326,6555785,157.8996
1889,45.9,3.4326,6557674,157.55633999999998
1890,45.9,3.4326,6559564,157.55633999999998
1888,46.0,3.4326,6561452,157.8996
1890,46.0,3.4326,6563342,157.8996
1889,46.0,3.4286,6565231,157.7156
1890,45.9,3.4326,6567121,157.55633999999998
1889,46.0,3.4326,6569010,157.8996
1889,46.0,3.4326,6570899,157.8996
7551,46.1,3.4326,6578450,158.24286
1888,46.0,3.4326,6580338,157.8996
1891,46.0,3.4326,6582229,157.8996
1889,46.0,3.4326,6584118,157.8996
3777,46.1,3.4286,6587895,158.05846
1888,46.0,3.4326,6589783,157.8996
3777,44.9,3.4286,6593560,153.94413999999998
1887,46.0,3.4325,6595447,157.895
1890,46.0,3.4326,6597337,157.8996
1891,46.0,3.4326,6599228,157.8996
3777,45.9,3.4326,6603005,157.55633999999998
1889,46.0,3.4286,6604894,157.7156
1889,46.0,3.4326,6606783,157.8996
15101,46.0,3.4286,6621884,157.7156
1890,46.0,3.4326,6623774,157.8996
1889,46.0,3.4326,6625663,157.8996
3776,45.9,3.4326,6629439,157.55633999999998
1889,46.0,3.4326,6631328,157.8996
3776,45.9,3.4326,6635104,157.55633999999998
1889,46.0,3.4326,6636993,157.8996
1889,46.0,3.4326,6638882,157.8996
3777,45.9,3.4326,6642659,157.55633999999998
1891,45.9,3.4326,6644550,157.55633999999998
1888,46.0,3.4326,6646438,157.8996
3776,45.9,3.4326,6650214,157.55633999999998
1889,46.0,3.4326,6652103,157.8996
3777,46.0,3.4326,6655880,157.8996
1890,45.9,3.4326,6657770,157.55633999999998
1888,46.0,3.4326,6659658,157.8996
1889,46.0,3.4326,6661547,157.8996
7551,45.9,3.4326,6669098,157.55633999999998
3777,46.0,3.4326,6672875,157.8996
1890,45.9,3.4326,6674765,157.55633999999998
1888,46.0,3.4326,6676653,157.8996
1889,46.0,3.4326,6678542,157.8996
5664,45.9,3.4326,6684206,157.55633999999998
1888,46.0,3.4326,6686094,157.8996
5665,45.9,3.4326,6691759,157.55633999999998
1889,44.8,3.4326,6693648,153.78047999999998
1888,46.0,3.4326,6695536,157.8996
1889,45.9,3.4326,6697425,157.55633999999998
1889,46.0,3.4286,6699314,157.7156
1889,46.0,3.4326,6701203,157.8996
1890,46.0,3.4326,6703093,157.8996
1889,46.0,3.4326,6704982,157.8996
5665,46.0,3.4326,6710647,157.8996
1888,45.9,3.4326,6712535,157.55633999999998
1891,45.9,3.4326,6714426,157.55633999999998
3776,46.0,3.4326,6718202,157.8996
1890,45.9,3.4326,6720092,157.55633999999998
1888,46.0,3.4326,6721980,157.8996
7552,46.0,3.4326,6729532,157.8996
1889,46.0,3.4326,6731421,157.8996
3777,46.0,3.4286,6735198,157.7156
1889,46.0,3.4326,6737087,157.8996
5664,45.9,3.4326,6742751,157.55633999999998
1891,45.9,3.4326,6744642,157.55633999999998
1890,45.9,3.4326,6746532,157.55633999999998
1891,45.9,3.4326,6748423,157.55633999999998
1889,46.0,3.4326,6750312,157.8996
1889,46.0,3.4326,6752201,157.8996
1890,46.0,3.4326,6754091,157.8996
1889,46.0,3.4326,6755980,157.8996
9439,45.9,3.4326,6765419,157.55633999999998
1888,46.0,3.4326,6767307,157.8996
3776,46.0,3.4326,6771083,157.8996
1890,46.0,3.4326,6772973,157.8996
3777,44.8,3.4286,6776750,153.60127999999997
1889,46.0,3.4326,6778639,157.8996
1889,45.9,3.4326,6780528,157.55633999999998
1888,46.0,3.4326,6782416,157.8996
1889,45.9,3.4326,6784305,157.55633999999998
1889,46.0,3.4326,6786194,157.8996
11325,45.9,3.4326,6797519,157.55633999999998
1889,46.0,3.4326,6799408,157.8996
1889,45.9,3.4326,6801297,157.55633999999998
1888,46.0,3.4326,6803185,157.8996
18875,45.9,3.4326,6822060,157.55633999999998
1891,45.9,3.4326,6823951,157.55633999999998
1889,46.0,3.4326,6825840,157.8996
7553,46.1,3.4326,6833393,158.24286
1890,46.1,3.4326,6835283,158.24286
1890,45.9,3.4326,6837173,157.55633999999998
1888,46.0,3.4326,6839061,157.8996
1890,46.0,3.4326,6840951,157.8996
3778,45.9,3.4326,6844729,157.55633999999998
1889,46.0,3.4326,6846618,157.8996
1889,46.0,3.4326,6848507,157.8996
5664,45.9,3.4326,6854171,157.55633999999998
1889,46.0,3.4326,6856060,157.8996
1890,46.0,3.4326,6857950,157.8996
5666,45.9,3.4326,6863616,157.55633999999998
1888,46.0,3.4326,6865504,157.8996
1889,46.0,3.4326,6867393,157.8996
1889,46.0,3.4326,6869282,157.8996
1890,46.0,3.4326,6871172,157.8996
1889,45.9,3.4326,6873061,157.55633999999998
1889,46.0,3.4326,6874950,157.8996
3778,45.9,3.4326,6878728,157.55633999999998
1889,46.0,3.4326,6880617,157.8996
1889,45.9,3.4326,6882506,157.55633999999998
1888,46.0,3.4326,6884394,157.8996
11326,45.9,3.4326,6895720,157.55633999999998
1891,46.0,3.4326,6897611,157.8996
1889,46.0,3.4326,6899500,157.8996
5663,45.9,3.4326,6905163,157.55633999999998
1888,46.0,3.4326,6907051,157.8996
1890,46.0,3.4286,6908941,157.7156
1890,45.9,3.4326,6910831,157.55633999999998
1890,45.9,3.4326,6912721,157.55633999999998
1891,46.0,3.4326,6914612,157.8996
3776,45.9,3.4326,6918388,157.55633999999998
1889,46.0,3.4326,6920277,157.8996
1889,45.9,3.4326,6922166,157.55633999999998
1889,46.0,3.4326,6924055,157.8996
1889,45.9,3.4326,6925944,157.55633999999998
1889,46.0,3.4326,6927833,157.8996
1891,46.0,3.4326,6929724,157.8996
1891,45.9,3.4326,6931615,157.55633999999998
3776,46.0,3.4326,6935391,157.8996
1889,46.0,3.4326,6937280,157.8996
1890,46.1,3.4326,6939170,158.24286
1888,46.0,3.4326,6941058,157.8996
7553,45.9,3.4326,6948611,157.55633999999998
1889,46.0,3.4326,6950500,157.8996
1889,46.0,3.4326,6952389,157.8996
3777,46.0,3.4326,6956166,157.8996
1889,45.9,3.4286,6958055,157.37274
1891,45.9,3.4326,6959946,157.55633999999998
1888,46.0,3.4326,6961834,157.8996
1891,44.8,3.4326,6963725,153.78047999999998
1890,45.9,3.4326,6965615,157.55633999999998
3776,46.0,3.4326,6969391,157.8996
1890,46.0,3.4326,6971281,157.8996
3777,46.0,3.4286,6975058,157.7156
1889,46.0,3.4326,6976947,157.8996
3778,45.9,3.4326,6980725,157.55633999999998
3778,46.0,3.4326,6984503,157.8996
1889,45.9,3.4326,6986392,157.55633999999998
1888,46.0,3.4326,6988280,157.8996
1890,46.0,3.4286,6990170,157.7156
1889,46.0,3.4326,6992059,157.8996
1890,45.9,3.4326,6993949,157.55633999999998
1888,46.0,3.4326,6995837,157.8996
1891,46.0,3.4286,6997728,157.7156
1890,46.0,3.4326,6999618,157.8996
13213,45.9,3.4326,7012831,157.55633999999998
1888,46.0,3.4326,7014719,157.8996
7554,46.0,3.4326,7022273,157.8996
1889,46.0,3.4326,7024162,157.8996
5664,45.9,3.4326,7029826,157.55633999999998
1888,46.0,3.4326,7031714,157.8996
3779,45.9,3.4326,7035493,157.55633999999998
1888,46.0,3.4326,7037381,157.8996
1890,45.9,3.4326,7039271,157.55633999999998
3777,46.0,3.4326,7043048,157.8996
1889,45.9,3.4326,7044937,157.55633999999998
1889,46.0,3.4326,7046826,157.8996
1889,46.0,3.4285,7048715,157.711
1892,46.0,3.4326,7050607,157.8996
3776,46.0,3.4326,7054383,157.8996
1889,46.0,3.4326,7056272,157.8996
5664,45.9,3.4326,7061936,157.55633999999998
1889,46.0,3.4326,7063825,157.8996
1889,45.9,3.4326,7065714,157.55633999999998
1891,46.0,3.4326,7067605,157.8996
1889,46.0,3.4326,7069494,157.8996
1889,45.9,3.4326,7071383,157.55633999999998
1888,46.0,3.4326,7073271,157.8996
1890,45.9,3.4326,7075161,157.55633999999998
1889,46.0,3.4326,7077050,157.8996
1889,46.0,3.4326,7078939,157.8996
1890,46.0,3.4326,7080829,157.8996
1890,46.0,3.4326,7082719,157.8996
3778,46.0,3.4326,7086497,157.8996
1889,46.0,3.4326,7088386,157.8996
1890,46.1,3.4326,7090276,158.24286
1888,46.0,3.4326,7092164,157.8996
1890,46.0,3.4326,7094054,157.8996
7553,45.9,3.4286,7101607,157.37274
1890,45.9,3.4326,7103497,157.55633999999998
1889,46.0,3.4326,7105386,157.8996
13212,45.9,3.4286,7118598,157.37274
1891,45.9,3.4326,7120489,157.55633999999998
1888,46.0,3.4326,7122377,157.8996
1890,45.9,3.4326,7124267,157.55633999999998
1890,45.9,3.4326,7126157,157.55633999999998
1889,46.0,3.4326,7128046,157.8996
1889,45.9,3.4326,7129935,157.55633999999998
1891,45.9,3.4326,7131826,157.55633999999998
3777,46.0,3.4326,7135603,157.8996
1889,46.0,3.4286,7137492,157.7156
1890,46.0,3.4326,7139382,157.8996
1889,44.8,3.4326,7141271,153.78047999999998
1890,45.9,3.4325,7143161,157.55175
1889,46.0,3.4326,7145050,157.8996
9438,50.2,3.4286,7154488,172.11572
1889,50.3,3.429,7156377,172.47869999999998
1891,50.3,3.429,7158268,172.47869999999998
1891,50.3,3.429,7160159,172.47869999999998
1889,50.4,3.429,7162048,172.8216
1890,50.3,3.429,7163938,172.47869999999998
1890,45.3,3.429,7165828,155.3337
1888,46.0,3.4325,7167716,157.895
1891,46.0,3.4326,7169607,157.8996
