dt,current,voltage,time,power
1889,44.8,3.1121,1056264,139.42208
1890,44.9,3.1045,1058154,139.39204999999998
1889,44.8,3.1045,1060043,139.08159999999998
1891,44.8,3.1045,1061934,139.08159999999998
1890,50.4,3.1005,1063824,156.2652
1889,50.3,3.101,1065713,155.9803
1891,48.5,3.101,1067604,150.3985
1889,45.2,3.1045,1069493,140.3234
1891,45.2,3.1045,1071384,140.3234
1890,45.2,3.1085,1073274,140.5042
1890,45.3,3.1045,1075164,140.63385
1889,45.2,3.1045,1077053,140.3234
7558,45.2,3.1005,1084611,140.1426
1890,45.1,3.1005,1086501,139.83255
1889,45.2,3.1005,1088390,140.1426
5668,45.2,3.1005,1094058,140.1426
1890,45.2,3.1005,1095948,140.1426
5670,45.2,3.1005,1101618,140.1426
1891,45.2,3.1045,1103509,140.3234
1890,45.2,3.1085,1105399,140.5042
1891,45.2,3.1045,1107290,140.3234
7556,45.2,3.1005,1114846,140.1426
1892,45.2,3.1045,1116738,140.3234
3778,45.3,3.1045,1120516,140.63385
1889,45.2,3.1085,1122405,140.5042
1890,45.2,3.1045,1124295,140.3234
1891,45.2,3.1085,1126186,140.5042
7557,45.2,3.1045,1133743,140.3234
3779,45.2,3.1085,1137522,140.5042
1890,45.2,3.1085,1139412,140.5042
3779,45.2,3.1045,1143191,140.3234
1891,45.2,3.1045,1145082,140.3234
1890,45.3,3.1085,1146972,140.81504999999999
1889,45.2,3.1085,1148861,140.5042
1891,45.2,3.1045,1150752,140.3234
1891,45.2,3.1045,1152643,140.3234
1890,45.2,3.1085,1154533,140.5042
1890,45.2,3.1045,1156423,140.3234
3778,45.3,3.1045,1160201,140.63385
1891,45.3,3.1085,1162092,140.81504999999999
1890,45.2,3.1045,1163982,140.3234
1890,45.3,3.1045,1165872,140.63385
1889,45.2,3.1005,1167761,140.1426
1891,45.2,3.1045,1169652,140.3234
1890,45.2,3.1045,1171542,140.3234
3778,45.1,3.1045,1175320,140.01295
1889,50.3,3.101,1177209,155.9803
1889,45.5,3.105,1179098,141.2775
1889,45.6,3.1086,1180987,141.75216
1890,50.3,3.105,1182877,156.1815
1890,45.3,3.101,1184767,140.4753
1889,50.3,3.1085,1186656,156.35754999999997
1889,45.7,3.101,1188545,141.7157
1890,45.2,3.1046,1190435,140.32792
1889,50.3,3.101,1192324,155.9803
1890,45.3,3.1049,1194214,140.65197
1889,50.3,3.1045,1196103,156.15634999999997
1890,50.2,3.097,1197993,155.4694
1890,47.1,3.1005,1199883,146.03355
1890,50.2,3.101,1201773,155.6702
1889,45.2,3.101,1203662,140.1652
1889,50.2,3.1005,1205551,155.6451
1891,50.2,3.101,1207442,155.6702
1889,50.1,3.1045,1209331,155.53545
1890,50.2,3.105,1211221,155.871
1891,45.8,3.101,1213112,142.0258
1889,50.3,3.1006,1215001,155.96017999999998
1890,48.9,3.101,1216891,151.6389
1890,50.3,3.1005,1218781,155.95514999999997
1889,50.2,3.101,1220670,155.6702
1890,45.3,3.101,1222560,140.4753
1889,50.2,3.1007,1224449,155.65514
1889,48.4,3.101,1226338,150.0884
1891,50.3,3.1048,1228229,156.17144
1890,50.4,3.101,1230119,156.2904
1889,45.3,3.105,1232008,140.6565
1890,50.3,3.1009,1233898,155.97527
1890,46.9,3.105,1235788,145.62449999999998
1889,45.2,3.1047,1237677,140.33244
1889,50.3,3.101,1239566,155.9803
1890,45.4,3.101,1241456,140.78539999999998
1889,50.1,3.1085,1243345,155.73585
1890,50.2,3.101,1245235,155.6702
1889,45.3,3.101,1247124,140.4753
1890,49.9,3.1045,1249014,154.91455
1889,50.1,3.097,1250903,155.15970000000002
1890,45.2,3.101,1252793,140.1652
1888,48.5,3.1045,1254681,150.56824999999998
1890,50.2,3.101,1256571,155.6702
1889,45.1,3.1087,1258460,140.20237
1890,50.3,3.1045,1260350,156.15634999999997
1890,50.3,3.101,1262240,155.9803
1890,45.1,3.1046,1264130,140.01746
1890,50.3,3.101,1266020,155.9803
1890,45.2,3.1049,1267910,140.34148000000002
1889,50.3,3.1045,1269799,156.15634999999997
1890,50.2,3.101,1271689,155.6702
1889,45.4,3.105,1273578,140.96699999999998
1889,50.3,3.1005,1275467,155.95514999999997
1890,50.1,3.101,1277357,155.36010000000002
1889,45.3,3.105,1279246,140.6565
1890,50.3,3.1005,1281136,155.95514999999997
1890,50.2,3.101,1283026,155.6702
1889,45.1,3.101,1284915,139.8551
1890,50.2,3.1005,1286805,155.6451
1891,50.2,3.097,1288696,155.4694
1889,45.3,3.1045,1290585,140.63385
1889,50.3,3.1045,1292474,156.15634999999997
1890,45.7,3.101,1294364,141.7157
1889,45.2,3.1006,1296253,140.14712
1890,50.4,3.0969,1298143,156.08376
1889,46.6,3.101,1300032,144.5066
1890,50.3,3.1047,1301922,156.16640999999998
1888,50.0,3.097,1303810,154.85
1890,45.4,3.097,1305700,140.6038
1889,50.3,3.1005,1307589,155.95514999999997
1889,50.2,3.097,1309478,155.4694
1889,45.3,3.101,1311367,140.4753
1890,50.3,3.1005,1313257,155.95514999999997
1890,50.2,3.101,1315147,155.6702
1889,45.2,3.105,1317036,140.346
1890,50.3,3.1045,1318926,156.15634999999997
1891,50.3,3.101,1320817,155.9803
1889,45.2,3.1085,1322706,140.5042
1890,50.4,3.1049,1324596,156.48696
1889,45.3,3.101,1326485,140.4753
1889,46.1,3.1045,1328374,143.11745
1890,50.3,3.105,1330264,156.1815
1889,45.4,3.109,1332153,141.1486
1890,50.3,3.1125,1334043,156.55874999999997
1889,50.4,3.105,1335932,156.492
1890,45.3,3.109,1337822,140.83769999999998
1890,50.3,3.1045,1339712,156.15634999999997
1889,50.2,3.109,1341601,156.0718
1889,45.3,3.109,1343490,140.83769999999998
1890,50.3,3.1085,1345380,156.35754999999997
1891,50.3,3.105,1347271,156.1815
1889,45.1,3.1085,1349160,140.19335
1890,50.3,3.1085,1351050,156.35754999999997
1891,50.3,3.105,1352941,156.1815
1890,47.2,3.1085,1354831,146.7212
1889,50.2,3.105,1356720,155.871
1892,45.3,3.105,1358612,140.6565
1888,46.0,3.1085,1360500,142.99099999999999
1889,50.3,3.101,1362389,155.9803
1889,45.3,3.1089,1364278,140.83317
1890,50.3,3.1085,1366168,156.35754999999997
1890,50.3,3.101,1368058,155.9803
1890,45.3,3.1049,1369948,140.65197
1890,50.3,3.1045,1371838,156.15634999999997
1890,49.6,3.105,1373728,154.008
1891,45.1,3.105,1375619,140.0355
1889,50.3,3.1005,1377508,155.95514999999997
1889,50.2,3.105,1379397,155.871
1890,50.1,3.1085,1381287,155.73585
1889,50.2,3.105,1383176,155.871
1890,46.9,3.105,1385066,145.62449999999998
1889,47.6,3.1045,1386955,147.7742
1890,50.3,3.105,1388845,156.1815
1891,45.3,3.105,1390736,140.6565
1890,45.4,3.1085,1392626,141.1259
1889,50.3,3.105,1394515,156.1815
1889,45.3,3.109,1396404,140.83769999999998
1889,50.3,3.1125,1398293,156.55874999999997
1890,50.2,3.105,1400183,155.871
1889,45.3,3.109,1402072,140.83769999999998
1890,50.3,3.1005,1403962,155.95514999999997
1890,50.1,3.101,1405852,155.36010000000002
1889,49.8,3.105,1407741,154.629
1889,50.3,3.105,1409630,156.1815
1890,45.6,3.105,1411520,141.588
1888,48.5,3.1045,1413408,150.56824999999998
1889,50.2,3.1048,1415297,155.86096
1889,46.0,3.097,1417186,142.462
1889,48.6,3.1045,1419075,150.8787
1890,50.3,3.101,1420965,155.9803
1890,45.3,3.105,1422855,140.6565
1889,50.4,3.1085,1424744,156.6684
1890,50.3,3.105,1426634,156.1815
1889,45.3,3.1089,1428523,140.83317
1889,50.3,3.1046,1430412,156.16137999999998
1890,48.7,3.101,1432302,151.0187
1889,45.3,3.1089,1434191,140.83317
1889,50.3,3.105,1436080,156.1815
1890,45.3,3.109,1437970,140.83769999999998
1890,50.3,3.1125,1439860,156.55874999999997
1891,50.3,3.109,1441751,156.3827
1889,45.4,3.109,1443640,141.1486
1889,49.9,3.1085,1445529,155.11415
1889,50.2,3.109,1447418,156.0718
1890,45.2,3.109,1449308,140.5268
1889,48.6,3.1125,1451197,151.26749999999998
1889,50.3,3.109,1453086,156.3827
1890,45.2,3.1086,1454976,140.50872
1890,50.4,3.1085,1456866,156.6684
1890,50.3,3.105,1458756,156.1815
1889,45.2,3.1087,1460645,140.51324
1890,50.3,3.1047,1462535,156.16640999999998
1889,47.9,3.109,1464424,148.9211
1890,45.3,3.1128,1466314,141.00984
1889,50.4,3.109,1468203,156.6936
1890,45.4,3.113,1470093,141.3302
1889,50.3,3.1125,1471982,156.55874999999997
1890,50.4,3.105,1473872,156.492
1890,45.3,3.109,1475762,140.83769999999998
1889,50.3,3.1045,1477651,156.15634999999997
1890,50.2,3.109,1479541,156.0718
1889,45.2,3.109,1481430,140.5268
1890,50.3,3.1045,1483320,156.15634999999997
1889,50.2,3.105,1485209,155.871
1890,45.1,3.1085,1487099,140.19335
1890,50.2,3.1085,1488989,156.0467
1891,50.2,3.101,1490880,155.6702
1890,45.2,3.1085,1492770,140.5042
1889,50.3,3.101,1494659,155.9803
1889,45.4,3.101,1496548,140.78539999999998
1890,45.2,3.1045,1498438,140.3234
1889,50.3,3.101,1500327,155.9803
1889,46.4,3.105,1502216,144.072
1891,50.3,3.1085,1504107,156.35754999999997
1889,50.2,3.105,1505996,155.871
1890,45.4,3.105,1507886,140.96699999999998
1890,50.2,3.1045,1509776,155.8459
1889,50.3,3.109,1511665,156.3827
1890,45.1,3.109,1513555,140.2159
1889,50.3,3.1085,1515444,156.35754999999997
1889,50.2,3.105,1517333,155.871
1891,45.2,3.1085,1519224,140.5042
1891,50.4,3.1125,1521115,156.86999999999998
1889,50.3,3.105,1523004,156.1815
1890,45.2,3.1086,1524894,140.50872
1890,50.3,3.1048,1526784,156.17144
1889,48.7,3.109,1528673,151.4083
1889,45.9,3.1089,1530562,142.69851
1890,50.4,3.1046,1532452,156.47184
1889,49.6,3.105,1534341,154.008
1889,50.3,3.1085,1536230,156.35754999999997
1892,50.3,3.105,1538122,156.1815
1889,45.3,3.109,1540011,140.83769999999998
1890,50.3,3.1045,1541901,156.15634999999997
1891,50.3,3.105,1543792,156.1815
1889,45.3,3.109,1545681,140.83769999999998
1890,49.3,3.1085,1547571,153.24904999999998
1889,50.3,3.101,1549460,155.9803
1889,45.4,3.1089,1551349,141.14406
1890,50.3,3.1125,1553239,156.55874999999997
1889,49.2,3.105,1555128,152.76600000000002
1890,45.3,3.1089,1557018,140.83317
1889,50.3,3.1045,1558907,156.15634999999997
1890,50.2,3.109,1560797,156.0718
1889,45.2,3.113,1562686,140.7076
1889,50.4,3.1085,1564575,156.6684
1890,50.2,3.113,1566465,156.2726
1889,45.1,3.1125,1568354,140.37375
1890,50.3,3.1125,1570244,156.55874999999997
1890,50.3,3.109,1572134,156.3827
1890,48.7,3.1125,1574024,151.57875
1889,50.3,3.105,1575913,156.1815
1890,45.2,3.109,1577803,140.5268
1889,50.4,3.1085,1579692,156.6684
1889,50.3,3.105,1581581,156.1815
1890,45.4,3.1128,1583471,141.32112
1889,50.4,3.1127,1585360,156.88008
1890,48.7,3.105,1587250,151.2135
1889,45.4,3.1089,1589139,141.14406
1890,50.3,3.1046,1591029,156.16137999999998
1889,49.3,3.105,1592918,153.07649999999998
1890,45.3,3.1089,1594808,140.83317
1889,50.3,3.1045,1596697,156.15634999999997
1890,49.3,3.109,1598587,153.2737
1889,45.2,3.1085,1600476,140.5042
1889,50.3,3.1085,1602365,156.35754999999997
1890,49.1,3.105,1604255,152.4555
1890,50.3,3.1045,1606145,156.15634999999997
1890,50.3,3.105,1608035,156.1815
1890,45.1,3.1085,1609925,140.19335
1889,50.3,3.1045,1611814,156.15634999999997
1890,50.2,3.105,1613704,155.871
1889,45.2,3.1045,1615593,140.3234
1889,50.3,3.101,1617482,155.9803
1889,45.3,3.105,1619371,140.6565
1889,44.5,3.1045,1621260,138.15025
1889,50.3,3.101,1623149,155.9803
1890,45.4,3.101,1625039,140.78539999999998
1889,49.3,3.1085,1626928,153.24904999999998
1890,50.4,3.1049,1628818,156.48696
1889,45.3,3.105,1630707,140.6565
1890,50.4,3.1047,1632597,156.47688
1889,46.8,3.105,1634486,145.314
1889,47.7,3.1087,1636375,148.28499
1890,50.4,3.1048,1638265,156.48192
1889,48.6,3.105,1640154,150.903
1889,45.9,3.1085,1642043,142.68015
1890,50.3,3.1046,1643933,156.16137999999998
1890,49.7,3.105,1645823,154.3185
1889,45.1,3.1045,1647712,140.01295
1889,50.3,3.105,1649601,156.1815
1890,45.4,3.105,1651491,140.96699999999998
1889,45.2,3.1085,1653380,140.5042
1890,50.4,3.105,1655270,156.492
1889,45.3,3.105,1657159,140.6565
1890,50.3,3.1125,1659049,156.55874999999997
1890,49.1,3.105,1660939,152.4555
1889,45.4,3.1089,1662828,141.14406
1890,50.3,3.1045,1664718,156.15634999999997
1891,48.8,3.105,1666609,151.524
1890,45.8,3.1089,1668499,142.38762
1889,50.3,3.1046,1670388,156.16137999999998
1889,48.3,3.105,1672277,149.9715
1890,46.2,3.1085,1674167,143.6127
1890,50.3,3.1046,1676057,156.16137999999998
1889,49.6,3.105,1677946,154.008
1890,45.2,3.1085,1679836,140.5042
1891,50.3,3.105,1681727,156.1815
1890,45.3,3.109,1683617,140.83769999999998
1890,50.3,3.1085,1685507,156.35754999999997
1890,50.3,3.105,1687397,156.1815
1890,45.2,3.1085,1689287,140.5042
1889,50.3,3.105,1691176,156.1815
1889,45.4,3.105,1693065,140.96699999999998
1890,45.3,3.1045,1694955,140.63385
1890,50.3,3.101,1696845,155.9803
1890,46.7,3.101,1698735,144.8167
1890,47.9,3.1087,1700625,148.90672999999998
1889,50.3,3.1008,1702514,155.97024
1888,48.0,3.101,1704402,148.848
1890,46.7,3.1045,1706292,144.98015
1890,50.3,3.1047,1708182,156.16640999999998
1889,48.3,3.101,1710071,149.7783
1890,50.3,3.1045,1711961,156.15634999999997
1890,50.2,3.105,1713851,155.871
1889,45.1,3.1085,1715740,140.19335
1889,50.3,3.1045,1717629,156.15634999999997
1889,50.2,3.105,1719518,155.871
1890,45.3,3.1085,1721408,140.81504999999999
1889,50.4,3.105,1723297,156.492
1890,45.3,3.105,1725187,140.6565
1890,45.1,3.1085,1727077,140.19335
1890,50.4,3.105,1728967,156.492
1889,45.3,3.105,1730856,140.6565
1890,50.2,3.1125,1732746,156.2475
1890,50.3,3.105,1734636,156.1815
1888,45.5,3.105,1736524,141.2775
1889,49.3,3.1085,1738413,153.24904999999998
1890,50.2,3.109,1740303,156.0718
1889,45.2,3.105,1742192,140.346
1890,48.1,3.1085,1744082,149.51885
1889,50.3,3.101,1745971,155.9803
1890,45.3,3.1088,1747861,140.82863999999998
1890,50.4,3.1045,1749751,156.46679999999998
1889,50.2,3.101,1751640,155.6702
1889,45.2,3.1045,1753529,140.3234
1890,50.3,3.105,1755419,156.1815
1889,45.4,3.105,1757308,140.96699999999998
1890,45.2,3.1085,1759198,140.5042
1889,50.3,3.101,1761087,155.9803
1890,45.3,3.105,1762977,140.6565
1889,49.7,3.1085,1764866,154.49245
1890,50.2,3.105,1766756,155.871
1889,45.4,3.105,1768645,140.96699999999998
1890,49.6,3.1085,1770535,154.1816
1889,50.2,3.105,1772424,155.871
1889,45.2,3.105,1774313,140.346
1890,50.3,3.1045,1776203,156.15634999999997
1890,50.2,3.105,1778093,155.871
1889,45.3,3.1085,1779982,140.81504999999999
1890,50.3,3.1085,1781872,156.35754999999997
1890,50.2,3.105,1783762,155.871
1889,45.3,3.1085,1785651,140.81504999999999
1890,50.2,3.109,1787541,156.0718
1889,45.3,3.109,1789430,140.83769999999998
1890,50.3,3.1085,1791320,156.35754999999997
1889,50.4,3.109,1793209,156.6936
1890,45.3,3.109,1795099,140.83769999999998
1890,50.3,3.1085,1796989,156.35754999999997
1891,50.3,3.105,1798880,156.1815
1889,45.4,3.113,1800769,141.3302
1890,50.4,3.105,1802659,156.492
1887,46.0,3.105,1804546,142.83
1890,48.3,3.1086,1806436,150.14538
1890,50.3,3.1048,1808326,156.17144
1889,45.9,3.105,1810215,142.5195
1891,48.6,3.1085,1812106,151.07309999999998
1889,50.3,3.1049,1813995,156.17647
1890,45.4,3.105,1815885,140.96699999999998
1889,49.0,3.1125,1817774,152.5125
1889,50.3,3.105,1819663,156.1815
1889,45.3,3.1048,1821552,140.64744
1889,50.4,3.1085,1823441,156.6684
1890,50.3,3.109,1825331,156.3827
1889,45.4,3.1089,1827220,141.14406
1891,50.3,3.1086,1829111,156.36257999999998
1889,46.8,3.109,1831000,145.50119999999998
1890,45.2,3.1087,1832890,140.51324
1890,50.3,3.1048,1834780,156.17144
1888,48.5,3.105,1836668,150.5925
1890,50.3,3.1089,1838558,156.37767
1889,50.4,3.105,1840447,156.492
1889,45.3,3.105,1842336,140.6565
1891,50.3,3.1045,1844227,156.15634999999997
1890,50.2,3.109,1846117,156.0718
1889,45.3,3.105,1848006,140.6565
1890,50.3,3.1085,1849896,156.35754999999997
1890,50.2,3.105,1851786,155.871
1889,45.2,3.1085,1853675,140.5042
1889,50.3,3.1085,1855564,156.35754999999997
1891,50.3,3.105,1857455,156.1815
1890,45.2,3.1085,1859345,140.5042
1889,50.4,3.1049,1861234,156.48696
1890,45.3,3.105,1863124,140.6565
1889,46.3,3.1085,1865013,143.92354999999998
1890,50.3,3.105,1866903,156.1815
1890,45.4,3.1089,1868793,141.14406
1889,50.3,3.1125,1870682,156.55874999999997
1890,50.1,3.105,1872572,155.5605
1889,45.4,3.109,1874461,141.1486
1890,50.3,3.1045,1876351,156.15634999999997
1889,50.2,3.105,1878240,155.871
1890,45.3,3.113,1880130,141.0189
1890,50.3,3.1085,1882020,156.35754999999997
1891,50.3,3.105,1883911,156.1815
1890,45.1,3.1125,1885801,140.37375
1889,50.4,3.1125,1887690,156.86999999999998
1889,50.3,3.105,1889579,156.1815
1889,46.3,3.1085,1891468,143.92354999999998
1889,50.3,3.105,1893357,156.1815
1890,45.4,3.109,1895247,141.1486
1890,50.4,3.1125,1897137,156.86999999999998
1889,50.3,3.105,1899026,156.1815
1890,45.3,3.1089,1900916,140.83317
1890,50.3,3.1045,1902806,156.15634999999997
1888,50.0,3.105,1904694,155.25
1890,45.3,3.109,1906584,140.83769999999998
1889,50.2,3.1045,1908473,155.8459
1889,50.1,3.109,1910362,155.7609
1889,45.3,3.113,1912251,141.0189
1890,50.3,3.1085,1914141,156.35754999999997
1890,50.2,3.109,1916031,156.0718
1889,48.8,3.1125,1917920,151.89
1890,50.3,3.1089,1919810,156.37767
1889,45.2,3.109,1921699,140.5268
1889,49.8,3.1085,1923588,154.80329999999998
1890,50.2,3.105,1925478,155.871
1889,45.2,3.1085,1927367,140.5042
1890,50.3,3.1085,1929257,156.35754999999997
1891,50.3,3.105,1931148,156.1815
1889,45.3,3.1086,1933037,140.81958
1890,50.3,3.1049,1934927,156.17647
1890,46.6,3.105,1936817,144.693
1889,45.2,3.1087,1938706,140.51324
1889,50.3,3.1048,1940595,156.17144
1889,47.8,3.105,1942484,148.41899999999998
1890,50.3,3.1088,1944374,156.37264
1891,50.3,3.105,1946265,156.1815
1890,45.3,3.109,1948155,140.83769999999998
1889,50.3,3.1085,1950044,156.35754999999997
1889,50.2,3.109,1951933,156.0718
1890,45.1,3.109,1953823,140.2159
1890,50.4,3.1085,1955713,156.6684
1890,50.3,3.105,1957603,156.1815
1889,45.2,3.1045,1959492,140.3234
1889,50.3,3.1125,1961381,156.55874999999997
1891,50.3,3.105,1963272,156.1815
1890,45.2,3.1087,1965162,140.51324
1889,50.2,3.1048,1967051,155.86096
1889,49.2,3.105,1968940,152.76600000000002
1890,45.4,3.1089,1970830,141.14406
1890,50.3,3.1085,1972720,156.35754999999997
1891,50.2,3.109,1974611,156.0718
1890,45.2,3.1125,1976501,140.685
1889,50.4,3.1045,1978390,156.46679999999998
1890,50.2,3.105,1980280,155.871
1889,50.1,3.1086,1982169,155.74086
1889,50.3,3.105,1984058,156.1815
1890,45.2,3.105,1985948,140.346
1889,50.0,3.1085,1987837,155.42499999999998
1890,50.3,3.105,1989727,156.1815
1891,45.2,3.1086,1991618,140.50872
1889,50.4,3.1125,1993507,156.86999999999998
1889,50.2,3.105,1995396,155.871
1890,45.2,3.1087,1997286,140.51324
1889,50.3,3.1048,1999175,156.17144
1890,48.6,3.109,2001065,151.0974
1890,46.3,3.1089,2002955,143.94207
1890,50.3,3.1046,2004845,156.16137999999998
1889,49.0,3.105,2006734,152.145
1890,50.3,3.1085,2008624,156.35754999999997
1890,50.3,3.109,2010514,156.3827
1889,45.3,3.109,2012403,140.83769999999998
1890,50.3,3.1085,2014293,156.35754999999997
1891,50.3,3.109,2016184,156.3827
1889,45.3,3.109,2018073,140.83769999999998
1890,50.2,3.1125,2019963,156.2475
1890,50.3,3.109,2021853,156.3827
1889,45.2,3.1126,2023742,140.68952000000002
1890,50.3,3.1125,2025632,156.55874999999997
1890,47.3,3.105,2027522,146.8665
1889,45.4,3.1087,2029411,141.13497999999998
1889,50.4,3.1047,2031300,156.47688
1890,48.2,3.109,2033190,149.8538
1889,46.3,3.1128,2035079,144.12264
1890,50.3,3.1086,2036969,156.36257999999998
1890,49.4,3.109,2038859,153.5846
1889,45.3,3.1125,2040748,140.99624999999997
1890,50.4,3.1085,2042638,156.6684
1889,50.1,3.113,2044527,155.9613
1889,50.3,3.1125,2046416,156.55874999999997
1891,50.3,3.113,2048307,156.5839
1890,45.2,3.113,2050197,140.7076
1889,50.3,3.1125,2052086,156.55874999999997
1891,50.3,3.113,2053977,156.5839
1889,45.2,3.1167,2055866,140.87484
1890,50.3,3.1088,2057756,156.37264
1888,48.0,3.109,2059644,149.232
1889,45.3,3.1128,2061533,141.00984
1890,50.3,3.1087,2063423,156.36760999999998
1890,48.6,3.109,2065313,151.0974
1889,46.1,3.1129,2067202,143.50468999999998
1890,50.3,3.1086,2069092,156.36257999999998
1889,50.2,3.109,2070981,156.0718
1890,45.3,3.1125,2072871,140.99624999999997
1890,50.3,3.1125,2074761,156.55874999999997
1889,50.1,3.109,2076650,155.7609
1889,50.3,3.1125,2078539,156.55874999999997
1890,50.2,3.109,2080429,156.0718
1889,45.2,3.1125,2082318,140.685
1890,50.3,3.1085,2084208,156.35754999999997
1890,50.2,3.105,2086098,155.871
1889,45.3,3.1085,2087987,140.81504999999999
1890,50.3,3.105,2089877,156.1815
1889,46.5,3.105,2091766,144.3825
1889,45.2,3.1127,2093655,140.69404
1890,50.4,3.1048,2095545,156.48192
1888,45.5,3.105,2097433,141.2775
1889,49.1,3.1126,2099322,152.82866
1890,50.4,3.1089,2101212,156.68856
1889,46.4,3.105,2103101,144.072
1890,50.3,3.1045,2104991,156.15634999999997
1889,48.6,3.109,2106880,151.0974
1890,45.6,3.1129,2108770,141.94824
1890,50.3,3.1046,2110660,156.16137999999998
1889,49.9,3.109,2112549,155.13909999999998
1889,45.2,3.1125,2114438,140.685
1889,50.3,3.1045,2116327,156.15634999999997
1890,50.2,3.109,2118217,156.0718
1891,45.2,3.1125,2120108,140.685
1889,50.3,3.109,2121997,156.3827
1890,45.3,3.109,2123887,140.83769999999998
1889,45.2,3.1125,2125776,140.685
1890,50.3,3.109,2127666,156.3827
1889,45.4,3.113,2129555,141.3302
1890,50.4,3.1125,2131445,156.86999999999998
1888,46.0,3.109,2133333,143.014
1890,45.3,3.1126,2135223,141.00078
1891,50.3,3.1049,2137114,156.17647
1890,47.3,3.109,2139004,147.0557
1890,47.1,3.1127,2140894,146.60817
1890,50.3,3.1087,2142784,156.36760999999998
1889,48.7,3.109,2144673,151.4083
1889,45.7,3.1085,2146562,142.05845
1889,50.3,3.1046,2148451,156.16137999999998
1890,49.3,3.105,2150341,153.07649999999998
1889,45.2,3.1045,2152230,140.3234
1890,50.3,3.105,2154120,156.1815
1890,45.3,3.109,2156010,140.83769999999998
1890,50.3,3.1085,2157900,156.35754999999997
1891,50.3,3.109,2159791,156.3827
1889,45.3,3.109,2161680,140.83769999999998
1890,50.4,3.1049,2163570,156.48696
1889,45.8,3.101,2165459,142.0258
1889,45.3,3.1086,2167348,140.81958
1889,50.4,3.1049,2169237,156.48696
1889,47.5,3.105,2171126,147.4875
1889,47.1,3.1128,2173015,146.61288000000002
1890,50.3,3.1047,2174905,156.16640999999998
1890,49.2,3.105,2176795,152.76600000000002
1889,45.3,3.1085,2178684,140.81504999999999
1890,50.3,3.1045,2180574,156.15634999999997
1889,49.1,3.105,2182463,152.4555
1888,45.5,3.1125,2184351,141.61875
1890,50.3,3.105,2186241,156.1815
1889,45.3,3.109,2188130,140.83769999999998
1890,50.3,3.1085,2190020,156.35754999999997
1890,48.8,3.109,2191910,151.7192
1890,45.2,3.1085,2193800,140.5042
1889,50.4,3.105,2195689,156.492
1890,45.4,3.109,2197579,141.1486
1889,45.2,3.1125,2199468,140.685
1889,50.4,3.105,2201357,156.492
1890,45.3,3.105,2203247,140.6565
1889,49.6,3.1125,2205136,154.38
1890,50.4,3.105,2207026,156.492
1890,45.6,3.105,2208916,141.588
1889,49.2,3.1085,2210805,152.9382
1890,50.3,3.109,2212695,156.3827
1889,45.2,3.105,2214584,140.346
1890,50.3,3.1045,2216474,156.15634999999997
1889,50.2,3.109,2218363,156.0718
1890,45.3,3.1085,2220253,140.81504999999999
1889,50.4,3.1085,2222142,156.6684
1889,50.2,3.105,2224031,155.871
1890,45.1,3.1085,2225921,140.19335
1890,50.3,3.105,2227811,156.1815
1889,45.3,3.105,2229700,140.6565
1889,45.2,3.1085,2231589,140.5042
1889,50.3,3.105,2233478,156.1815
1890,45.4,3.105,2235368,140.96699999999998
1889,50.3,3.1125,2237257,156.55874999999997
1891,50.3,3.105,2239148,156.1815
1889,45.4,3.105,2241037,140.96699999999998
1890,50.2,3.1046,2242927,155.85092
1888,48.5,3.105,2244815,150.5925
1889,44.1,3.1089,2246704,137.10249000000002
