dt,current,voltage,time,power
5666,45.1,3.2117,6944851,144.84767
1890,45.3,3.2085,6946741,145.34505
1889,47.6,3.2085,6948630,152.7246
1889,45.1,3.2085,6950519,144.70335
3778,45.3,3.2125,6954297,145.52624999999998
1891,45.3,3.2125,6956188,145.52624999999998
1891,45.3,3.2085,6958079,145.34505
1889,44.9,3.2086,6959968,144.06614
1890,45.2,3.2165,6961858,145.38580000000002
1890,45.3,3.2085,6963748,145.34505
1890,45.1,3.2085,6965638,144.70335
1890,45.1,3.2045,6967528,144.52295
1889,45.3,3.2165,6969417,145.70745
1891,45.3,3.2045,6971308,145.16385
1891,45.3,3.2085,6973199,145.34505
5666,45.2,3.2125,6978865,145.205
1891,45.2,3.2125,6980756,145.205
1890,45.3,3.2085,6982646,145.34505
1888,45.0,3.2085,6984534,144.3825
1890,45.3,3.2165,6986424,145.70745
1889,45.4,3.2125,6988313,145.8475
1890,45.3,3.2125,6990203,145.52624999999998
1889,48.2,3.2085,6992092,154.6497
1890,45.3,3.2208,6993982,145.90224
1890,45.4,3.2125,6995872,145.8475
1890,45.1,3.2085,6997762,144.70335
1889,45.2,3.2085,6999651,145.0242
1889,45.3,3.2125,7001540,145.52624999999998
1890,45.2,3.2125,7003430,145.205
1889,45.1,3.2125,7005319,144.88375
1890,45.4,3.2125,7007209,145.8475
1890,45.3,3.2085,7009099,145.34505
1889,45.1,3.2165,7010988,145.06415
1890,45.4,3.2165,7012878,146.0291
1890,45.3,3.2125,7014768,145.52624999999998
1889,45.1,3.2125,7016657,144.88375
1890,45.1,3.2205,7018547,145.24455
1890,45.3,3.2165,7020437,145.70745
1889,45.4,3.2125,7022326,145.8475
1891,45.4,3.2125,7024217,145.8475
1891,45.3,3.2205,7026108,145.88864999999998
1891,45.3,3.2125,7027999,145.52624999999998
1889,45.4,3.2085,7029888,145.6659
1890,45.2,3.2085,7031778,145.0242
1889,45.3,3.2085,7033667,145.34505
1889,45.4,3.2125,7035556,145.8475
1891,45.4,3.2085,7037447,145.6659
1889,45.3,3.2085,7039336,145.34505
1892,45.3,3.2085,7041228,145.34505
1891,45.3,3.2165,7043119,145.70745
1889,45.1,3.2125,7045008,144.88375
1891,45.1,3.2125,7046899,144.88375
1890,45.3,3.2125,7048789,145.52624999999998
1890,45.4,3.2205,7050679,146.2107
1889,45.6,3.2125,7052568,146.49
1890,45.4,3.2086,7054458,145.67044
1889,45.3,3.2085,7056347,145.34505
1890,45.1,3.2088,7058237,144.71688
1890,45.3,3.2085,7060127,145.34505
1890,45.3,3.2085,7062017,145.34505
1890,45.1,3.2085,7063907,144.70335
1890,45.2,3.2085,7065797,145.0242
1889,45.3,3.2125,7067686,145.52624999999998
1891,45.3,3.2085,7069577,145.34505
1889,47.3,3.2085,7071466,151.76205
1889,45.4,3.2085,7073355,145.6659
1891,45.4,3.2165,7075246,146.0291
1888,46.5,3.2085,7077134,149.19525
1890,45.3,3.2085,7079024,145.34505
1891,45.3,3.2085,7080915,145.34505
1888,45.0,3.2165,7082803,144.7425
1889,45.4,3.2085,7084692,145.6659
1891,45.4,3.2085,7086583,145.6659
3778,46.8,3.2085,7090361,150.15779999999998
1890,45.3,3.2127,7092251,145.53530999999998
1890,45.3,3.2085,7094141,145.34505
1890,45.1,3.2085,7096031,144.70335
1889,45.2,3.2085,7097920,145.0242
1890,45.3,3.2165,7099810,145.70745
1891,45.3,3.2085,7101701,145.34505
3778,45.3,3.2127,7105479,145.53530999999998
1889,45.5,3.2205,7107368,146.53275
1888,45.0,3.2125,7109256,144.5625
1890,45.3,3.2125,7111146,145.52624999999998
1890,45.3,3.2085,7113036,145.34505
1890,45.1,3.2125,7114926,144.88375
1891,45.1,3.2125,7116817,144.88375
1889,45.3,3.2085,7118706,145.34505
1891,45.3,3.2085,7120597,145.34505
1890,45.8,3.2125,7122487,147.1325
1889,45.3,3.2126,7124376,145.53078
1890,45.3,3.2125,7126266,145.52624999999998
1890,48.6,3.2085,7128156,155.9331
1889,45.3,3.2085,7130045,145.34505
1889,45.4,3.2165,7131934,146.0291
1890,45.2,3.2125,7133824,145.205
1889,45.1,3.2085,7135713,144.70335
1891,45.4,3.2085,7137604,145.6659
1889,45.3,3.2165,7139493,145.70745
1889,48.8,3.2085,7141382,156.57479999999998
1890,45.3,3.2089,7143272,145.36317
1891,45.3,3.2085,7145163,145.34505
1891,45.3,3.2085,7147054,145.34505
1889,45.2,3.2125,7148943,145.205
1891,45.2,3.2085,7150834,145.0242
1891,45.4,3.2085,7152725,145.6659
3778,45.3,3.2165,7156503,145.70745
1891,45.3,3.2125,7158394,145.52624999999998
3778,45.2,3.2125,7162172,145.205
1889,45.3,3.2205,7164061,145.88864999999998
1891,45.3,3.2125,7165952,145.52624999999998
1889,45.4,3.2125,7167841,145.8475
1891,48.3,3.2125,7169732,155.16375
1890,45.3,3.2125,7171622,145.52624999999998
1890,45.3,3.2165,7173512,145.70745
1891,45.3,3.2125,7175403,145.52624999999998
1890,45.1,3.2125,7177293,144.88375
1889,45.3,3.2085,7179182,145.34505
1890,45.4,3.2125,7181072,145.8475
1891,45.4,3.2125,7182963,145.8475
1890,45.2,3.2128,7184853,145.21856000000002
1889,45.4,3.2085,7186742,145.6659
1889,45.3,3.2205,7188631,145.88864999999998
1890,45.1,3.2125,7190521,144.88375
1889,45.3,3.2125,7192410,145.52624999999998
1889,45.4,3.2085,7194299,145.6659
1891,45.4,3.2205,7196190,146.2107
1890,45.3,3.2125,7198080,145.52624999999998
1891,45.3,3.2125,7199971,145.52624999999998
1890,45.3,3.2085,7201861,145.34505
3780,45.3,3.2165,7205641,145.70745
1890,45.3,3.2125,7207531,145.52624999999998
1889,45.1,3.2125,7209420,144.88375
1889,45.4,3.2085,7211309,145.6659
1891,45.4,3.2205,7213200,146.2107
1890,45.3,3.2125,7215090,145.52624999999998
1889,45.7,3.2085,7216979,146.62845000000002
1890,45.3,3.2085,7218869,145.34505
1891,45.3,3.2205,7220760,145.88864999999998
1890,45.1,3.2125,7222650,144.88375
1890,45.1,3.2125,7224540,144.88375
1890,45.4,3.2125,7226430,145.8475
1891,45.4,3.2125,7228321,145.8475
1888,46.0,3.2125,7230209,147.775
1889,45.4,3.2126,7232098,145.85204
1891,45.4,3.2125,7233989,145.8475
1889,45.0,3.2087,7235878,144.3915
1889,45.3,3.2165,7237767,145.70745
1891,45.3,3.2125,7239658,145.52624999999998
1889,45.2,3.2085,7241547,145.0242
1891,45.2,3.2085,7243438,145.0242
1889,45.3,3.2205,7245327,145.88864999999998
1890,45.4,3.2125,7247217,145.8475
1890,46.6,3.2125,7249107,149.7025
1890,45.4,3.2085,7250997,145.6659
1890,45.3,3.2125,7252887,145.52624999999998
1890,45.4,3.2125,7254777,145.8475
1890,45.4,3.2125,7256667,145.8475
1889,45.3,3.2125,7258556,145.52624999999998
1888,45.0,3.2085,7260444,144.3825
1890,45.4,3.2165,7262334,146.0291
1890,45.3,3.2125,7264224,145.52624999999998
1891,45.4,3.2085,7266115,145.6659
1890,47.8,3.2085,7268005,153.3663
1890,45.4,3.2168,7269895,146.04272
1889,45.3,3.2125,7271784,145.52624999999998
1889,45.0,3.2085,7273673,144.3825
1889,45.2,3.2085,7275562,145.0242
1890,45.3,3.2205,7277452,145.88864999999998
1889,45.2,3.2085,7279341,145.0242
1889,45.0,3.2085,7281230,144.3825
1889,45.4,3.2085,7283119,145.6659
1890,45.3,3.2085,7285009,145.34505
1889,45.0,3.2085,7286898,144.3825
1889,45.3,3.2085,7288787,145.34505
1891,45.3,3.2125,7290678,145.52624999999998
1889,45.1,3.2125,7292567,144.88375
1890,45.1,3.2165,7294457,145.06415
1890,45.3,3.2125,7296347,145.52624999999998
1891,45.3,3.2085,7298238,145.34505
1890,45.4,3.2085,7300128,145.6659
1891,45.4,3.2165,7302019,146.0291
1890,45.4,3.2125,7303909,145.8475
1890,48.9,3.2125,7305799,157.09125
1890,45.3,3.2085,7307689,145.34505
1890,45.3,3.2085,7309579,145.34505
1890,45.1,3.2085,7311469,144.70335
1890,45.1,3.2085,7313359,144.70335
1890,45.4,3.2085,7315249,145.6659
1891,45.4,3.2045,7317140,145.4843
1888,48.5,3.2085,7319028,155.61225
1890,45.3,3.2088,7320918,145.35864
1890,45.4,3.2085,7322808,145.6659
1889,45.2,3.2045,7324697,144.8434
1889,45.3,3.2165,7326586,145.70745
1891,45.3,3.2085,7328477,145.34505
1888,45.0,3.2085,7330365,144.3825
1889,45.1,3.2085,7332254,144.70335
1890,45.3,3.2205,7334144,145.88864999999998
1891,45.3,3.2085,7336035,145.34505
1889,45.4,3.2125,7337924,145.8475
1890,45.3,3.2085,7339814,145.34505
1891,45.3,3.2125,7341705,145.52624999999998
1889,45.1,3.2125,7343594,144.88375
1890,45.1,3.2125,7345484,144.88375
1890,45.4,3.2125,7347374,145.8475
1890,45.4,3.2085,7349264,145.6659
1891,45.4,3.2165,7351155,146.0291
1890,46.2,3.2085,7353045,148.2327
1889,45.3,3.2085,7354934,145.34505
1890,46.9,3.2085,7356824,150.47865
1889,45.3,3.2207,7358713,145.89771
1892,45.3,3.2125,7360605,145.52624999999998
3777,45.1,3.2125,7364382,144.88375
1890,45.2,3.2085,7366272,145.0242
1890,45.4,3.2125,7368162,145.8475
1889,45.3,3.2125,7370051,145.52624999999998
1890,45.1,3.2127,7371941,144.89277
1889,45.4,3.2125,7373830,145.8475
1891,45.4,3.2165,7375721,146.0291
1892,45.2,3.2165,7377613,145.38580000000002
1890,45.2,3.2125,7379503,145.205
1889,45.4,3.2125,7381392,145.8475
1891,45.4,3.2205,7383283,146.2107
1889,46.7,3.2165,7385172,150.21055
1890,45.3,3.2125,7387062,145.52624999999998
1891,45.3,3.2125,7388953,145.52624999999998
1889,45.2,3.2205,7390842,145.5666
1892,45.2,3.2125,7392734,145.205
1890,45.3,3.2125,7394624,145.52624999999998
1890,45.3,3.2125,7396514,145.52624999999998
1888,46.5,3.2125,7398402,149.38125
1889,45.3,3.2127,7400291,145.53530999999998
1891,45.3,3.2125,7402182,145.52624999999998
1891,45.3,3.2125,7404073,145.52624999999998
1889,45.2,3.2125,7405962,145.205
1890,45.3,3.2205,7407852,145.88864999999998
1889,45.4,3.2125,7409741,145.8475
1891,45.4,3.2125,7411632,145.8475
1891,45.4,3.2126,7413523,145.85204
1889,45.3,3.2245,7415412,146.06984999999997
1889,47.4,3.2165,7417301,152.4621
1889,45.3,3.2127,7419190,145.53530999999998
1891,45.3,3.2165,7421081,145.70745
1889,45.2,3.2165,7422970,145.38580000000002
1891,45.2,3.2165,7424861,145.38580000000002
1890,45.4,3.2165,7426751,146.0291
1891,45.4,3.2125,7428642,145.8475
1890,45.4,3.2125,7430532,145.8475
1890,45.3,3.2165,7432422,145.70745
1890,45.3,3.2125,7434312,145.52624999999998
1890,45.4,3.2085,7436202,145.6659
1890,45.3,3.2085,7438092,145.34505
1890,45.3,3.2205,7439982,145.88864999999998
1890,45.1,3.2125,7441872,144.88375
1890,45.2,3.2165,7443762,145.38580000000002
1890,45.4,3.2125,7445652,145.8475
1890,45.4,3.2205,7447542,146.2107
1890,45.4,3.2125,7449432,145.8475
3780,45.4,3.2085,7453212,145.6659
1889,48.2,3.2125,7455101,154.8425
1890,45.3,3.2128,7456991,145.53984
1889,45.2,3.2125,7458880,145.205
1890,45.3,3.2125,7460770,145.52624999999998
1890,45.1,3.2125,7462660,144.88375
1889,45.3,3.2205,7464549,145.88864999999998
1889,45.4,3.2125,7466438,145.8475
1889,45.3,3.2125,7468327,145.52624999999998
1891,45.3,3.2128,7470218,145.53984
1890,45.4,3.2205,7472108,146.2107
1890,45.2,3.2165,7473998,145.38580000000002
1888,45.0,3.2125,7475886,144.5625
1890,45.3,3.2085,7477776,145.34505
1889,45.4,3.2125,7479665,145.8475
1891,45.4,3.2165,7481556,146.0291
1889,48.4,3.2125,7483445,155.48499999999999
1890,45.3,3.2085,7485335,145.34505
1892,45.3,3.2125,7487227,145.52624999999998
1890,45.1,3.2165,7489117,145.06415
1891,45.1,3.2125,7491008,144.88375
1890,45.3,3.2125,7492898,145.52624999999998
1891,45.3,3.2125,7494789,145.52624999999998
1889,48.7,3.2205,7496678,156.83835
1889,45.3,3.2089,7498567,145.36317
1890,45.4,3.2125,7500457,145.8475
1889,45.3,3.2125,7502346,145.52624999999998
1890,45.1,3.2085,7504236,144.70335
1888,45.5,3.2125,7506124,146.16875
1890,45.4,3.2125,7508014,145.8475
1891,45.4,3.2085,7509905,145.6659
1890,45.3,3.2128,7511795,145.53984
1890,45.3,3.2165,7513685,145.70745
1891,45.3,3.2125,7515576,145.52624999999998
1889,45.2,3.2085,7517465,145.0242
1891,45.2,3.2085,7519356,145.0242
1889,45.4,3.2165,7521245,146.0291
1890,45.3,3.2125,7523135,145.52624999999998
1890,47.8,3.2125,7525025,153.55749999999998
1889,45.3,3.2085,7526914,145.34505
1890,45.2,3.2205,7528804,145.5666
1889,45.1,3.2085,7530693,144.70335
1891,45.1,3.2125,7532584,144.88375
1889,45.4,3.2045,7534473,145.4843
1891,45.4,3.2085,7536364,145.6659
1889,48.2,3.2125,7538253,154.8425
1889,45.3,3.2128,7540142,145.53984
1891,45.3,3.2085,7542033,145.34505
3778,45.1,3.2125,7545811,144.88375
1890,45.2,3.2085,7547701,145.0242
1889,45.4,3.2045,7549590,145.4843
1890,45.4,3.2085,7551480,145.6659
1889,45.2,3.2165,7553369,145.38580000000002
1889,45.3,3.2085,7555258,145.34505
1891,45.3,3.2085,7557149,145.34505
1890,45.2,3.2085,7559039,145.0242
1890,45.2,3.2085,7560929,145.0242
1890,45.4,3.2085,7562819,145.6659
1891,45.4,3.2085,7564710,145.6659
1889,48.7,3.2085,7566599,156.25395
1890,45.4,3.2085,7568489,145.6659
1891,45.4,3.2125,7570380,145.8475
1889,45.3,3.2125,7572269,145.52624999999998
3780,45.3,3.2085,7576049,145.34505
1889,45.1,3.2205,7577938,145.24455
1891,45.1,3.2125,7579829,144.88375
1890,45.4,3.2125,7581719,145.8475
1893,45.4,3.2085,7583612,145.6659
1889,45.8,3.2205,7585501,147.4989
1889,45.4,3.2126,7587390,145.85204
1890,45.3,3.2165,7589280,145.70745
1889,45.1,3.2127,7591169,144.89277
1889,45.3,3.2125,7593058,145.52624999999998
1891,45.3,3.2165,7594949,145.70745
1890,45.1,3.2125,7596839,144.88375
1891,45.2,3.2085,7598730,145.0242
1890,45.4,3.2125,7600620,145.8475
1890,45.4,3.2165,7602510,146.0291
1889,46.8,3.2125,7604399,150.345
1889,45.4,3.2125,7606288,145.8475
3778,45.3,3.2165,7610066,145.70745
1891,45.3,3.2125,7611957,145.52624999999998
3779,45.1,3.2125,7615736,144.88375
1890,45.3,3.2125,7617626,145.52624999999998
1889,45.4,3.2125,7619515,145.8475
1890,45.3,3.2125,7621405,145.52624999999998
1888,47.0,3.2125,7623293,150.98749999999998
1889,45.3,3.2085,7625182,145.34505
1890,45.4,3.2165,7627072,146.0291
1890,45.1,3.2165,7628962,145.06415
1889,45.2,3.2125,7630851,145.205
1890,45.4,3.2125,7632741,145.8475
1890,45.4,3.2205,7634631,146.2107
1891,45.4,3.2165,7636522,146.0291
1889,45.3,3.2167,7638411,145.71651
1890,45.4,3.2125,7640301,145.8475
1889,45.1,3.2247,7642190,145.43397
1890,45.4,3.2125,7644080,145.8475
1891,45.4,3.2125,7645971,145.8475
1889,45.1,3.2085,7647860,144.70335
1891,45.1,3.2125,7649751,144.88375
1890,45.3,3.2165,7651641,145.70745
1889,45.4,3.2125,7653530,145.8475
1889,46.7,3.2125,7655419,150.02375
1889,45.3,3.2085,7657308,145.34505
1891,45.3,3.2165,7659199,145.70745
1890,45.3,3.2125,7661089,145.52624999999998
1890,45.2,3.2125,7662979,145.205
1890,45.3,3.2125,7664869,145.52624999999998
1889,45.4,3.2205,7666758,146.2107
1890,46.8,3.2125,7668648,150.345
1889,45.1,3.2087,7670537,144.71237
1889,45.4,3.2085,7672426,145.6659
1890,45.3,3.2085,7674316,145.34505
1889,44.7,3.2125,7676205,143.59875
1889,45.1,3.2125,7678094,144.88375
1890,45.3,3.2125,7679984,145.52624999999998
1890,45.4,3.2085,7681874,145.6659
1889,45.1,3.2125,7683763,144.88375
1890,45.3,3.2125,7685653,145.52624999999998
1889,45.4,3.2085,7687542,145.6659
1890,45.2,3.2085,7689432,145.0242
1889,45.1,3.2205,7691321,145.24455
1890,45.4,3.2125,7693211,145.8475
1890,45.3,3.2125,7695101,145.52624999999998
1889,45.6,3.2085,7696990,146.3076
1890,45.4,3.2165,7698880,146.0291
1890,45.2,3.2125,7700770,145.205
1889,45.3,3.2085,7702659,145.34505
1890,45.2,3.2085,7704549,145.0242
1889,45.3,3.2045,7706438,145.16385
1891,45.3,3.2085,7708329,145.34505
1890,45.4,3.2085,7710219,145.6659
1890,45.1,3.2085,7712109,144.70335
1890,45.3,3.2085,7713999,145.34505
1891,45.3,3.2125,7715890,145.52624999999998
3778,45.2,3.2085,7719668,145.0242
1889,45.1,3.2085,7721557,144.70335
1889,45.2,3.2245,7723446,145.7474
1890,45.3,3.2125,7725336,145.52624999999998
1891,45.3,3.2125,7727227,145.52624999999998
3779,45.1,3.2125,7731006,144.88375
1890,45.4,3.2165,7732896,146.0291
1889,45.1,3.2125,7734785,144.88375
1890,45.3,3.2086,7736675,145.34958
1890,45.3,3.2085,7738565,145.34505
1890,45.1,3.2165,7740455,145.06415
1889,45.3,3.2085,7742344,145.34505
1890,45.4,3.2085,7744234,145.6659
1889,45.1,3.2085,7746123,144.70335
1890,45.3,3.2205,7748013,145.88864999999998
1891,45.3,3.2165,7749904,145.70745
1889,45.1,3.2165,7751793,145.06415
1890,45.3,3.2165,7753683,145.70745
1891,45.3,3.2245,7755574,146.06984999999997
1889,45.4,3.2165,7757463,146.0291
1890,45.4,3.2165,7759353,146.0291
1890,45.3,3.2165,7761243,145.70745
1890,46.3,3.2125,7763133,148.73874999999998
1889,45.3,3.2166,7765022,145.71197999999998
1890,45.4,3.2165,7766912,146.0291
1890,45.3,3.2125,7768802,145.52624999999998
1890,45.3,3.2125,7770692,145.52624999999998
1890,45.2,3.2165,7772582,145.38580000000002
1888,45.0,3.2125,7774470,144.5625
1889,45.3,3.2125,7776359,145.52624999999998
1888,45.0,3.2125,7778247,144.5625
1890,45.1,3.2245,7780137,145.42495
1888,45.0,3.2165,7782025,144.7425
1890,45.2,3.2165,7783915,145.38580000000002
1890,45.3,3.2125,7785805,145.52624999999998
1890,45.3,3.2125,7787695,145.52624999999998
1890,45.1,3.2165,7789585,145.06415
1890,45.1,3.2165,7791475,145.06415
1889,45.3,3.2165,7793364,145.70745
1891,45.3,3.2125,7795255,145.52624999999998
1891,45.3,3.2165,7797146,145.70745
3778,45.2,3.2125,7800924,145.205
1890,45.4,3.2125,7802814,145.8475
1890,45.3,3.2205,7804704,145.88864999999998
1890,45.3,3.2125,7806594,145.52624999999998
3777,45.2,3.2125,7810371,145.205
1889,45.3,3.2245,7812260,146.06984999999997
1890,45.4,3.2165,7814150,146.0291
1890,45.4,3.2205,7816040,146.2107
1890,45.3,3.2165,7817930,145.70745
1890,45.1,3.2165,7819820,145.06415
1888,45.0,3.2205,7821708,144.92249999999999
1889,45.3,3.2165,7823597,145.70745
1890,45.4,3.2165,7825487,146.0291
1889,45.1,3.2165,7827376,145.06415
1889,45.2,3.2205,7829265,145.5666
1890,45.4,3.2125,7831155,145.8475
1889,45.3,3.2125,7833044,145.52624999999998
1891,45.3,3.2125,7834935,145.52624999999998
1889,45.0,3.2205,7836824,144.92249999999999
1889,45.1,3.2125,7838713,144.88375
1890,45.4,3.2125,7840603,145.8475
1889,45.1,3.2125,7842492,144.88375
5665,45.0,3.2125,7848157,144.5625
1890,45.0,3.2085,7850047,144.3825
1890,45.4,3.2085,7851937,145.6659
1889,45.1,3.2125,7853826,144.88375
1891,45.1,3.2125,7855717,144.88375
1892,45.2,3.2125,7857609,145.205
1890,45.2,3.2085,7859499,145.0242
1888,45.0,3.2205,7861387,144.92249999999999
1890,45.0,3.2085,7863277,144.3825
1889,45.0,3.2125,7865166,144.5625
1890,45.3,3.2085,7867056,145.34505
1891,45.3,3.2205,7868947,145.88864999999998
1890,45.2,3.2085,7870837,145.0242
1890,45.1,3.2085,7872727,144.70335
1891,45.3,3.2085,7874618,145.34505
1890,45.3,3.2125,7876508,145.52624999999998
1890,45.1,3.2165,7878398,145.06415
1890,45.1,3.2125,7880288,144.88375
1890,45.4,3.2125,7882178,145.8475
1890,45.3,3.2085,7884068,145.34505
1890,45.3,3.2165,7885958,145.70745
1891,45.3,3.2125,7887849,145.52624999999998
1890,45.1,3.2125,7889739,144.88375
1889,45.0,3.2125,7891628,144.5625
1889,45.3,3.2205,7893517,145.88864999999998
1890,45.3,3.2125,7895407,145.52624999999998
1890,45.2,3.2165,7897297,145.38580000000002
1888,45.0,3.2165,7899185,144.7425
1890,45.4,3.2165,7901075,146.0291
1890,45.4,3.2205,7902965,146.2107
1890,45.3,3.2165,7904855,145.70745
1890,45.1,3.2165,7906745,145.06415
1889,45.3,3.2165,7908634,145.70745
1890,45.4,3.2205,7910524,146.2107
1889,45.3,3.2165,7912413,145.70745
1890,45.3,3.2165,7914303,145.70745
1890,45.1,3.2125,7916193,144.88375
1888,45.0,3.2245,7918081,145.1025
1890,45.3,3.2165,7919971,145.70745
1889,45.4,3.2165,7921860,146.0291
1890,45.2,3.2125,7923750,145.205
1890,45.1,3.2205,7925640,145.24455
1889,45.3,3.2125,7927529,145.52624999999998
1890,45.3,3.2165,7929419,145.70745
1889,45.4,3.2125,7931308,145.8475
1890,45.1,3.2125,7933198,144.88375
1890,45.2,3.2165,7935088,145.38580000000002
1889,45.3,3.2085,7936977,145.34505
1891,45.3,3.2125,7938868,145.52624999999998
1890,45.1,3.2085,7940758,144.70335
1889,45.2,3.2205,7942647,145.5666
1890,45.2,3.2085,7944537,145.0242
1889,45.3,3.2085,7946426,145.34505
1891,45.3,3.2085,7948317,145.34505
1889,45.2,3.2205,7950206,145.5666
1890,45.1,3.2085,7952096,144.70335
1890,45.1,3.2125,7953986,144.88375
1890,44.8,3.2085,7955876,143.74079999999998
1890,45.4,3.2085,7957766,145.6659
1889,45.1,3.2125,7959655,144.88375
1891,45.1,3.2125,7961546,144.88375
1890,45.3,3.2085,7963436,145.34505
3777,45.2,3.2165,7967213,145.38580000000002
1890,45.1,3.2085,7969103,144.70335
1889,45.4,3.2125,7970992,145.8475
1890,45.3,3.2085,7972882,145.34505
1890,45.4,3.2205,7974772,146.2107
1889,45.2,3.2125,7976661,145.205
1888,45.0,3.2085,7978549,144.3825
1889,45.2,3.2125,7980438,145.205
1890,45.3,3.2205,7982328,145.88864999999998
1890,45.3,3.2125,7984218,145.52624999999998
1891,45.1,3.2165,7986109,145.06415
1889,45.2,3.2125,7987998,145.205
1890,45.4,3.2165,7989888,146.0291
1890,45.3,3.2205,7991778,145.88864999999998
1890,45.3,3.2165,7993668,145.70745
1889,45.1,3.2165,7995557,145.06415
1890,45.4,3.2165,7997447,146.0291
1890,45.4,3.2245,7999337,146.3923
1891,45.3,3.2165,8001228,145.70745
1891,45.3,3.2125,8003119,145.52624999999998
1890,45.1,3.2165,8005009,145.06415
1888,45.0,3.2245,8006897,145.1025
1890,45.3,3.2125,8008787,145.52624999999998
1891,45.3,3.2125,8010678,145.52624999999998
1889,45.2,3.2165,8012567,145.38580000000002
1888,45.0,3.2165,8014455,144.7425
1889,45.3,3.2165,8016344,145.70745
1891,45.3,3.2165,8018235,145.70745
1891,45.3,3.2125,8020126,145.52624999999998
1889,45.1,3.2125,8022015,144.88375
1890,45.4,3.2165,8023905,146.0291
1889,45.3,3.2125,8025794,145.52624999999998
1891,45.3,3.2085,8027685,145.34505
1889,45.1,3.2125,8029574,144.88375
1890,45.2,3.2205,8031464,145.5666
1890,45.2,3.2085,8033354,145.0242
1890,45.3,3.2085,8035244,145.34505
1890,45.3,3.2085,8037134,145.34505
1890,45.1,3.2085,8039024,144.70335
1890,45.2,3.2125,8040914,145.205
1890,44.9,3.2085,8042804,144.06165
1889,45.3,3.2125,8044693,145.52624999999998
1891,45.3,3.2085,8046584,145.34505
1889,45.1,3.2125,8048473,144.88375
1891,45.1,3.2125,8050364,144.88375
1889,45.3,3.2125,8052253,145.52624999999998
1891,45.3,3.2125,8054144,145.52624999999998
1889,45.1,3.2205,8056033,145.24455
1889,45.0,3.2125,8057922,144.5625
1890,45.3,3.2085,8059812,145.34505
1889,45.4,3.2085,8061701,145.6659
1889,45.3,3.2245,8063590,146.06984999999997
1889,45.2,3.2125,8065479,145.205
1889,45.0,3.2085,8067368,144.3825
1889,45.0,3.2045,8069257,144.2025
1890,45.3,3.2085,8071147,145.34505
1891,45.3,3.2125,8073038,145.52624999999998
1889,45.2,3.2125,8074927,145.205
1889,45.0,3.2125,8076816,144.5625
1889,45.3,3.2085,8078705,145.34505
1891,45.3,3.2125,8080596,145.52624999999998
3777,45.1,3.2125,8084373,144.88375
1890,45.3,3.2125,8086263,145.52624999999998
1891,45.3,3.2245,8088154,146.06984999999997
1890,45.3,3.2125,8090044,145.52624999999998
1890,45.4,3.2165,8091934,146.0291
1890,45.1,3.2125,8093824,144.88375
1890,45.1,3.2125,8095714,144.88375
1890,45.3,3.2165,8097604,145.70745
1891,45.3,3.2165,8099495,145.70745
1889,45.1,3.2165,8101384,145.06415
1891,45.1,3.2165,8103275,145.06415
1890,45.3,3.2205,8105165,145.88864999999998
1890,45.3,3.2165,8107055,145.70745
1891,45.3,3.2125,8108946,145.52624999999998
1890,45.2,3.2125,8110836,145.205
1891,45.4,3.2205,8112727,146.2107
1890,45.2,3.2125,8114617,145.205
1889,45.3,3.2125,8116506,145.52624999999998
1891,45.3,3.2125,8118397,145.52624999999998
1889,45.1,3.2205,8120286,145.24455
1891,45.1,3.2125,8122177,144.88375
1890,45.3,3.2165,8124067,145.70745
1890,45.3,3.2125,8125957,145.52624999999998
1890,45.1,3.2165,8127847,145.06415
1892,45.1,3.2165,8129739,145.06415
1890,45.2,3.2165,8131629,145.38580000000002
1889,45.3,3.2125,8133518,145.52624999999998
1891,45.3,3.2165,8135409,145.70745
1889,45.1,3.2205,8137298,145.24455
1890,45.2,3.2165,8139188,145.38580000000002
1890,45.3,3.2125,8141078,145.52624999999998
1891,45.3,3.2125,8142969,145.52624999999998
1890,45.2,3.2205,8144859,145.5666
1890,45.2,3.2125,8146749,145.205
1890,45.3,3.2085,8148639,145.34505
1889,45.4,3.2045,8150528,145.4843
1889,45.3,3.2085,8152417,145.34505
1890,45.1,3.2125,8154307,144.88375
1889,45.2,3.2125,8156196,145.205
1890,45.3,3.2125,8158086,145.52624999999998
1891,45.3,3.2085,8159977,145.34505
1891,45.3,3.2165,8161868,145.70745
1890,45.2,3.2085,8163758,145.0242
1890,45.2,3.2085,8165648,145.0242
1890,45.3,3.2085,8167538,145.34505
1889,45.2,3.2205,8169427,145.5666
1889,45.3,3.2125,8171316,145.52624999999998
1890,45.1,3.2165,8173206,145.06415
1889,45.3,3.2125,8175095,145.52624999999998
1891,45.3,3.2205,8176986,145.88864999999998
1891,45.3,3.2165,8178877,145.70745
1889,45.4,3.2125,8180766,145.8475
1889,45.0,3.2085,8182655,144.3825
1889,45.0,3.2085,8184544,144.3825
1889,45.3,3.2125,8186433,145.52624999999998
1891,45.3,3.2125,8188324,145.52624999999998
1888,45.0,3.2125,8190212,144.5625
1890,45.1,3.2125,8192102,144.88375
1889,45.3,3.2205,8193991,145.88864999999998
1891,45.3,3.2125,8195882,145.52624999999998
3778,45.1,3.2125,8199660,144.88375
1889,45.2,3.2245,8201549,145.7474
1889,45.3,3.2125,8203438,145.52624999999998
1891,45.3,3.2125,8205329,145.52624999999998
1891,45.3,3.2085,8207220,145.34505
1890,45.2,3.2085,8209110,145.0242
1889,45.0,3.2125,8210999,144.5625
1889,45.3,3.2125,8212888,145.52624999999998
1891,45.3,3.2125,8214779,145.52624999999998
1890,45.1,3.2125,8216669,144.88375
1890,45.1,3.2165,8218559,145.06415
1890,45.2,3.2125,8220449,145.205
1889,45.3,3.2045,8222338,145.16385
3780,45.1,3.2165,8226118,145.06415
1889,45.3,3.2085,8228007,145.34505
1889,45.0,3.2085,8229896,144.3825
1889,45.3,3.2085,8231785,145.34505
1891,45.3,3.2165,8233676,145.70745
1890,45.2,3.2085,8235566,145.0242
1889,45.1,3.2085,8237455,144.70335
1889,45.3,3.2085,8239344,145.34505
1891,45.3,3.2085,8241235,145.34505
1890,45.1,3.2125,8243125,144.88375
1891,45.1,3.2125,8245016,144.88375
1890,45.3,3.2085,8246906,145.34505
1891,45.3,3.2085,8248797,145.34505
1889,45.2,3.2165,8250686,145.38580000000002
1890,45.1,3.2085,8252576,144.70335
1889,45.2,3.2085,8254465,145.0242
1890,45.1,3.2085,8256355,144.70335
1889,45.3,3.2165,8258244,145.70745
1890,45.2,3.2085,8260134,145.0242
1891,45.2,3.2085,8262025,145.0242
1890,45.2,3.2085,8263915,145.0242
3778,45.3,3.2125,8267693,145.52624999999998
1891,45.3,3.2085,8269584,145.34505
1889,45.1,3.2085,8271473,144.70335
1889,45.3,3.2045,8273362,145.16385
1891,45.3,3.2125,8275253,145.52624999999998
1891,45.3,3.2085,8277144,145.34505
1889,45.1,3.2085,8279033,144.70335
1891,45.1,3.2045,8280924,144.52295
1890,45.2,3.2165,8282814,145.38580000000002
1889,45.3,3.2085,8284703,145.34505
1891,45.3,3.2125,8286594,145.52624999999998
1889,45.2,3.2085,8288483,145.0242
1889,45.1,3.2085,8290372,144.70335
1890,45.3,3.2125,8292262,145.52624999999998
1891,45.3,3.2125,8294153,145.52624999999998
1890,45.3,3.2085,8296043,145.34505
1890,45.2,3.2085,8297933,145.0242
1890,45.1,3.2125,8299823,144.88375
1889,45.2,3.2125,8301712,145.205
1890,45.3,3.2085,8303602,145.34505
1889,45.1,3.2085,8305491,144.70335
1890,45.1,3.2205,8307381,145.24455
1890,45.3,3.2125,8309271,145.52624999999998
1891,45.3,3.2125,8311162,145.52624999999998
1891,45.3,3.2085,8313053,145.34505
1889,45.1,3.2205,8314942,145.24455
1890,45.3,3.2125,8316832,145.52624999999998
1889,45.1,3.2125,8318721,144.88375
1892,45.3,3.2085,8320613,145.34505
1891,45.3,3.2125,8322504,145.52624999999998
1889,45.2,3.2165,8324393,145.38580000000002
1888,45.0,3.2125,8326281,144.5625
1890,45.3,3.2085,8328171,145.34505
1889,45.2,3.2125,8330060,145.205
1888,45.0,3.2165,8331948,144.7425
1890,45.1,3.2125,8333838,144.88375
1891,45.3,3.2125,8335729,145.52624999999998
1892,45.3,3.2125,8337621,145.52624999999998
1889,45.4,3.2205,8339510,146.2107
1889,45.1,3.2125,8341399,144.88375
1889,45.2,3.2125,8343288,145.205
1889,45.0,3.2085,8345177,144.3825
1889,45.3,3.2085,8347066,145.34505
3778,45.2,3.2085,8350844,145.0242
1891,45.1,3.2045,8352735,144.52295
1889,45.4,3.2085,8354624,145.6659
1889,45.3,3.2125,8356513,145.52624999999998
1891,45.3,3.2085,8358404,145.34505
1889,45.1,3.2045,8360293,144.52295
1890,45.4,3.2045,8362183,145.4843
1889,45.3,3.2125,8364072,145.52624999999998
1890,45.2,3.2045,8365962,144.8434
3779,45.2,3.2045,8369741,144.8434
1891,45.2,3.2165,8371632,145.38580000000002
1891,45.2,3.2085,8373523,145.0242
1889,45.3,3.2085,8375412,145.34505
1889,45.1,3.2085,8377301,144.70335
1890,45.2,3.2085,8379191,145.0242
1889,45.3,3.2125,8381080,145.52624999999998
1891,45.3,3.2085,8382971,145.34505
3778,45.2,3.2085,8386749,145.0242
1890,45.4,3.2125,8388639,145.8475
1890,45.2,3.2125,8390529,145.205
1888,45.3,3.2085,8392417,145.34505
1890,45.2,3.2085,8394307,145.0242
1891,45.2,3.2205,8396198,145.5666
1891,45.2,3.2085,8398089,145.0242
1889,45.3,3.2085,8399978,145.34505
1891,45.3,3.2085,8401869,145.34505
1890,45.1,3.2125,8403759,144.88375
1890,45.1,3.2125,8405649,144.88375
1888,45.0,3.2085,8407537,144.3825
1890,45.3,3.2045,8409427,145.16385
1891,45.3,3.2085,8411318,145.34505
1889,45.1,3.2125,8413207,144.88375
1891,45.1,3.2125,8415098,144.88375
1889,45.3,3.2085,8416987,145.34505
1891,45.3,3.2085,8418878,145.34505
1890,45.2,3.2165,8420768,145.38580000000002
1889,45.1,3.2085,8422657,144.70335
1889,45.3,3.2125,8424546,145.52624999999998
1891,45.3,3.2085,8426437,145.34505
1891,45.3,3.2205,8428328,145.88864999999998
1889,45.1,3.2085,8430217,144.70335
1891,45.2,3.2125,8432108,145.205
1890,45.1,3.2085,8433998,144.70335
1889,45.2,3.2085,8435887,145.0242
1891,45.2,3.2125,8437778,145.205
1890,45.1,3.2085,8439668,144.70335
1889,45.2,3.2085,8441557,145.0242
1889,45.3,3.2085,8443446,145.34505
1891,45.3,3.2165,8445337,145.70745
1891,45.3,3.2045,8447228,145.16385
1890,45.1,3.2085,8449118,144.70335
1890,45.3,3.2085,8451008,145.34505
1890,45.3,3.2205,8452898,145.88864999999998
1891,45.3,3.2125,8454789,145.52624999999998
3777,45.0,3.2085,8458566,144.3825
1889,45.1,3.2085,8460455,144.70335
1889,45.2,3.2125,8462344,145.205
1890,45.3,3.2125,8464234,145.52624999999998
1888,45.0,3.2085,8466122,144.3825
1890,45.1,3.2085,8468012,144.70335
1890,45.3,3.2125,8469902,145.52624999999998
1891,45.3,3.2125,8471793,145.52624999999998
1890,45.3,3.2085,8473683,145.34505
1888,45.0,3.2085,8475571,144.3825
1889,45.3,3.2165,8477460,145.70745
1890,45.2,3.2085,8479350,145.0242
1889,45.3,3.2085,8481239,145.34505
1890,45.2,3.2045,8483129,144.8434
1888,45.0,3.2165,8485017,144.7425
1890,45.0,3.2085,8486907,144.3825
1889,45.3,3.2085,8488796,145.34505
1891,45.3,3.2085,8490687,145.34505
1889,45.2,3.2085,8492576,145.0242
1890,45.1,3.2085,8494466,144.70335
1888,45.0,3.2085,8496354,144.3825
1890,45.3,3.2085,8498244,145.34505
1889,45.4,3.2085,8500133,145.6659
1890,45.2,3.2165,8502023,145.38580000000002
1890,45.2,3.2125,8503913,145.205
1890,45.3,3.2165,8505803,145.70745
1891,45.3,3.2125,8507694,145.52624999999998
1890,45.3,3.2205,8509584,145.88864999999998
1890,45.1,3.2125,8511474,144.88375
1890,45.1,3.2125,8513364,144.88375
1889,45.3,3.2125,8515253,145.52624999999998
1891,45.3,3.2125,8517144,145.52624999999998
1890,45.1,3.2165,8519034,145.06415
1889,45.2,3.2125,8520923,145.205
1890,45.1,3.2125,8522813,144.88375
1890,45.3,3.2125,8524703,145.52624999999998
1890,45.3,3.2165,8526593,145.70745
1888,45.0,3.2125,8528481,144.5625
1890,45.1,3.2125,8530371,144.88375
1889,45.3,3.2125,8532260,145.52624999999998
1891,45.3,3.2285,8534151,146.25105
1891,45.3,3.2165,8536042,145.70745
1888,45.0,3.2205,8537930,144.92249999999999
1890,45.4,3.2165,8539820,146.0291
1889,45.3,3.2285,8541709,146.25105
1891,45.3,3.2205,8543600,145.88864999999998
1889,45.2,3.2205,8545489,145.5666
1891,45.2,3.2165,8547380,145.38580000000002
1888,45.0,3.2165,8549268,144.7425
1890,45.3,3.2205,8551158,145.88864999999998
1890,45.3,3.2165,8553048,145.70745
1890,45.2,3.2205,8554938,145.5666
1890,45.1,3.2165,8556828,145.06415
1889,45.4,3.2245,8558717,146.3923
1893,45.4,3.2205,8560610,146.2107
1889,45.3,3.2165,8562499,145.70745
1889,45.0,3.2125,8564388,144.5625
1889,45.4,3.2245,8566277,146.3923
1890,45.3,3.2165,8568167,145.70745
1889,45.4,3.2165,8570056,146.0291
1890,45.3,3.2165,8571946,145.70745
1890,45.1,3.2165,8573836,145.06415
1889,45.0,3.2205,8575725,144.92249999999999
1891,45.3,3.2165,8577616,145.70745
1890,45.3,3.2165,8579506,145.70745
1890,45.2,3.2165,8581396,145.38580000000002
1889,45.1,3.2205,8583285,145.24455
1891,45.1,3.2205,8585176,145.24455
1890,45.3,3.2165,8587066,145.70745
3778,45.2,3.2245,8590844,145.7474
1891,45.4,3.2125,8592735,145.8475
1889,45.3,3.2165,8594624,145.70745
1890,45.3,3.2125,8596514,145.52624999999998
1889,45.2,3.2125,8598403,145.205
1891,45.2,3.2125,8600294,145.205
1890,45.3,3.2085,8602184,145.34505
3779,45.3,3.2085,8605963,145.34505
1890,45.2,3.2125,8607853,145.205
1889,45.1,3.2085,8609742,144.70335
1889,45.0,3.2125,8611631,144.5625
1889,45.3,3.2085,8613520,145.34505
1890,45.3,3.2165,8615410,145.70745
1890,45.1,3.2125,8617300,144.88375
1890,45.1,3.2125,8619190,144.88375
1890,45.3,3.2125,8621080,145.52624999999998
1890,45.3,3.2205,8622970,145.88864999999998
1890,45.1,3.2125,8624860,144.88375
1889,45.0,3.2125,8626749,144.5625
1889,45.3,3.2085,8628638,145.34505
1890,45.3,3.2085,8630528,145.34505
1891,45.3,3.2125,8632419,145.52624999999998
1890,45.3,3.2085,8634309,145.34505
1890,45.1,3.2125,8636199,144.88375
1888,45.0,3.2085,8638087,144.3825
1890,45.3,3.2165,8639977,145.70745
1891,45.3,3.2125,8641868,145.52624999999998
1889,45.1,3.2125,8643757,144.88375
1889,45.0,3.2125,8645646,144.5625
1889,45.3,3.2205,8647535,145.88864999999998
1890,45.3,3.2125,8649425,145.52624999999998
3779,45.1,3.2125,8653204,144.88375
1889,45.4,3.2125,8655093,145.8475
1890,45.3,3.2125,8656983,145.52624999999998
1891,45.3,3.2125,8658874,145.52624999999998
1891,45.3,3.2085,8660765,145.34505
1889,45.1,3.2085,8662654,144.70335
1888,45.0,3.2125,8664542,144.5625
1890,45.2,3.2085,8666432,145.0242
1890,45.2,3.2045,8668322,144.8434
1890,45.1,3.2085,8670212,144.70335
1891,45.1,3.2165,8672103,145.06415
1890,45.1,3.2085,8673993,144.70335
1890,45.3,3.2085,8675883,145.34505
1891,45.3,3.2045,8677774,145.16385
1889,45.1,3.2125,8679663,144.88375
1890,45.3,3.2045,8681553,145.16385
1889,45.2,3.2085,8683442,145.0242
1890,45.3,3.2045,8685332,145.16385
1889,45.2,3.2085,8687221,145.0242
1891,45.1,3.2085,8689112,144.70335
1889,45.2,3.2085,8691001,145.0242
1890,45.3,3.2045,8692891,145.16385
1890,45.2,3.2045,8694781,144.8434
1889,45.1,3.2125,8696670,144.88375
1890,45.1,3.2085,8698560,144.70335
1890,45.2,3.2085,8700450,145.0242
1889,45.3,3.2085,8702339,145.34505
1892,45.3,3.2205,8704231,145.88864999999998
1890,45.1,3.2085,8706121,144.70335
1890,45.2,3.2165,8708011,145.38580000000002
1889,45.3,3.2125,8709900,145.52624999999998
1890,45.4,3.2125,8711790,145.8475
1890,45.2,3.2125,8713680,145.205
1889,45.1,3.2085,8715569,144.70335
1889,45.3,3.2125,8717458,145.52624999999998
1890,45.4,3.2085,8719348,145.6659
1890,45.4,3.2125,8721238,145.8475
1890,45.3,3.2125,8723128,145.52624999999998
1890,45.1,3.2085,8725018,144.70335
1890,45.2,3.2125,8726908,145.205
1889,45.3,3.2205,8728797,145.88864999999998
1891,45.3,3.2125,8730688,145.52624999999998
1889,45.1,3.2125,8732577,144.88375
1891,45.1,3.2085,8734468,144.70335
1889,45.2,3.2205,8736357,145.5666
1890,45.3,3.2085,8738247,145.34505
1890,45.3,3.2125,8740137,145.52624999999998
1890,45.1,3.2125,8742027,144.88375
1890,45.2,3.2125,8743917,145.205
1889,45.3,3.2125,8745806,145.52624999999998
1891,45.3,3.2125,8747697,145.52624999999998
1890,45.3,3.2125,8749587,145.52624999999998
1889,45.1,3.2125,8751476,144.88375
1888,45.0,3.2165,8753364,144.7425
1890,45.2,3.2125,8755254,145.205
1889,45.3,3.2125,8757143,145.52624999999998
1890,45.2,3.2125,8759033,145.205
1888,45.0,3.2205,8760921,144.92249999999999
1890,45.3,3.2125,8762811,145.52624999999998
1890,45.3,3.2125,8764701,145.52624999999998
1890,45.4,3.2085,8766591,145.6659
1889,45.1,3.2045,8768480,144.52295
1889,45.3,3.2085,8770369,145.34505
1890,45.1,3.2085,8772259,144.70335
1889,45.4,3.2085,8774148,145.6659
1891,45.4,3.2085,8776039,145.6659
1889,45.2,3.2165,8777928,145.38580000000002
1890,45.1,3.2125,8779818,144.88375
1889,45.4,3.2125,8781707,145.8475
1889,45.3,3.2085,8783596,145.34505
1890,45.2,3.2205,8785486,145.5666
1889,45.1,3.2085,8787375,144.70335
1890,45.2,3.2125,8789265,145.205
1890,45.3,3.2085,8791155,145.34505
1890,45.3,3.2205,8793045,145.88864999999998
1889,45.0,3.2085,8794934,144.3825
1889,45.1,3.2085,8796823,144.70335
1891,45.1,3.2085,8798714,144.70335
1890,45.3,3.2045,8800604,145.16385
1891,45.3,3.2085,8802495,145.34505
1889,45.1,3.2045,8804384,144.52295
1889,45.2,3.2045,8806273,144.8434
1890,45.3,3.2045,8808163,145.16385
1890,45.3,3.2125,8810053,145.52624999999998
1890,45.4,3.2085,8811943,145.6659
1889,45.1,3.2085,8813832,144.70335
1890,45.3,3.2045,8815722,145.16385
1893,45.3,3.2165,8817615,145.70745
1890,45.3,3.2085,8819505,145.34505
1889,45.1,3.2085,8821394,144.70335
1891,45.1,3.2045,8823285,144.52295
1890,45.2,3.2045,8825175,144.8434
1890,45.3,3.2085,8827065,145.34505
1890,45.2,3.2085,8828955,145.0242
1890,45.1,3.2045,8830845,144.52295
1890,45.2,3.2085,8832735,145.0242
1889,45.3,3.2125,8834624,145.52624999999998
1891,45.3,3.2085,8836515,145.34505
1890,45.3,3.2045,8838405,145.16385
1890,45.2,3.2085,8840295,145.0242
1889,44.9,3.2165,8842184,144.42085
1890,45.2,3.2045,8844074,144.8434
1891,45.2,3.2085,8845965,145.0242
1888,45.0,3.2085,8847853,144.3825
1890,45.1,3.2165,8849743,145.06415
1889,45.2,3.2085,8851632,145.0242
1890,45.3,3.2085,8853522,145.34505
1890,45.3,3.2045,8855412,145.16385
1889,45.1,3.2085,8857301,144.70335
1890,45.2,3.2125,8859191,145.205
1889,45.1,3.2085,8861080,144.70335
1890,45.3,3.2085,8862970,145.34505
1891,45.3,3.2085,8864861,145.34505
1890,45.1,3.2125,8866751,144.88375
1889,45.2,3.2085,8868640,145.0242
1889,45.3,3.2045,8870529,145.16385
1890,45.3,3.2085,8872419,145.34505
1889,45.1,3.2165,8874308,145.06415
1891,45.1,3.2085,8876199,144.70335
1889,45.2,3.2085,8878088,145.0242
1890,45.3,3.2045,8879978,145.16385
3777,45.0,3.2085,8883755,144.3825
1889,45.2,3.2045,8885644,144.8434
1890,45.1,3.2045,8887534,144.52295
1889,45.3,3.2045,8889423,145.16385
1891,45.3,3.2085,8891314,145.34505
1889,45.1,3.2085,8893203,144.70335
1891,45.1,3.2045,8895094,144.52295
1889,45.2,3.2045,8896983,144.8434
1890,45.3,3.2125,8898873,145.52624999999998
1891,45.3,3.2045,8900764,145.16385
1889,45.1,3.2045,8902653,144.52295
1889,45.4,3.2085,8904542,145.6659
1890,45.3,3.2205,8906432,145.88864999999998
1891,45.3,3.2085,8908323,145.34505
1889,45.1,3.2085,8910212,144.70335
1891,45.1,3.2085,8912103,144.70335
1890,45.1,3.2085,8913993,144.70335
1890,45.3,3.2125,8915883,145.52624999999998
1891,45.3,3.2085,8917774,145.34505
1889,45.2,3.2085,8919663,145.0242
1890,45.2,3.2085,8921553,145.0242
1890,45.3,3.2165,8923443,145.70745
1890,45.3,3.2085,8925333,145.34505
3780,45.1,3.2085,8929113,144.70335
1890,45.4,3.2165,8931003,146.0291
1891,45.4,3.2125,8932894,145.8475
1890,45.3,3.2085,8934784,145.34505
1889,45.1,3.2085,8936673,144.70335
1889,45.2,3.2085,8938562,145.0242
1891,45.2,3.2125,8940453,145.205
1890,45.3,3.2085,8942343,145.34505
1890,45.3,3.2045,8944233,145.16385
1890,45.1,3.2045,8946123,144.52295
1891,45.1,3.2125,8948014,144.88375
1888,45.0,3.2085,8949902,144.3825
1890,45.3,3.2045,8951792,145.16385
1891,45.3,3.2085,8953683,145.34505
1889,45.2,3.2165,8955572,145.38580000000002
1889,45.4,3.2085,8957461,145.6659
1891,45.4,3.2125,8959352,145.8475
1890,45.3,3.2085,8961242,145.34505
1889,45.2,3.2085,8963131,145.0242
1891,45.2,3.2085,8965022,145.0242
1890,45.4,3.2125,8966912,145.8475
1890,45.3,3.2085,8968802,145.34505
1889,45.4,3.2085,8970691,145.6659
1889,45.1,3.2125,8972580,144.88375
1890,45.1,3.2085,8974470,144.70335
1890,44.6,3.2085,8976360,143.0991
1889,45.3,3.2045,8978249,145.16385
1891,45.3,3.2165,8980140,145.70745
1890,45.1,3.2085,8982030,144.70335
1890,45.1,3.2125,8983920,144.88375
1890,45.3,3.2085,8985810,145.34505
1889,45.2,3.2205,8987699,145.5666
1889,45.0,3.2085,8989588,144.3825
1889,45.2,3.2085,8991477,145.0242
1889,45.3,3.2085,8993366,145.34505
1891,45.3,3.2125,8995257,145.52624999999998
3778,45.2,3.2125,8999035,145.205
1890,45.1,3.2085,9000925,144.70335
1888,45.0,3.2085,9002813,144.3825
1889,45.3,3.2165,9004702,145.70745
1891,45.3,3.2125,9006593,145.52624999999998
1889,45.2,3.2125,9008482,145.205
1891,45.2,3.2125,9010373,145.205
1889,45.3,3.2245,9012262,146.06984999999997
1891,45.3,3.2165,9014153,145.70745
3779,45.1,3.2125,9017932,144.88375
1889,45.4,3.2125,9019821,145.8475
1890,45.3,3.2165,9021711,145.70745
1890,45.3,3.2125,9023601,145.52624999999998
1889,45.2,3.2125,9025490,145.205
1891,45.2,3.2085,9027381,145.0242
1890,45.2,3.2165,9029271,145.38580000000002
1890,45.3,3.2125,9031161,145.52624999999998
1891,45.3,3.2085,9033052,145.34505
1890,45.1,3.2085,9034942,144.70335
1891,45.1,3.2165,9036833,145.06415
1891,45.1,3.2125,9038724,144.88375
1891,45.2,3.2125,9040615,145.205
1889,45.3,3.2085,9042504,145.34505
1889,45.1,3.2205,9044393,145.24455
1891,45.1,3.2085,9046284,144.70335
1890,45.3,3.2125,9048174,145.52624999999998
1890,45.3,3.2085,9050064,145.34505
1890,45.1,3.2085,9051954,144.70335
1891,45.1,3.2125,9053845,144.88375
1891,45.4,3.2125,9055736,145.8475
1889,45.3,3.2125,9057625,145.52624999999998
1889,45.0,3.2085,9059514,144.3825
1889,45.1,3.2165,9061403,145.06415
1888,45.0,3.2085,9063291,144.3825
1890,45.0,3.2045,9065181,144.2025
1890,45.2,3.2085,9067071,145.0242
1889,45.3,3.2165,9068960,145.70745
1890,45.2,3.2085,9070850,145.0242
1890,45.1,3.2085,9072740,144.70335
1889,45.3,3.2085,9074629,145.34505
1891,45.3,3.2085,9076520,145.34505
1889,45.1,3.2085,9078409,144.70335
1891,45.1,3.2125,9080300,144.88375
1889,45.4,3.2085,9082189,145.6659
1890,45.3,3.2045,9084079,145.16385
1891,45.3,3.2125,9085970,145.52624999999998
1890,45.2,3.2125,9087860,145.205
1888,45.0,3.2045,9089748,144.2025
1890,44.9,3.2085,9091638,144.06165
1889,45.3,3.2165,9093527,145.70745
1890,45.3,3.2085,9095417,145.34505
1890,45.1,3.2085,9097307,144.70335
1890,45.1,3.2045,9099197,144.52295
1890,45.2,3.2205,9101087,145.5666
1889,45.3,3.2085,9102976,145.34505
1891,45.3,3.2085,9104867,145.34505
1890,45.1,3.2085,9106757,144.70335
1889,45.3,3.2085,9108646,145.34505
1890,45.4,3.2125,9110536,145.8475
1889,45.3,3.2125,9112425,145.52624999999998
1891,45.3,3.2085,9114316,145.34505
1890,45.2,3.2085,9116206,145.0242
1889,45.1,3.2125,9118095,144.88375
1890,45.3,3.2085,9119985,145.34505
1891,45.3,3.2085,9121876,145.34505
1889,45.2,3.2085,9123765,145.0242
1890,45.1,3.2165,9125655,145.06415
1889,45.3,3.2125,9127544,145.52624999999998
1890,45.3,3.2125,9129434,145.52624999999998
1891,45.3,3.2085,9131325,145.34505
1890,45.1,3.2085,9133215,144.70335
1889,45.4,3.2125,9135104,145.8475
1890,45.2,3.2125,9136994,145.205
1890,45.3,3.2085,9138884,145.34505
1889,45.2,3.2085,9140773,145.0242
1890,45.1,3.2165,9142663,145.06415
1889,45.3,3.2125,9144552,145.52624999999998
1890,45.2,3.2085,9146442,145.0242
1889,45.3,3.2085,9148331,145.34505
1890,45.1,3.2165,9150221,145.06415
1891,45.1,3.2085,9152112,144.70335
1889,45.0,3.2125,9154001,144.5625
1890,45.3,3.2085,9155891,145.34505
1891,45.3,3.2165,9157782,145.70745
1889,45.1,3.2125,9159671,144.88375
1890,45.1,3.2125,9161561,144.88375
1890,45.3,3.2085,9163451,145.34505
1889,45.4,3.2125,9165340,145.8475
1890,45.2,3.2125,9167230,145.205
1890,45.1,3.2085,9169120,144.70335
1890,45.3,3.2085,9171010,145.34505
1889,45.2,3.2045,9172899,144.8434
1890,45.3,3.2125,9174789,145.52624999999998
1890,45.4,3.2085,9176679,145.6659
1889,45.2,3.2125,9178568,145.205
1891,45.2,3.2125,9180459,145.205
1890,45.2,3.2205,9182349,145.5666
1890,45.3,3.2125,9184239,145.52624999999998
1889,45.1,3.2165,9186128,145.06415
1891,45.1,3.2125,9188019,144.88375
1890,45.3,3.2125,9189909,145.52624999999998
1891,45.3,3.2165,9191800,145.70745
3777,45.1,3.2125,9195577,144.88375
1889,45.3,3.2125,9197466,145.52624999999998
1891,45.3,3.2165,9199357,145.70745
1890,45.3,3.2125,9201247,145.52624999999998
1891,45.3,3.2085,9203138,145.34505
1889,45.0,3.2085,9205027,144.3825
1889,45.1,3.2205,9206916,145.24455
1890,45.3,3.2125,9208806,145.52624999999998
1890,45.2,3.2125,9210696,145.205
1889,45.1,3.2085,9212585,144.70335
1889,45.2,3.2165,9214474,145.38580000000002
1889,45.3,3.2085,9216363,145.34505
1891,45.3,3.2125,9218254,145.52624999999998
1891,45.3,3.2085,9220145,145.34505
1888,45.0,3.2085,9222033,144.3825
1890,45.3,3.2125,9223923,145.52624999999998
1890,45.2,3.2085,9225813,145.0242
1889,45.3,3.2045,9227702,145.16385
1889,45.2,3.2045,9229591,144.8434
1889,45.0,3.2125,9231480,144.5625
1889,45.2,3.2045,9233369,144.8434
1889,45.3,3.2085,9235258,145.34505
1891,45.3,3.2085,9237149,145.34505
1889,45.2,3.2205,9239038,145.5666
1890,45.1,3.2085,9240928,144.70335
1890,45.3,3.2125,9242818,145.52624999999998
1890,45.3,3.2085,9244708,145.34505
3777,45.1,3.2125,9248485,144.88375
1891,45.1,3.2125,9250376,144.88375
1889,45.2,3.2085,9252265,145.0242
1890,45.3,3.2085,9254155,145.34505
1891,45.3,3.2125,9256046,145.52624999999998
1889,45.1,3.2085,9257935,144.70335
1891,45.1,3.2045,9259826,144.52295
1890,45.3,3.2045,9261716,145.16385
1891,45.4,3.2165,9263607,146.0291
1889,45.2,3.2125,9265496,145.205
1889,45.1,3.2125,9267385,144.88375
1891,45.1,3.2085,9269276,144.70335
1890,45.3,3.2085,9271166,145.34505
1889,45.4,3.2085,9273055,145.6659
1890,45.1,3.2125,9274945,144.88375
1891,45.1,3.2085,9276836,144.70335
1890,45.3,3.2085,9278726,145.34505
5667,45.1,3.2125,9284393,144.88375
1890,45.3,3.2085,9286283,145.34505
1890,45.3,3.2165,9288173,145.70745
1891,45.3,3.2085,9290064,145.34505
3779,45.1,3.2085,9293843,144.70335
1889,45.0,3.2165,9295732,144.7425
1890,45.3,3.2045,9297622,145.16385
1891,45.3,3.2085,9299513,145.34505
1889,45.1,3.2085,9301402,144.70335
1888,45.0,3.2085,9303290,144.3825
1890,45.3,3.2085,9305180,145.34505
1890,45.3,3.2085,9307070,145.34505
1891,45.3,3.2085,9308961,145.34505
1890,45.1,3.2085,9310851,144.70335
1890,45.3,3.2165,9312741,145.70745
1889,45.2,3.2125,9314630,145.205
1889,45.3,3.2085,9316519,145.34505
3778,45.1,3.2205,9320297,145.24455
1888,45.0,3.2125,9322185,144.5625
1890,45.2,3.2085,9324075,145.0242
1889,45.3,3.2085,9325964,145.34505
1890,45.2,3.2125,9327854,145.205
1890,45.1,3.2085,9329744,144.70335
1888,45.0,3.2125,9331632,144.5625
1889,45.3,3.2085,9333521,145.34505
3778,45.2,3.2125,9337299,145.205
1891,45.2,3.2085,9339190,145.0242
1891,45.2,3.2085,9341081,145.0242
1889,45.3,3.2085,9342970,145.34505
1891,45.3,3.2165,9344861,145.70745
1890,45.1,3.2085,9346751,144.70335
1891,45.1,3.2125,9348642,144.88375
1889,45.2,3.2085,9350531,145.0242
1890,45.3,3.2205,9352421,145.88864999999998
1889,45.2,3.2085,9354310,145.0242
1889,45.1,3.2085,9356199,144.70335
1891,45.1,3.2085,9358090,144.70335
1889,45.3,3.2085,9359979,145.34505
1891,45.3,3.2125,9361870,145.52624999999998
1890,45.1,3.2125,9363760,144.88375
1891,45.1,3.2085,9365651,144.70335
1889,45.3,3.2085,9367540,145.34505
1889,45.2,3.2125,9369429,145.205
1891,45.2,3.2085,9371320,145.0242
1889,45.1,3.2085,9373209,144.70335
1890,45.4,3.2125,9375099,145.8475
1889,45.3,3.2205,9376988,145.88864999999998
1891,45.3,3.2125,9378879,145.52624999999998
3778,45.1,3.2085,9382657,144.70335
1889,45.2,3.2085,9384546,145.0242
1890,45.3,3.2085,9386436,145.34505
1890,45.3,3.2125,9388326,145.52624999999998
1890,45.1,3.2085,9390216,144.70335
1892,45.1,3.2085,9392108,144.70335
1889,45.3,3.2085,9393997,145.34505
1891,45.3,3.2085,9395888,145.34505
3778,45.1,3.2085,9399666,144.70335
1890,45.3,3.2165,9401556,145.70745
1889,45.2,3.2125,9403445,145.205
1889,45.3,3.2085,9405334,145.34505
3781,45.1,3.2205,9409115,145.24455
1888,45.0,3.2085,9411003,144.3825
1890,45.3,3.2085,9412893,145.34505
1891,45.3,3.2085,9414784,145.34505
1888,45.0,3.2085,9416672,144.3825
1890,45.1,3.2085,9418562,144.70335
1889,45.4,3.2125,9420451,145.8475
1889,45.3,3.2085,9422340,145.34505
3777,45.0,3.2165,9426117,144.7425
1889,45.1,3.2085,9428006,144.70335
1891,45.1,3.2085,9429897,144.70335
1890,45.3,3.2085,9431787,145.34505
1891,45.3,3.2205,9433678,145.88864999999998
1889,45.1,3.2125,9435567,144.88375
1890,45.1,3.2165,9437457,145.06415
1889,45.3,3.2125,9439346,145.52624999999998
1890,45.2,3.2125,9441236,145.205
1890,45.1,3.2165,9443126,145.06415
1889,45.2,3.2165,9445015,145.38580000000002
1890,45.1,3.2085,9446905,144.70335
1890,45.3,3.2085,9448795,145.34505
1889,45.2,3.2125,9450684,145.205
1888,45.0,3.2085,9452572,144.3825
1889,45.2,3.2085,9454461,145.0242
1889,45.1,3.2125,9456350,144.88375
1890,45.3,3.2165,9458240,145.70745
1889,45.4,3.2125,9460129,145.8475
1890,45.1,3.2125,9462019,144.88375
1891,45.1,3.2085,9463910,144.70335
1889,45.3,3.2205,9465799,145.88864999999998
1891,45.3,3.2125,9467690,145.52624999999998
3777,45.2,3.2125,9471467,145.205
1891,45.2,3.2085,9473358,145.0242
1889,45.3,3.2165,9475247,145.70745
1890,45.4,3.2125,9477137,145.8475
1888,45.0,3.2125,9479025,144.5625
1890,45.1,3.2085,9480915,144.70335
1890,45.2,3.2165,9482805,145.38580000000002
1890,45.2,3.2085,9484695,145.0242
1890,45.3,3.2085,9486585,145.34505
1889,45.1,3.2085,9488474,144.70335
1889,45.2,3.2205,9490363,145.5666
1889,45.3,3.2085,9492252,145.34505
1891,45.3,3.2125,9494143,145.52624999999998
1891,45.3,3.2125,9496034,145.52624999999998
1890,45.1,3.2125,9497924,144.88375
1890,44.9,3.2165,9499814,144.42085
1889,45.2,3.2125,9501703,145.205
1890,45.3,3.2125,9503593,145.52624999999998
1888,45.0,3.2125,9505481,144.5625
1889,45.1,3.2165,9507370,145.06415
