dt,current,voltage,time,power
1889,45.0,3.2277,7106924,145.2465
1889,45.1,3.2205,7108813,145.24455
1888,45.0,3.2165,7110701,144.7425
1890,44.8,3.2165,7112591,144.0992
1890,44.8,3.2125,7114481,143.92
1890,45.1,3.2165,7116371,145.06415
1889,45.2,3.2165,7118260,145.38580000000002
1891,45.2,3.2165,7120151,145.38580000000002
1889,44.8,3.2165,7122040,144.0992
1890,45.1,3.2165,7123930,145.06415
1890,45.2,3.2165,7125820,145.38580000000002
1889,44.9,3.2165,7127709,144.42085
1891,44.9,3.2125,7129600,144.24124999999998
1889,45.3,3.2165,7131489,145.70745
1889,45.2,3.2165,7133378,145.38580000000002
1890,45.1,3.2125,7135268,144.88375
1891,45.1,3.2165,7137159,145.06415
1889,45.2,3.2125,7139048,145.205
1890,45.1,3.2165,7140938,145.06415
1891,45.1,3.2125,7142829,144.88375
1889,45.2,3.2125,7144718,145.205
1892,44.9,3.2165,7146610,144.42085
1889,45.1,3.2165,7148499,145.06415
1890,45.2,3.2165,7150389,145.38580000000002
1890,45.2,3.2125,7152279,145.205
1891,45.2,3.2165,7154170,145.38580000000002
1891,45.2,3.2165,7156061,145.38580000000002
1889,45.0,3.2165,7157950,144.7425
1889,45.1,3.2165,7159839,145.06415
1891,45.2,3.2165,7161730,145.38580000000002
1890,44.9,3.2125,7163620,144.24124999999998
1890,44.9,3.2125,7165510,144.24124999999998
1889,45.2,3.2165,7167399,145.38580000000002
1891,45.2,3.2165,7169290,145.38580000000002
1891,45.2,3.2125,7171181,145.205
1888,45.0,3.2125,7173069,144.5625
1890,45.2,3.2165,7174959,145.38580000000002
1890,45.1,3.2125,7176849,144.88375
1890,44.8,3.2125,7178739,143.92
1889,45.2,3.2125,7180628,145.205
1891,45.2,3.2165,7182519,145.38580000000002
3777,44.9,3.2125,7186296,144.24124999999998
1890,45.1,3.2125,7188186,144.88375
1889,45.2,3.2125,7190075,145.205
1890,44.8,3.2125,7191965,143.92
1890,44.9,3.2125,7193855,144.24124999999998
1889,45.3,3.2125,7195744,145.52624999999998
1890,45.2,3.2165,7197634,145.38580000000002
1889,44.9,3.2165,7199523,144.42085
1889,45.2,3.2165,7201412,145.38580000000002
1890,45.2,3.2165,7203302,145.38580000000002
1890,44.9,3.2125,7205192,144.24124999999998
1888,45.0,3.2165,7207080,144.7425
1890,45.1,3.2165,7208970,145.06415
1890,45.2,3.2125,7210860,145.205
1889,45.3,3.2125,7212749,145.52624999999998
1891,45.3,3.2165,7214640,145.70745
1891,45.3,3.2125,7216531,145.52624999999998
1889,45.1,3.2125,7218420,144.88375
1889,45.2,3.2125,7220309,145.205
1891,45.2,3.2125,7222200,145.205
1889,44.9,3.2165,7224089,144.42085
1890,44.8,3.2165,7225979,144.0992
1890,45.3,3.2165,7227869,145.70745
1891,45.3,3.2165,7229760,145.70745
1888,45.0,3.2205,7231648,144.92249999999999
1889,45.1,3.2165,7233537,145.06415
1889,45.2,3.2165,7235426,145.38580000000002
1890,44.7,3.2165,7237316,143.77755000000002
1889,45.2,3.2165,7239205,145.38580000000002
1891,45.2,3.2165,7241096,145.38580000000002
1888,45.0,3.2165,7242984,144.7425
1890,44.8,3.2125,7244874,143.92
1890,45.1,3.2165,7246764,145.06415
1889,45.3,3.2165,7248653,145.70745
1889,45.2,3.2165,7250542,145.38580000000002
1891,45.2,3.2125,7252433,145.205
1890,45.2,3.2165,7254323,145.38580000000002
1889,45.0,3.2165,7256212,144.7425
1890,45.0,3.2165,7258102,144.7425
1889,45.2,3.2165,7259991,145.38580000000002
1891,45.2,3.2125,7261882,145.205
1891,45.2,3.2165,7263773,145.38580000000002
1890,45.2,3.2125,7265663,145.205
1891,45.2,3.2165,7267554,145.38580000000002
1889,44.8,3.2165,7269443,144.0992
1890,45.1,3.2165,7271333,145.06415
1889,45.2,3.2165,7273222,145.38580000000002
1891,44.8,3.2165,7275113,144.0992
1888,45.0,3.2165,7277001,144.7425
1890,45.2,3.2165,7278891,145.38580000000002
1890,45.3,3.2205,7280781,145.88864999999998
1889,45.2,3.2165,7282670,145.38580000000002
1889,45.3,3.2165,7284559,145.70745
1890,45.2,3.2165,7286449,145.38580000000002
1889,45.1,3.2205,7288338,145.24455
1891,45.2,3.2205,7290229,145.5666
1890,45.3,3.2165,7292119,145.70745
1889,44.9,3.2165,7294008,144.42085
1890,45.1,3.2205,7295898,145.24455
1890,45.2,3.2205,7297788,145.5666
1889,45.3,3.2165,7299677,145.70745
1888,45.0,3.2165,7301565,144.7425
1889,45.2,3.2205,7303454,145.5666
1890,45.2,3.2205,7305344,145.5666
1889,45.0,3.2165,7307233,144.7425
1889,44.9,3.2165,7309122,144.42085
1890,45.3,3.2165,7311012,145.70745
1891,45.3,3.2165,7312903,145.70745
3778,45.1,3.2165,7316681,145.06415
1889,45.2,3.2165,7318570,145.38580000000002
1888,45.0,3.2165,7320458,144.7425
1890,45.0,3.2125,7322348,144.5625
1889,45.1,3.2165,7324237,145.06415
1890,45.2,3.2125,7326127,145.205
1891,45.2,3.2165,7328018,145.38580000000002
3779,45.2,3.2125,7331797,145.205
3778,44.8,3.2125,7335575,143.92
1889,45.1,3.2165,7337464,145.06415
1890,45.3,3.2165,7339354,145.70745
1889,45.1,3.2165,7341243,145.06415
1889,45.0,3.2165,7343132,144.7425
1889,45.1,3.2205,7345021,145.24455
1891,45.1,3.2165,7346912,145.06415
1890,44.9,3.2165,7348802,144.42085
1890,44.9,3.2165,7350692,144.42085
1890,45.3,3.2165,7352582,145.70745
1889,45.2,3.2205,7354471,145.5666
1890,45.3,3.2205,7356361,145.88864999999998
1891,45.3,3.2165,7358252,145.70745
1889,45.2,3.2165,7360141,145.38580000000002
1890,44.9,3.2165,7362031,144.42085
1890,45.3,3.2165,7363921,145.70745
1891,45.3,3.2205,7365812,145.88864999999998
1889,44.9,3.2205,7367701,144.60045
1890,44.9,3.2205,7369591,144.60045
1890,45.3,3.2205,7371481,145.88864999999998
1889,45.2,3.2205,7373370,145.5666
1889,45.1,3.2165,7375259,145.06415
1890,45.2,3.2205,7377149,145.5666
1890,45.2,3.2205,7379039,145.5666
3778,44.8,3.2205,7382817,144.27839999999998
1890,45.1,3.2165,7384707,145.06415
1889,45.2,3.2165,7386596,145.38580000000002
1889,45.3,3.2165,7388485,145.70745
1890,45.2,3.2165,7390375,145.38580000000002
1891,45.2,3.2165,7392266,145.38580000000002
1888,44.5,3.2165,7394154,143.13425
1890,45.1,3.2164,7396044,145.05964
1890,45.2,3.2205,7397934,145.5666
1890,44.9,3.2205,7399824,144.60045
1889,44.8,3.2205,7401713,144.27839999999998
1890,45.3,3.2205,7403603,145.88864999999998
1890,45.3,3.2205,7405493,145.88864999999998
1891,45.3,3.2165,7407384,145.70745
1889,45.2,3.2205,7409273,145.5666
1891,45.2,3.2205,7411164,145.5666
1889,44.9,3.2165,7413053,144.42085
1890,45.2,3.2165,7414943,145.38580000000002
3778,44.9,3.2205,7418721,144.60045
1892,44.9,3.2205,7420613,144.60045
1889,45.3,3.2165,7422502,145.70745
1890,45.2,3.2165,7424392,145.38580000000002
1890,45.2,3.2205,7426282,145.5666
3778,45.3,3.2205,7430060,145.88864999999998
1890,45.1,3.2205,7431950,145.24455
1890,45.2,3.2205,7433840,145.5666
1890,45.1,3.2205,7435730,145.24455
1889,45.0,3.2205,7437619,144.92249999999999
1889,44.9,3.2205,7439508,144.60045
1889,45.3,3.2165,7441397,145.70745
1891,45.3,3.2205,7443288,145.88864999999998
1890,45.1,3.2205,7445178,145.24455
1890,45.1,3.2205,7447068,145.24455
1890,45.2,3.2165,7448958,145.38580000000002
1890,44.9,3.2205,7450848,144.60045
1889,45.0,3.2205,7452737,144.92249999999999
1889,45.2,3.2205,7454626,145.5666
1890,45.2,3.2165,7456516,145.38580000000002
1890,45.1,3.2205,7458406,145.24455
1889,45.2,3.2205,7460295,145.5666
1890,45.3,3.2205,7462185,145.88864999999998
1889,44.7,3.2205,7464074,143.95635000000001
1890,45.3,3.2205,7465964,145.88864999999998
1890,45.2,3.2205,7467854,145.5666
1888,45.0,3.2205,7469742,144.92249999999999
1890,44.8,3.2205,7471632,144.27839999999998
1889,45.3,3.2205,7473521,145.88864999999998
1891,45.3,3.2205,7475412,145.88864999999998
3778,45.2,3.2165,7479190,145.38580000000002
1889,45.3,3.2165,7481079,145.70745
1890,45.2,3.2205,7482969,145.5666
1890,45.1,3.2165,7484859,145.06415
1889,45.2,3.2165,7486748,145.38580000000002
1889,45.0,3.2165,7488637,144.7425
1889,45.2,3.2165,7490526,145.38580000000002
1889,45.3,3.2165,7492415,145.70745
1890,45.2,3.2165,7494305,145.38580000000002
1890,44.7,3.2165,7496195,143.77755000000002
1889,45.2,3.2165,7498084,145.38580000000002
1890,45.1,3.2165,7499974,145.06415
1890,44.9,3.2165,7501864,144.42085
1891,44.9,3.2165,7503755,144.42085
1889,45.3,3.2165,7505644,145.70745
1891,45.3,3.2165,7507535,145.70745
1889,45.2,3.2165,7509424,145.38580000000002
1891,45.2,3.2165,7511315,145.38580000000002
1891,45.2,3.2165,7513206,145.38580000000002
1890,45.2,3.2165,7515096,145.38580000000002
1890,45.1,3.2165,7516986,145.06415
1891,45.1,3.2165,7518877,145.06415
1889,44.9,3.2165,7520766,144.42085
1890,45.2,3.2165,7522656,145.38580000000002
1889,45.3,3.2165,7524545,145.70745
1890,45.1,3.2125,7526435,144.88375
1889,44.9,3.2125,7528324,144.24124999999998
1890,45.1,3.2125,7530214,144.88375
1890,45.1,3.2165,7532104,145.06415
1890,44.8,3.2165,7533994,144.0992
1888,45.0,3.2125,7535882,144.5625
1890,45.2,3.2125,7537772,145.205
1889,45.1,3.2125,7539661,144.88375
1890,44.9,3.2165,7541551,144.42085
1889,45.2,3.2165,7543440,145.38580000000002
1890,45.2,3.2165,7545330,145.38580000000002
1890,44.8,3.2165,7547220,144.0992
1889,45.0,3.2165,7549109,144.7425
1890,45.2,3.2165,7550999,145.38580000000002
1891,45.2,3.2125,7552890,145.205
1890,45.2,3.2165,7554780,145.38580000000002
3778,45.3,3.2165,7558558,145.70745
1890,45.2,3.2165,7560448,145.38580000000002
1889,44.8,3.2205,7562337,144.27839999999998
1891,45.1,3.2205,7564228,145.24455
1890,45.2,3.2165,7566118,145.38580000000002
1889,45.3,3.2165,7568007,145.70745
1890,45.2,3.2165,7569897,145.38580000000002
3778,45.1,3.2165,7573675,145.06415
1891,45.1,3.2165,7575566,145.06415
3776,45.0,3.2165,7579342,144.7425
1890,44.8,3.2165,7581232,144.0992
1888,45.0,3.2165,7583120,144.7425
1890,45.2,3.2165,7585010,145.38580000000002
1889,45.3,3.2165,7586899,145.70745
1890,45.2,3.2165,7588789,145.38580000000002
1889,45.3,3.2165,7590678,145.70745
1891,45.3,3.2165,7592569,145.70745
1889,45.1,3.2165,7594458,145.06415
1890,45.2,3.2205,7596348,145.5666
1888,45.0,3.2165,7598236,144.7425
1890,45.0,3.2165,7600126,144.7425
1890,45.1,3.2165,7602016,145.06415
1889,45.2,3.2165,7603905,145.38580000000002
1890,45.3,3.2205,7605795,145.88864999999998
1890,45.2,3.2205,7607685,145.5666
1889,45.1,3.2205,7609574,145.24455
1889,44.8,3.2205,7611463,144.27839999999998
1889,45.2,3.2245,7613352,145.7474
1891,45.2,3.2205,7615243,145.5666
1890,44.9,3.2205,7617133,144.60045
1890,44.9,3.2205,7619023,144.60045
1890,45.2,3.2205,7620913,145.5666
1889,45.3,3.2205,7622802,145.88864999999998
1891,45.3,3.2205,7624693,145.88864999999998
1890,45.1,3.2205,7626583,145.24455
1889,45.2,3.2205,7628472,145.5666
1890,44.9,3.2205,7630362,144.60045
1888,45.0,3.2205,7632250,144.92249999999999
1889,45.2,3.2205,7634139,145.5666
1891,45.2,3.2205,7636030,145.5666
3778,44.6,3.2165,7639808,143.4559
1890,45.2,3.2165,7641698,145.38580000000002
3777,44.9,3.2165,7645475,144.42085
1889,45.2,3.2165,7647364,145.38580000000002
1891,45.2,3.2125,7649255,145.205
1889,45.3,3.2125,7651144,145.52624999999998
1890,44.6,3.2125,7653034,143.2775
1890,45.2,3.2125,7654924,145.205
1891,45.2,3.2125,7656815,145.205
1889,44.9,3.2125,7658704,144.24124999999998
1890,44.9,3.2125,7660594,144.24124999999998
1890,45.2,3.2125,7662484,145.205
1890,45.2,3.2125,7664374,145.205
1890,45.3,3.2125,7666264,145.52624999999998
1889,45.2,3.2125,7668153,145.205
1890,45.1,3.2125,7670043,144.88375
1890,44.9,3.2085,7671933,144.06165
1891,44.9,3.2125,7673824,144.24124999999998
1889,45.1,3.2125,7675713,144.88375
1891,45.1,3.2125,7677604,144.88375
1889,45.4,3.2125,7679493,145.8475
1889,44.6,3.2165,7681382,143.4559
1890,45.2,3.2125,7683272,145.205
3779,44.9,3.2125,7687051,144.24124999999998
1891,44.9,3.2125,7688942,144.24124999999998
1890,45.2,3.2125,7690832,145.205
1889,45.3,3.2125,7692721,145.52624999999998
1892,44.6,3.2165,7694613,143.4559
1889,45.1,3.2165,7696502,145.06415
1890,45.2,3.2165,7698392,145.38580000000002
1888,45.0,3.2165,7700280,144.7425
1890,44.8,3.2165,7702170,144.0992
1889,45.3,3.2165,7704059,145.70745
1890,45.2,3.2165,7705949,145.38580000000002
1889,45.3,3.2125,7707838,145.52624999999998
1891,45.2,3.2165,7709729,145.38580000000002
1892,45.2,3.2165,7711621,145.38580000000002
1889,45.3,3.2125,7713510,145.52624999999998
1889,44.9,3.2085,7715399,144.06165
1889,45.1,3.2125,7717288,144.88375
1890,45.2,3.2125,7719178,145.205
1891,45.2,3.2085,7721069,145.0242
3779,45.2,3.2125,7724848,145.205
1890,44.9,3.2125,7726738,144.24124999999998
1890,45.2,3.2125,7728628,145.205
1890,45.2,3.2125,7730518,145.205
1890,44.9,3.2125,7732408,144.24124999999998
1891,44.9,3.2125,7734299,144.24124999999998
1889,45.2,3.2125,7736188,145.205
1890,45.3,3.2125,7738078,145.52624999999998
3779,45.2,3.2125,7741857,145.205
3778,45.1,3.2125,7745635,144.88375
1890,45.1,3.2125,7747525,144.88375
3778,44.9,3.2125,7751303,144.24124999999998
1891,44.9,3.2125,7753194,144.24124999999998
1889,45.3,3.2125,7755083,145.52624999999998
1890,45.2,3.2125,7756973,145.205
1890,45.1,3.2125,7758863,144.88375
1889,45.2,3.2165,7760752,145.38580000000002
1890,45.3,3.2125,7762642,145.52624999999998
1889,44.7,3.2125,7764531,143.59875
1890,45.2,3.2165,7766421,145.38580000000002
3777,44.9,3.2165,7770198,144.42085
1889,44.8,3.2165,7772087,144.0992
1890,45.3,3.2125,7773977,145.52624999999998
1891,45.3,3.2165,7775868,145.70745
1890,44.7,3.2125,7777758,143.59875
1889,45.2,3.2165,7779647,145.38580000000002
1890,45.2,3.2125,7781537,145.205
1889,44.9,3.2125,7783426,144.24124999999998
1890,44.8,3.2165,7785316,144.0992
1890,45.1,3.2125,7787206,144.88375
1889,45.3,3.2125,7789095,145.52624999999998
1889,45.2,3.2085,7790984,145.0242
1890,45.3,3.2085,7792874,145.34505
1890,45.2,3.2085,7794764,145.0242
1889,44.8,3.2125,7796653,143.92
1889,45.1,3.2125,7798542,144.88375
1890,45.2,3.2125,7800432,145.205
1889,44.9,3.2125,7802321,144.24124999999998
1891,44.9,3.2165,7804212,144.42085
1889,45.2,3.2125,7806101,145.205
3778,44.6,3.2125,7809879,143.2775
1890,45.2,3.2125,7811769,145.205
1891,45.2,3.2125,7813660,145.205
1889,44.8,3.2085,7815549,143.74079999999998
1889,44.9,3.2125,7817438,144.24124999999998
1890,45.1,3.2165,7819328,145.06415
1889,45.2,3.2165,7821217,145.38580000000002
1891,45.3,3.2125,7823108,145.52624999999998
1890,45.2,3.2165,7824998,145.38580000000002
1891,45.2,3.2125,7826889,145.205
1891,45.2,3.2165,7828780,145.38580000000002
1889,44.9,3.2125,7830669,144.24124999999998
1890,45.2,3.2165,7832559,145.38580000000002
1890,45.2,3.2125,7834449,145.205
3779,44.6,3.2125,7838228,143.2775
1890,45.1,3.2125,7840118,144.88375
1890,45.2,3.2125,7842008,145.205
1889,44.9,3.2125,7843897,144.24124999999998
1891,44.9,3.2125,7845788,144.24124999999998
1890,45.3,3.2125,7847678,145.52624999999998
1890,45.3,3.2125,7849568,145.52624999999998
1891,45.3,3.2165,7851459,145.70745
1889,45.2,3.2165,7853348,145.38580000000002
1890,45.1,3.2125,7855238,144.88375
1889,44.9,3.2165,7857127,144.42085
1890,44.8,3.2125,7859017,143.92
1890,45.1,3.2125,7860907,144.88375
1891,45.1,3.2125,7862798,144.88375
1889,45.3,3.2125,7864687,145.52624999999998
1889,45.1,3.2125,7866576,144.88375
1891,45.1,3.2125,7868467,144.88375
1889,45.2,3.2125,7870356,145.205
1889,45.0,3.2125,7872245,144.5625
1889,45.0,3.2125,7874134,144.5625
1890,44.9,3.2125,7876024,144.24124999999998
1890,45.2,3.2125,7877914,145.205
1889,44.8,3.2165,7879803,144.0992
1890,45.1,3.2165,7881693,145.06415
1890,45.1,3.2165,7883583,145.06415
1889,44.9,3.2165,7885472,144.42085
1891,44.9,3.2165,7887363,144.42085
1889,44.7,3.2165,7889252,143.77755000000002
1890,45.2,3.2165,7891142,145.38580000000002
1891,45.2,3.2165,7893033,145.38580000000002
1889,44.9,3.2165,7894922,144.42085
1890,45.2,3.2205,7896812,145.5666
3777,44.9,3.2165,7900589,144.42085
1890,45.2,3.2165,7902479,145.38580000000002
1890,45.1,3.2165,7904369,145.06415
1890,45.1,3.2205,7906259,145.24455
1890,45.2,3.2205,7908149,145.5666
1889,45.3,3.2165,7910038,145.70745
1890,45.2,3.2205,7911928,145.5666
3778,44.9,3.2205,7915706,144.60045
1889,45.3,3.2205,7917595,145.88864999999998
1890,45.3,3.2205,7919485,145.88864999999998
1889,45.0,3.2205,7921374,144.92249999999999
1889,45.1,3.2205,7923263,145.24455
1890,45.2,3.2205,7925153,145.5666
1888,45.0,3.2205,7927041,144.92249999999999
1890,45.0,3.2205,7928931,144.92249999999999
1890,44.6,3.2205,7930821,143.6343
1888,45.0,3.2205,7932709,144.92249999999999
1890,44.8,3.2165,7934599,144.0992
1890,44.8,3.2165,7936489,144.0992
1888,45.0,3.2165,7938377,144.7425
1890,45.2,3.2165,7940267,145.38580000000002
1890,45.2,3.2165,7942157,145.38580000000002
1890,44.9,3.2125,7944047,144.24124999999998
1890,44.9,3.2125,7945937,144.24124999999998
1890,45.2,3.2165,7947827,145.38580000000002
1891,45.2,3.2125,7949718,145.205
1891,45.1,3.2125,7951609,144.88375
1890,44.9,3.2165,7953499,144.42085
1889,45.1,3.2165,7955388,145.06415
1890,44.6,3.2165,7957278,143.4559
1890,45.1,3.2165,7959168,145.06415
1890,45.2,3.2125,7961058,145.205
1890,44.8,3.2125,7962948,143.92
1889,45.1,3.2125,7964837,144.88375
1890,44.5,3.2125,7966727,142.95624999999998
1890,45.1,3.2085,7968617,144.70335
1889,45.2,3.2085,7970506,145.0242
1890,44.9,3.2125,7972396,144.24124999999998
1888,45.0,3.2125,7974284,144.5625
1890,44.6,3.2125,7976174,143.2775
1889,45.1,3.2125,7978063,144.88375
1890,45.2,3.2125,7979953,145.205
1890,44.7,3.2125,7981843,143.59875
1890,44.9,3.2125,7983733,144.24124999999998
1889,44.6,3.2125,7985622,143.2775
1890,45.1,3.2165,7987512,145.06415
1889,45.2,3.2165,7989401,145.38580000000002
1890,44.9,3.2125,7991291,144.24124999999998
1889,44.8,3.2125,7993180,143.92
1890,44.7,3.2125,7995070,143.59875
1890,44.8,3.2125,7996960,143.92
1891,44.8,3.2085,7998851,143.74079999999998
1891,44.8,3.2125,8000742,143.92
3778,44.8,3.2165,8004520,144.0992
1889,45.1,3.2165,8006409,145.06415
1890,44.8,3.2125,8008299,143.92
1889,44.9,3.2125,8010188,144.24124999999998
1890,44.6,3.2125,8012078,143.2775
1890,44.9,3.2125,8013968,144.24124999999998
1891,44.9,3.2085,8015859,144.06165
1890,44.8,3.2085,8017749,143.74079999999998
1889,45.2,3.2125,8019638,145.205
1891,45.2,3.2085,8021529,145.0242
3777,44.8,3.2085,8025306,143.74079999999998
1890,45.1,3.2085,8027196,144.70335
1889,45.2,3.2085,8029085,145.0242
1891,45.2,3.2125,8030976,145.205
1891,45.2,3.2125,8032867,145.205
1890,44.9,3.2125,8034757,144.24124999999998
1889,44.8,3.2165,8036646,144.0992
1890,45.1,3.2165,8038536,145.06415
1889,45.2,3.2165,8040425,145.38580000000002
1890,44.8,3.2165,8042315,144.0992
1890,44.9,3.2165,8044205,144.42085
1890,44.9,3.2165,8046095,144.42085
1890,45.2,3.2165,8047985,145.38580000000002
1890,45.1,3.2165,8049875,145.06415
1889,44.9,3.2205,8051764,144.60045
1889,45.0,3.2205,8053653,144.92249999999999
1889,44.9,3.2205,8055542,144.60045
1889,45.2,3.2205,8057431,145.5666
1890,45.1,3.2205,8059321,145.24455
1889,44.9,3.2205,8061210,144.60045
1889,45.0,3.2205,8063099,144.92249999999999
1889,45.1,3.2205,8064988,145.24455
1890,45.3,3.2205,8066878,145.88864999999998
1890,45.2,3.2205,8068768,145.5666
1889,44.8,3.2205,8070657,144.27839999999998
1889,44.9,3.2205,8072546,144.60045
1890,45.1,3.2205,8074436,145.24455
1891,45.1,3.2205,8076327,145.24455
1888,45.0,3.2205,8078215,144.92249999999999
1890,45.0,3.2165,8080105,144.7425
1889,45.1,3.2165,8081994,145.06415
1891,45.1,3.2165,8083885,145.06415
1890,45.2,3.2205,8085775,145.5666
1888,45.0,3.2205,8087663,144.92249999999999
1889,45.0,3.2205,8089552,144.92249999999999
1889,44.6,3.2205,8091441,143.6343
1890,45.1,3.2205,8093331,145.24455
1889,45.2,3.2205,8095220,145.5666
1890,45.0,3.2205,8097110,144.92249999999999
1889,44.8,3.2205,8098999,144.27839999999998
1890,45.1,3.2245,8100889,145.42495
1890,45.2,3.2205,8102779,145.5666
1891,45.2,3.2205,8104670,145.5666
1889,44.9,3.2245,8106559,144.78005
1888,45.0,3.2245,8108447,145.1025
1889,45.2,3.2205,8110336,145.5666
1891,45.1,3.2245,8112227,145.42495
1890,45.3,3.2205,8114117,145.88864999999998
1890,44.9,3.2245,8116007,144.78005
1891,44.9,3.2245,8117898,144.78005
1890,45.3,3.2205,8119788,145.88864999999998
1889,45.2,3.2245,8121677,145.7474
1889,44.9,3.2245,8123566,144.78005
1891,44.9,3.2285,8125457,144.95964999999998
1889,44.7,3.2205,8127346,143.95635000000001
1890,45.1,3.2205,8129236,145.24455
1890,45.1,3.2205,8131126,145.24455
1890,44.9,3.2205,8133016,144.60045
1890,44.8,3.2205,8134906,144.27839999999998
1889,45.1,3.2165,8136795,145.06415
1890,45.2,3.2165,8138685,145.38580000000002
1890,45.2,3.2125,8140575,145.205
1890,44.8,3.2125,8142465,143.92
1888,45.0,3.2125,8144353,144.5625
1890,44.8,3.2125,8146243,143.92
1889,45.1,3.2125,8148132,144.88375
1889,45.2,3.2165,8150021,145.38580000000002
1889,45.0,3.2125,8151910,144.5625
1890,44.9,3.2125,8153800,144.24124999999998
1889,45.1,3.2085,8155689,144.70335
1891,45.1,3.2125,8157580,144.88375
1889,44.8,3.2125,8159469,143.92
1889,44.7,3.2125,8161358,143.59875
1890,45.1,3.2125,8163248,144.88375
1891,45.1,3.2125,8165139,144.88375
5667,44.8,3.2125,8170806,143.92
1889,44.6,3.2125,8172695,143.2775
1888,45.0,3.2125,8174583,144.5625
1889,45.1,3.2125,8176472,144.88375
1890,44.9,3.2125,8178362,144.24124999999998
1889,44.8,3.2085,8180251,143.74079999999998
1890,45.2,3.2125,8182141,145.205
1891,45.2,3.2125,8184032,145.205
1889,45.1,3.2085,8185921,144.70335
1890,44.8,3.2125,8187811,143.92
1889,45.2,3.2125,8189700,145.205
1890,45.2,3.2165,8191590,145.38580000000002
1890,45.1,3.2125,8193480,144.88375
1889,45.2,3.2125,8195369,145.205
1889,44.9,3.2125,8197258,144.24124999999998
1890,44.6,3.2165,8199148,143.4559
1889,45.1,3.2125,8201037,144.88375
1891,45.1,3.2125,8202928,144.88375
1890,44.8,3.2125,8204818,143.92
1888,45.0,3.2165,8206706,144.7425
1889,44.8,3.2125,8208595,143.92
1890,45.2,3.2125,8210485,145.205
1890,45.2,3.2125,8212375,145.205
1890,44.9,3.2125,8214265,144.24124999999998
1890,44.8,3.2125,8216155,143.92
1891,44.8,3.2085,8218046,143.74079999999998
1889,45.1,3.2085,8219935,144.70335
1890,45.2,3.2125,8221825,145.205
1889,44.9,3.2125,8223714,144.24124999999998
1891,45.0,3.2125,8225605,144.5625
1889,45.1,3.2165,8227494,145.06415
1891,45.1,3.2125,8229385,144.88375
1890,45.1,3.2165,8231275,145.06415
1890,44.9,3.2165,8233165,144.42085
1891,44.9,3.2165,8235056,144.42085
1890,45.1,3.2165,8236946,145.06415
1891,45.1,3.2165,8238837,145.06415
1890,44.8,3.2165,8240727,144.0992
1891,44.9,3.2125,8242618,144.24124999999998
1889,45.3,3.2125,8244507,145.52624999999998
1890,45.2,3.2125,8246397,145.205
1891,45.2,3.2165,8248288,145.38580000000002
1889,45.1,3.2125,8250177,144.88375
1890,44.8,3.2125,8252067,143.92
1889,44.6,3.2125,8253956,143.2775
1890,45.2,3.2165,8255846,145.38580000000002
1892,45.2,3.2125,8257738,145.205
1889,44.9,3.2125,8259627,144.24124999999998
1890,44.9,3.2125,8261517,144.24124999999998
1889,45.2,3.2125,8263406,145.205
1891,45.2,3.2125,8265297,145.205
3778,44.8,3.2085,8269075,143.74079999999998
1889,45.1,3.2085,8270964,144.70335
1890,45.2,3.2125,8272854,145.205
1890,45.1,3.2125,8274744,144.88375
1890,45.1,3.2125,8276634,144.88375
1888,45.0,3.2125,8278522,144.5625
1889,45.2,3.2165,8280411,145.38580000000002
1890,45.1,3.2125,8282301,144.88375
1890,45.2,3.2125,8284191,145.205
1889,45.1,3.2085,8286080,144.70335
1890,44.9,3.2125,8287970,144.24124999999998
1890,44.8,3.2085,8289860,143.74079999999998
1889,45.1,3.2085,8291749,144.70335
1890,45.2,3.2085,8293639,145.0242
1888,45.0,3.2085,8295527,144.3825
1889,44.8,3.2125,8297416,143.92
1891,44.8,3.2125,8299307,143.92
1890,45.1,3.2085,8301197,144.70335
1890,45.1,3.2125,8303087,144.88375
1890,44.9,3.2125,8304977,144.24124999999998
1891,44.9,3.2125,8306868,144.24124999999998
1890,44.7,3.2085,8308758,143.41995
1889,45.1,3.2085,8310647,144.70335
1891,45.1,3.2125,8312538,144.88375
1889,44.8,3.2125,8314427,143.92
1889,44.9,3.2085,8316316,144.06165
1890,45.2,3.2125,8318206,145.205
1890,45.2,3.2085,8320096,145.0242
1890,44.8,3.2085,8321986,143.74079999999998
1891,44.8,3.2125,8323877,143.92
1890,45.1,3.2085,8325767,144.70335
1889,45.2,3.2085,8327656,145.0242
1891,45.2,3.2125,8329547,145.205
1889,45.1,3.2125,8331436,144.88375
1889,44.8,3.2125,8333325,143.92
1890,44.6,3.2125,8335215,143.2775
1890,45.1,3.2125,8337105,144.88375
1891,45.1,3.2125,8338996,144.88375
1888,45.0,3.2165,8340884,144.7425
1890,44.8,3.2125,8342774,143.92
1889,45.1,3.2165,8344663,145.06415
1889,45.2,3.2125,8346552,145.205
1890,45.1,3.2125,8348442,144.88375
1889,44.8,3.2125,8350331,143.92
1889,45.0,3.2125,8352220,144.5625
1890,45.3,3.2125,8354110,145.52624999999998
1890,45.1,3.2125,8356000,144.88375
1889,45.2,3.2125,8357889,145.205
1889,45.0,3.2085,8359778,144.3825
1889,45.2,3.2125,8361667,145.205
1890,45.2,3.2125,8363557,145.205
1891,45.2,3.2125,8365448,145.205
1888,45.0,3.2125,8367336,144.5625
1890,44.9,3.2125,8369226,144.24124999999998
1891,44.8,3.2125,8371117,143.92
1889,45.2,3.2085,8373006,145.0242
1891,45.2,3.2085,8374897,145.0242
1889,45.0,3.2125,8376786,144.5625
1889,44.8,3.2125,8378675,143.92
1891,44.8,3.2125,8380566,143.92
1889,45.1,3.2125,8382455,144.88375
1890,45.2,3.2125,8384345,145.205
1890,44.7,3.2125,8386235,143.59875
1889,44.9,3.2125,8388124,144.24124999999998
1890,44.6,3.2125,8390014,143.2775
1890,45.1,3.2165,8391904,145.06415
1889,45.2,3.2165,8393793,145.38580000000002
1890,44.9,3.2125,8395683,144.24124999999998
1889,44.8,3.2125,8397572,143.92
1890,45.2,3.2165,8399462,145.38580000000002
1890,45.2,3.2165,8401352,145.38580000000002
1890,44.9,3.2165,8403242,144.42085
1890,44.8,3.2165,8405132,144.0992
1890,45.2,3.2165,8407022,145.38580000000002
1891,45.2,3.2165,8408913,145.38580000000002
1890,45.2,3.2165,8410803,145.38580000000002
3778,44.8,3.2165,8414581,144.0992
1890,44.6,3.2125,8416471,143.2775
1889,45.1,3.2165,8418360,145.06415
1889,45.2,3.2165,8420249,145.38580000000002
1890,44.8,3.2125,8422139,143.92
1889,44.9,3.2165,8424028,144.42085
1890,44.8,3.2125,8425918,143.92
1890,45.1,3.2165,8427808,145.06415
1889,45.2,3.2165,8429697,145.38580000000002
1889,44.9,3.2125,8431586,144.24124999999998
1890,44.8,3.2165,8433476,144.0992
1889,45.1,3.2165,8435365,145.06415
1890,45.2,3.2165,8437255,145.38580000000002
1890,45.2,3.2125,8439145,145.205
1889,45.0,3.2164,8441034,144.738
1889,45.2,3.2165,8442923,145.38580000000002
1891,45.2,3.2165,8444814,145.38580000000002
1890,45.1,3.2165,8446704,145.06415
1890,45.1,3.2165,8448594,145.06415
1889,44.8,3.2125,8450483,143.92
1889,44.6,3.2125,8452372,143.2775
1890,45.1,3.2165,8454262,145.06415
1889,45.2,3.2125,8456151,145.205
1889,45.0,3.2165,8458040,144.7425
1889,44.8,3.2165,8459929,144.0992
1890,44.9,3.2125,8461819,144.24124999999998
1889,45.2,3.2165,8463708,145.38580000000002
1891,45.2,3.2165,8465599,145.38580000000002
1889,44.8,3.2165,8467488,144.0992
1890,44.9,3.2125,8469378,144.24124999999998
1889,44.7,3.2125,8471267,143.59875
1889,45.2,3.2125,8473156,145.205
1891,45.2,3.2165,8475047,145.38580000000002
1889,44.9,3.2165,8476936,144.42085
1891,44.9,3.2165,8478827,144.42085
1890,45.1,3.2125,8480717,144.88375
1891,45.2,3.2165,8482608,145.38580000000002
1888,45.0,3.2165,8484496,144.7425
1890,44.8,3.2165,8486386,144.0992
1889,45.1,3.2165,8488275,145.06415
1891,45.1,3.2165,8490166,145.06415
1891,45.1,3.2165,8492057,145.06415
1889,45.3,3.2165,8493946,145.70745
1890,44.9,3.2165,8495836,144.42085
1891,44.7,3.2165,8497727,143.77755000000002
1890,45.2,3.2205,8499617,145.5666
1891,45.2,3.2165,8501508,145.38580000000002
1889,44.9,3.2165,8503397,144.42085
1889,45.0,3.2165,8505286,144.7425
1889,44.9,3.2165,8507175,144.42085
1890,45.2,3.2165,8509065,145.38580000000002
1890,45.1,3.2165,8510955,145.06415
1889,44.9,3.2165,8512844,144.42085
1892,44.9,3.2125,8514736,144.24124999999998
1890,45.2,3.2165,8516626,145.38580000000002
1890,45.2,3.2125,8518516,145.205
1890,45.1,3.2125,8520406,144.88375
1888,45.0,3.2125,8522294,144.5625
1889,45.1,3.2165,8524183,145.06415
1890,45.2,3.2165,8526073,145.38580000000002
1891,45.2,3.2125,8527964,145.205
1888,45.0,3.2125,8529852,144.5625
1890,44.9,3.2125,8531742,144.24124999999998
1889,44.6,3.2125,8533631,143.2775
1889,45.2,3.2165,8535520,145.38580000000002
1891,45.2,3.2165,8537411,145.38580000000002
1888,45.0,3.2125,8539299,144.5625
1890,44.8,3.2165,8541189,144.0992
1890,44.9,3.2165,8543079,144.42085
1889,45.2,3.2165,8544968,145.38580000000002
1890,45.1,3.2165,8546858,145.06415
1890,44.8,3.2165,8548748,144.0992
1889,45.0,3.2165,8550637,144.7425
1889,44.6,3.2165,8552526,143.4559
1889,45.1,3.2165,8554415,145.06415
1890,45.2,3.2165,8556305,145.38580000000002
1890,44.9,3.2165,8558195,144.42085
1891,44.9,3.2165,8560086,144.42085
1889,45.2,3.2165,8561975,145.38580000000002
1891,45.2,3.2165,8563866,145.38580000000002
1889,45.0,3.2165,8565755,144.7425
1889,44.9,3.2165,8567644,144.42085
1889,45.1,3.2165,8569533,145.06415
1890,45.2,3.2165,8571423,145.38580000000002
1889,45.1,3.2205,8573312,145.24455
1890,45.2,3.2165,8575202,145.38580000000002
1890,44.9,3.2165,8577092,144.42085
1889,44.8,3.2125,8578981,143.92
1890,45.1,3.2165,8580871,145.06415
1890,45.2,3.2165,8582761,145.38580000000002
1889,44.9,3.2165,8584650,144.42085
1890,44.9,3.2165,8586540,144.42085
1890,44.7,3.2205,8588430,143.95635000000001
1889,45.1,3.2205,8590319,145.24455
1890,45.2,3.2165,8592209,145.38580000000002
1889,44.9,3.2165,8594098,144.42085
1890,44.8,3.2165,8595988,144.0992
1890,45.1,3.2165,8597878,145.06415
1890,45.2,3.2165,8599768,145.38580000000002
1890,45.2,3.2165,8601658,145.38580000000002
1890,44.9,3.2165,8603548,144.42085
1889,45.2,3.2205,8605437,145.5666
1891,45.2,3.2205,8607328,145.5666
3779,45.1,3.2205,8611107,145.24455
1890,44.8,3.2205,8612997,144.27839999999998
1889,44.6,3.2205,8614886,143.6343
1890,45.1,3.2205,8616776,145.24455
1890,45.2,3.2205,8618666,145.5666
1889,44.9,3.2205,8620555,144.60045
1888,45.0,3.2205,8622443,144.92249999999999
1890,45.3,3.2205,8624333,145.88864999999998
1889,45.2,3.2205,8626222,145.5666
1892,45.2,3.2205,8628114,145.5666
1889,45.0,3.2245,8630003,145.1025
1890,44.9,3.2205,8631893,144.60045
1889,44.7,3.2205,8633782,143.95635000000001
1890,45.2,3.2205,8635672,145.5666
1890,45.2,3.2245,8637562,145.7474
1889,45.0,3.2205,8639451,144.92249999999999
1889,45.0,3.2205,8641340,144.92249999999999
1890,45.2,3.2205,8643230,145.5666
1890,45.3,3.2205,8645120,145.88864999999998
1888,45.0,3.2205,8647008,144.92249999999999
1890,44.9,3.2205,8648898,144.60045
1890,45.1,3.2205,8650788,145.24455
1889,45.2,3.2205,8652677,145.5666
1890,45.2,3.2205,8654567,145.5666
3776,45.0,3.2205,8658343,144.92249999999999
1890,44.8,3.2165,8660233,144.0992
1889,45.2,3.2245,8662122,145.7474
1891,45.2,3.2205,8664013,145.5666
1888,45.0,3.2165,8665901,144.7425
1890,45.0,3.2205,8667791,144.92249999999999
1890,44.6,3.2205,8669681,143.6343
1889,45.1,3.2205,8671570,145.24455
1889,45.2,3.2205,8673459,145.5666
1889,45.0,3.2205,8675348,144.92249999999999
1889,44.8,3.2205,8677237,144.27839999999998
1890,45.1,3.2245,8679127,145.42495
1891,45.1,3.2205,8681018,145.24455
1889,45.2,3.2205,8682907,145.5666
1890,44.9,3.2205,8684797,144.60045
1889,45.2,3.2245,8686686,145.7474
1891,45.2,3.2205,8688577,145.5666
1891,45.2,3.2245,8690468,145.7474
3777,44.9,3.2205,8694245,144.60045
1890,44.7,3.2245,8696135,144.13515
1889,45.3,3.2205,8698024,145.88864999999998
1890,45.2,3.2205,8699914,145.5666
1890,44.9,3.2205,8701804,144.60045
1888,45.0,3.2205,8703692,144.92249999999999
1889,45.2,3.2205,8705581,145.5666
1891,45.2,3.2205,8707472,145.5666
3778,44.8,3.2245,8711250,144.45759999999999
1888,45.0,3.2205,8713138,144.92249999999999
1890,44.6,3.2205,8715028,143.6343
1889,45.1,3.2205,8716917,145.24455
3777,45.0,3.2205,8720694,144.92249999999999
1889,44.9,3.2205,8722583,144.60045
1890,45.2,3.2205,8724473,145.5666
3776,45.0,3.2205,8728249,144.92249999999999
1890,44.8,3.2165,8730139,144.0992
1889,45.1,3.2165,8732028,145.06415
1890,45.2,3.2165,8733918,145.38580000000002
1891,45.2,3.2205,8735809,145.5666
1889,45.1,3.2165,8737698,145.06415
1889,45.0,3.2165,8739587,144.7425
1889,44.8,3.2165,8741476,144.0992
1889,45.1,3.2205,8743365,145.24455
1890,45.2,3.2125,8745255,145.205
1889,44.9,3.2125,8747144,144.24124999999998
1889,45.0,3.2165,8749033,144.7425
1889,45.1,3.2165,8750922,145.06415
1890,45.2,3.2165,8752812,145.38580000000002
1891,45.2,3.2165,8754703,145.38580000000002
1889,44.9,3.2165,8756592,144.42085
1889,45.0,3.2205,8758481,144.92249999999999
1889,45.1,3.2205,8760370,145.24455
1890,45.1,3.2165,8762260,145.06415
1890,45.2,3.2205,8764150,145.5666
1889,44.9,3.2165,8766039,144.42085
1891,44.9,3.2205,8767930,144.60045
1890,45.2,3.2205,8769820,145.5666
1890,45.2,3.2205,8771710,145.5666
1890,44.9,3.2205,8773600,144.60045
1890,44.9,3.2205,8775490,144.60045
1889,44.7,3.2205,8777379,143.95635000000001
1890,45.2,3.2205,8779269,145.5666
1891,45.2,3.2205,8781160,145.5666
1890,44.9,3.2205,8783050,144.60045
1891,44.9,3.2205,8784941,144.60045
1888,45.0,3.2165,8786829,144.7425
1890,45.2,3.2165,8788719,145.38580000000002
1892,45.2,3.2205,8790611,145.5666
1890,44.8,3.2205,8792501,144.27839999999998
1888,45.0,3.2165,8794389,144.7425
1889,44.8,3.2165,8796278,144.0992
1890,45.2,3.2165,8798168,145.38580000000002
1890,45.3,3.2165,8800058,145.70745
1889,44.9,3.2125,8801947,144.24124999999998
1890,44.8,3.2165,8803837,144.0992
1891,45.1,3.2165,8805728,145.06415
1891,45.1,3.2165,8807619,145.06415
1889,44.9,3.2125,8809508,144.24124999999998
1889,45.0,3.2125,8811397,144.5625
1889,45.2,3.2125,8813286,145.205
3779,45.1,3.2165,8817065,145.06415
1891,45.1,3.2125,8818956,144.88375
1890,44.9,3.2165,8820846,144.42085
1891,44.9,3.2125,8822737,144.24124999999998
1890,45.2,3.2165,8824627,145.38580000000002
1889,45.1,3.2125,8826516,144.88375
1889,44.9,3.2125,8828405,144.24124999999998
1891,44.9,3.2085,8830296,144.06165
1888,45.0,3.2125,8832184,144.5625
1890,45.1,3.2125,8834074,144.88375
1888,45.0,3.2125,8835962,144.5625
1890,44.9,3.2125,8837852,144.24124999999998
1890,44.9,3.2125,8839742,144.24124999999998
1890,45.1,3.2125,8841632,144.88375
1890,45.1,3.2125,8843522,144.88375
1890,45.2,3.2125,8845412,145.205
1889,44.9,3.2125,8847301,144.24124999999998
1891,44.9,3.2165,8849192,144.42085
1889,45.1,3.2125,8851081,144.88375
1890,45.3,3.2125,8852971,145.52624999999998
1889,45.0,3.2125,8854860,144.5625
1889,44.9,3.2125,8856749,144.24124999999998
1889,44.6,3.2125,8858638,143.2775
1890,45.1,3.2125,8860528,144.88375
1890,45.1,3.2085,8862418,144.70335
1890,44.9,3.2085,8864308,144.06165
1889,44.8,3.2085,8866197,143.74079999999998
1889,45.0,3.2085,8868086,144.3825
1889,45.1,3.2085,8869975,144.70335
1890,45.2,3.2125,8871865,145.205
1890,44.8,3.2125,8873755,143.92
1889,45.2,3.2125,8875644,145.205
1888,45.0,3.2125,8877532,144.5625
1890,45.2,3.2125,8879422,145.205
1891,45.2,3.2085,8881313,145.0242
1889,44.9,3.2125,8883202,144.24124999999998
1891,44.9,3.2125,8885093,144.24124999999998
1890,45.1,3.2125,8886983,144.88375
1891,45.1,3.2125,8888874,144.88375
1890,44.8,3.2125,8890764,143.92
1889,44.9,3.2125,8892653,144.24124999999998
1890,45.1,3.2125,8894543,144.88375
1889,45.2,3.2125,8896432,145.205
1890,45.1,3.2125,8898322,144.88375
1890,45.1,3.2125,8900212,144.88375
1890,44.9,3.2165,8902102,144.42085
1889,44.7,3.2125,8903991,143.59875
1890,45.1,3.2165,8905881,145.06415
1889,45.2,3.2125,8907770,145.205
1890,44.8,3.2125,8909660,143.92
1887,45.0,3.2125,8911547,144.5625
1890,45.2,3.2125,8913437,145.205
1891,45.2,3.2165,8915328,145.38580000000002
1890,45.2,3.2125,8917218,145.205
1891,44.8,3.2125,8919109,143.92
1888,45.0,3.2125,8920997,144.5625
1890,45.2,3.2165,8922887,145.38580000000002
1890,45.1,3.2125,8924777,144.88375
1890,45.1,3.2165,8926667,145.06415
1888,45.0,3.2165,8928555,144.7425
1889,44.8,3.2165,8930444,144.0992
1890,45.2,3.2125,8932334,145.205
1890,45.1,3.2125,8934224,144.88375
1891,44.9,3.2125,8936115,144.24124999999998
1889,45.0,3.2125,8938004,144.5625
1890,44.6,3.2125,8939894,143.2775
1888,45.0,3.2125,8941782,144.5625
1890,45.0,3.2125,8943672,144.5625
1889,44.9,3.2125,8945561,144.24124999999998
1889,44.8,3.2125,8947450,143.92
1888,45.0,3.2125,8949338,144.5625
1891,45.1,3.2125,8951229,144.88375
1891,45.1,3.2125,8953120,144.88375
1890,44.9,3.2205,8955010,144.60045
1890,45.1,3.2165,8956900,145.06415
1889,44.9,3.2165,8958789,144.42085
1890,45.1,3.2165,8960679,145.06415
1889,45.2,3.2125,8962568,145.205
1890,44.8,3.2165,8964458,144.0992
1889,44.9,3.2165,8966347,144.42085
1889,45.1,3.2165,8968236,145.06415
1891,45.1,3.2165,8970127,145.06415
1890,44.9,3.2165,8972017,144.42085
1888,45.0,3.2165,8973905,144.7425
1890,45.1,3.2165,8975795,145.06415
1891,45.1,3.2125,8977686,144.88375
1890,45.1,3.2165,8979576,145.06415
1890,45.2,3.2165,8981466,145.38580000000002
1889,44.9,3.2165,8983355,144.42085
1890,44.8,3.2165,8985245,144.0992
1889,45.1,3.2165,8987134,145.06415
1890,45.2,3.2165,8989024,145.38580000000002
1890,44.8,3.2165,8990914,144.0992
1889,44.9,3.2165,8992803,144.42085
1890,45.2,3.2165,8994693,145.38580000000002
1889,44.2,3.2165,8996582,142.1693
1890,45.2,3.2164,8998472,145.38128
1890,44.9,3.2165,9000362,144.42085
1888,45.0,3.2165,9002250,144.7425
1889,45.2,3.2205,9004139,145.5666
1890,45.1,3.2165,9006029,145.06415
1890,45.3,3.2165,9007919,145.70745
1889,44.9,3.2165,9009808,144.42085
3778,45.1,3.2165,9013586,145.06415
1889,45.2,3.2165,9015475,145.38580000000002
1888,45.0,3.2125,9017363,144.5625
1890,45.0,3.2125,9019253,144.5625
1889,44.7,3.2125,9021142,143.59875
1889,45.2,3.2165,9023031,145.38580000000002
1891,45.2,3.2125,9024922,145.205
1890,44.9,3.2125,9026812,144.24124999999998
1890,44.9,3.2125,9028702,144.24124999999998
1890,45.1,3.2165,9030592,145.06415
1889,45.2,3.2165,9032481,145.38580000000002
1890,45.2,3.2125,9034371,145.205
1890,44.8,3.2165,9036261,144.0992
1889,45.1,3.2165,9038150,145.06415
1890,44.8,3.2165,9040040,144.0992
1889,45.1,3.2165,9041929,145.06415
1890,45.2,3.2165,9043819,145.38580000000002
1889,44.9,3.2165,9045708,144.42085
1890,44.8,3.2165,9047598,144.0992
1889,45.1,3.2165,9049487,145.06415
1891,45.1,3.2165,9051378,145.06415
1888,45.0,3.2165,9053266,144.7425
1889,44.8,3.2125,9055155,143.92
1890,45.2,3.2165,9057045,145.38580000000002
1891,45.2,3.2165,9058936,145.38580000000002
1891,45.2,3.2165,9060827,145.38580000000002
1889,45.1,3.2125,9062716,144.88375
1890,45.0,3.2165,9064606,144.7425
1890,44.9,3.2165,9066496,144.42085
1889,45.2,3.2165,9068385,145.38580000000002
3778,44.8,3.2125,9072163,143.92
1889,44.9,3.2125,9074052,144.24124999999998
1888,45.0,3.2165,9075940,144.7425
1890,45.2,3.2165,9077830,145.38580000000002
1891,45.2,3.2125,9079721,145.205
1891,44.9,3.2125,9081612,144.24124999999998
1891,44.9,3.2125,9083503,144.24124999999998
1889,45.1,3.2165,9085392,145.06415
1890,45.1,3.2165,9087282,145.06415
1890,45.2,3.2165,9089172,145.38580000000002
1890,44.9,3.2125,9091062,144.24124999999998
1889,45.2,3.2165,9092951,145.38580000000002
1890,45.1,3.2165,9094841,145.06415
1892,45.1,3.2165,9096733,145.06415
1889,45.2,3.2125,9098622,145.205
1890,44.9,3.2125,9100512,144.24124999999998
1890,44.7,3.2125,9102402,143.59875
1889,45.1,3.2125,9104291,144.88375
1891,45.1,3.2125,9106182,144.88375
1890,44.9,3.2125,9108072,144.24124999999998
1891,44.9,3.2165,9109963,144.42085
1890,45.2,3.2165,9111853,145.38580000000002
1889,45.3,3.2125,9113742,145.52624999999998
1889,45.2,3.2125,9115631,145.205
1890,44.8,3.2165,9117521,144.0992
1888,45.0,3.2125,9119409,144.5625
1889,44.6,3.2125,9121298,143.2775
1890,45.2,3.2125,9123188,145.205
1891,45.2,3.2165,9125079,145.38580000000002
1888,45.0,3.2165,9126967,144.7425
1890,44.8,3.2165,9128857,144.0992
1890,45.1,3.2165,9130747,145.06415
3779,45.1,3.2165,9134526,145.06415
1890,44.9,3.2165,9136416,144.42085
1891,44.9,3.2165,9138307,144.42085
1889,45.1,3.2165,9140196,145.06415
1891,45.1,3.2165,9142087,145.06415
1889,44.9,3.2125,9143976,144.24124999999998
1891,44.9,3.2125,9145867,144.24124999999998
1889,45.0,3.2165,9147756,144.7425
1889,45.1,3.2125,9149645,144.88375
1891,45.1,3.2165,9151536,145.06415
1889,44.9,3.2125,9153425,144.24124999999998
1888,45.0,3.2125,9155313,144.5625
1890,44.8,3.2125,9157203,143.92
1889,45.2,3.2125,9159092,145.205
1891,45.2,3.2085,9160983,145.0242
1889,45.0,3.2125,9162872,144.5625
1889,44.9,3.2165,9164761,144.42085
1890,45.2,3.2205,9166651,145.5666
1889,45.1,3.2165,9168540,145.06415
1889,45.2,3.2205,9170429,145.5666
1890,44.9,3.2165,9172319,144.42085
1889,45.1,3.2165,9174208,145.06415
1891,45.1,3.2165,9176099,145.06415
3777,45.0,3.2125,9179876,144.5625
1890,44.9,3.2165,9181766,144.42085
1889,44.7,3.2165,9183655,143.77755000000002
1890,45.2,3.2165,9185545,145.38580000000002
1890,45.2,3.2125,9187435,145.205
1890,44.9,3.2125,9189325,144.24124999999998
1890,44.9,3.2165,9191215,144.42085
1891,45.2,3.2165,9193106,145.38580000000002
1891,45.2,3.2125,9194997,145.205
3778,44.8,3.2165,9198775,144.0992
1888,45.0,3.2165,9200663,144.7425
1890,44.7,3.2125,9202553,143.59875
1889,45.2,3.2165,9204442,145.38580000000002
1891,45.2,3.2165,9206333,145.38580000000002
1891,44.9,3.2205,9208224,144.60045
1891,44.8,3.2205,9210115,144.27839999999998
1889,45.2,3.2205,9212004,145.5666
1891,45.2,3.2205,9213895,145.5666
1890,44.9,3.2205,9215785,144.60045
1891,44.9,3.2205,9217676,144.60045
1889,45.1,3.2205,9219565,145.24455
1890,45.2,3.2205,9221455,145.5666
1889,45.1,3.2245,9223344,145.42495
1890,44.9,3.2205,9225234,144.60045
1889,44.8,3.2205,9227123,144.27839999999998
1889,45.0,3.2165,9229012,144.7425
1889,45.2,3.2205,9230901,145.5666
1890,45.1,3.2205,9232791,145.24455
1889,44.8,3.2165,9234680,144.0992
1889,44.9,3.2165,9236569,144.42085
1889,45.0,3.2165,9238458,144.7425
1889,45.2,3.2205,9240347,145.5666
1890,45.1,3.2165,9242237,145.06415
1888,45.0,3.2165,9244125,144.7425
1890,44.9,3.2165,9246015,144.42085
1890,45.1,3.2205,9247905,145.24455
1890,45.1,3.2165,9249795,145.06415
1890,45.2,3.2205,9251685,145.5666
1888,45.0,3.2205,9253573,144.92249999999999
1889,44.9,3.2205,9255462,144.60045
1889,45.1,3.2165,9257351,145.06415
1890,45.2,3.2205,9259241,145.5666
1888,45.0,3.2165,9261129,144.7425
1890,45.0,3.2165,9263019,144.7425
1890,44.6,3.2165,9264909,143.4559
1889,45.2,3.2165,9266798,145.38580000000002
1890,45.1,3.2165,9268688,145.06415
1889,44.9,3.2165,9270577,144.42085
1890,44.9,3.2165,9272467,144.42085
1890,45.1,3.2205,9274357,145.24455
1889,45.2,3.2205,9276246,145.5666
3778,44.9,3.2205,9280024,144.60045
1890,45.2,3.2205,9281914,145.5666
1890,44.9,3.2165,9283804,144.42085
1889,45.1,3.2165,9285693,145.06415
1889,45.2,3.2165,9287582,145.38580000000002
1890,44.9,3.2205,9289472,144.60045
1890,44.8,3.2205,9291362,144.27839999999998
1889,45.1,3.2165,9293251,145.06415
1891,45.1,3.2165,9295142,145.06415
1889,44.8,3.2205,9297031,144.27839999999998
1888,45.0,3.2165,9298919,144.7425
1890,45.2,3.2165,9300809,145.38580000000002
1891,45.2,3.2205,9302700,145.5666
1889,45.1,3.2205,9304589,145.24455
1888,45.0,3.2205,9306477,144.92249999999999
1890,44.8,3.2205,9308367,144.27839999999998
1889,44.9,3.2165,9310256,144.42085
1890,45.2,3.2165,9312146,145.38580000000002
3778,44.8,3.2165,9315924,144.0992
1888,45.0,3.2165,9317812,144.7425
1889,45.0,3.2165,9319701,144.7425
1890,45.2,3.2165,9321591,145.38580000000002
1889,45.1,3.2125,9323480,144.88375
1889,44.9,3.2165,9325369,144.42085
1891,44.9,3.2165,9327260,144.42085
1889,45.2,3.2165,9329149,145.38580000000002
1890,45.1,3.2165,9331039,145.06415
1890,45.1,3.2125,9332929,144.88375
1890,44.9,3.2165,9334819,144.42085
1889,45.1,3.2165,9336708,145.06415
1891,45.1,3.2165,9338599,145.06415
3776,45.0,3.2165,9342375,144.7425
1890,44.9,3.2125,9344265,144.24124999999998
1890,44.6,3.2165,9346155,143.4559
1889,45.2,3.2125,9348044,145.205
1891,45.2,3.2125,9349935,145.205
1890,44.8,3.2125,9351825,143.92
1889,44.9,3.2165,9353714,144.42085
1890,45.2,3.2165,9355604,145.38580000000002
1890,45.1,3.2125,9357494,144.88375
1889,45.2,3.2125,9359383,145.205
1890,44.8,3.2165,9361273,144.0992
1889,45.1,3.2125,9363162,144.88375
1889,44.8,3.2165,9365051,144.0992
1890,45.2,3.2165,9366941,145.38580000000002
1891,45.2,3.2165,9368832,145.38580000000002
1889,44.9,3.2165,9370721,144.42085
1892,44.8,3.2165,9372613,144.0992
1889,45.2,3.2165,9374502,145.38580000000002
1890,45.1,3.2165,9376392,145.06415
1888,45.0,3.2205,9378280,144.92249999999999
1890,44.8,3.2165,9380170,144.0992
1889,45.1,3.2165,9382059,145.06415
1890,45.1,3.2165,9383949,145.06415
1890,45.2,3.2205,9385839,145.5666
1891,44.9,3.2165,9387730,144.42085
1891,44.9,3.2165,9389621,144.42085
1888,45.0,3.2125,9391509,144.5625
1890,45.2,3.2205,9393399,145.5666
3777,44.8,3.2205,9397176,144.27839999999998
1889,44.9,3.2205,9399065,144.60045
1890,45.1,3.2205,9400955,145.24455
1890,45.2,3.2205,9402845,145.5666
1890,45.1,3.2205,9404735,145.24455
1889,45.0,3.2205,9406624,144.92249999999999
1889,44.9,3.2205,9408513,144.60045
1889,45.2,3.2245,9410402,145.7474
1891,45.2,3.2205,9412293,145.5666
3777,45.0,3.2205,9416070,144.92249999999999
1890,45.2,3.2245,9417960,145.7474
1890,45.1,3.2205,9419850,145.24455
1889,45.2,3.2165,9421739,145.38580000000002
1890,45.3,3.2165,9423629,145.70745
1890,44.8,3.2165,9425519,144.0992
1889,44.7,3.2165,9427408,143.77755000000002
1890,45.1,3.2165,9429298,145.06415
1889,45.2,3.2165,9431187,145.38580000000002
1890,44.9,3.2165,9433077,144.42085
1888,45.0,3.2165,9434965,144.7425
1890,45.2,3.2165,9436855,145.38580000000002
1891,45.2,3.2165,9438746,145.38580000000002
3778,44.9,3.2205,9442524,144.60045
1888,45.0,3.2165,9444412,144.7425
1889,44.7,3.2165,9446301,143.77755000000002
1890,45.2,3.2165,9448191,145.38580000000002
1891,45.2,3.2125,9450082,145.205
1889,44.9,3.2165,9451971,144.42085
1890,44.8,3.2165,9453861,144.0992
1890,45.2,3.2125,9455751,145.205
1891,45.2,3.2125,9457642,145.205
1889,44.8,3.2125,9459531,143.92
1890,44.8,3.2165,9461421,144.0992
1890,45.1,3.2165,9463311,145.06415
1889,45.2,3.2165,9465200,145.38580000000002
1891,45.2,3.2205,9467091,145.5666
1890,44.9,3.2165,9468981,144.42085
1889,44.8,3.2165,9470870,144.0992
1890,44.6,3.2165,9472760,143.4559
1890,45.2,3.2165,9474650,145.38580000000002
1890,45.2,3.2165,9476540,145.38580000000002
1889,44.9,3.2165,9478429,144.42085
1891,44.9,3.2205,9480320,144.60045
1888,45.0,3.2165,9482208,144.7425
1890,45.1,3.2165,9484098,145.06415
1890,45.2,3.2165,9485988,145.38580000000002
1889,44.9,3.2165,9487877,144.42085
1891,44.9,3.2165,9489768,144.42085
1890,45.2,3.2165,9491658,145.38580000000002
1889,45.1,3.2125,9493547,144.88375
1889,45.2,3.2165,9495436,145.38580000000002
1888,45.0,3.2125,9497324,144.5625
1890,45.1,3.2165,9499214,145.06415
1889,45.2,3.2165,9501103,145.38580000000002
1890,45.1,3.2125,9502993,144.88375
1888,45.0,3.2125,9504881,144.5625
1890,44.9,3.2125,9506771,144.24124999999998
1890,44.6,3.2125,9508661,143.2775
1889,45.2,3.2125,9510550,145.205
1889,45.1,3.2125,9512439,144.88375
1888,45.0,3.2125,9514327,144.5625
1889,44.8,3.2165,9516216,144.0992
1891,45.2,3.2125,9518107,145.205
1890,45.1,3.2125,9519997,144.88375
1890,45.2,3.2125,9521887,145.205
1889,44.8,3.2165,9523776,144.0992
1889,45.0,3.2125,9525665,144.5625
1889,44.7,3.2125,9527554,143.59875
1889,45.1,3.2125,9529443,144.88375
1889,45.3,3.2125,9531332,145.52624999999998
1890,44.9,3.2125,9533222,144.24124999999998
1891,44.8,3.2125,9535113,143.92
1890,45.1,3.2125,9537003,144.88375
1889,45.2,3.2125,9538892,145.205
1890,44.9,3.2165,9540782,144.42085
1890,44.8,3.2125,9542672,143.92
1889,45.2,3.2125,9544561,145.205
1890,45.2,3.2085,9546451,145.0242
1890,45.1,3.2125,9548341,144.88375
1889,44.4,3.2085,9550230,142.45739999999998
1891,44.4,3.2084,9552121,142.45296
1889,44.5,3.2085,9554010,142.77824999999999
1889,45.2,3.2085,9555899,145.0242
1891,45.2,3.2085,9557790,145.0242
1890,44.8,3.2085,9559680,143.74079999999998
1889,44.9,3.2125,9561569,144.24124999999998
1891,44.9,3.2125,9563460,144.24124999999998
1889,45.1,3.2165,9565349,145.06415
1889,45.2,3.2125,9567238,145.205
1890,44.9,3.2125,9569128,144.24124999999998
1890,44.8,3.2125,9571018,143.92
1889,45.1,3.2165,9572907,145.06415
1890,45.2,3.2125,9574797,145.205
3778,44.9,3.2125,9578575,144.24124999999998
1889,45.2,3.2165,9580464,145.38580000000002
1891,45.2,3.2165,9582355,145.38580000000002
3776,45.0,3.2165,9586131,144.7425
1890,44.9,3.2125,9588021,144.24124999999998
1890,44.6,3.2165,9589911,143.4559
1889,45.1,3.2125,9591800,144.88375
1891,45.1,3.2125,9593691,144.88375
1889,44.9,3.2125,9595580,144.24124999999998
1889,44.8,3.2165,9597469,144.0992
1890,45.2,3.2125,9599359,145.205
1891,45.2,3.2125,9601250,145.205
1889,45.1,3.2085,9603139,144.70335
1890,44.8,3.2125,9605029,143.92
1889,44.9,3.2085,9606918,144.06165
1890,44.7,3.2085,9608808,143.41995
1890,45.2,3.2125,9610698,145.205
3775,45.0,3.2165,9614473,144.7425
1890,44.9,3.2125,9616363,144.24124999999998
1889,45.2,3.2125,9618252,145.205
1891,45.2,3.2125,9620143,145.205
1889,44.8,3.2165,9622032,144.0992
1891,44.8,3.2125,9623923,143.92
1890,45.1,3.2125,9625813,144.88375
1889,45.2,3.2125,9627702,145.205
1891,45.2,3.2125,9629593,145.205
1889,44.9,3.2125,9631482,144.24124999999998
1889,44.8,3.2125,9633371,143.92
1889,44.5,3.2125,9635260,142.95624999999998
1889,45.1,3.2125,9637149,144.88375
1889,45.2,3.2125,9639038,145.205
1890,44.8,3.2125,9640928,143.92
1890,44.9,3.2085,9642818,144.06165
1890,44.9,3.2085,9644708,144.06165
1889,45.2,3.2125,9646597,145.205
1891,45.2,3.2125,9648488,145.205
1888,45.0,3.2125,9650376,144.5625
1890,44.8,3.2125,9652266,143.92
1889,45.2,3.2165,9654155,145.38580000000002
1889,45.1,3.2125,9656044,144.88375
1890,45.2,3.2165,9657934,145.38580000000002
1890,44.9,3.2165,9659824,144.42085
1889,45.2,3.2165,9661713,145.38580000000002
1891,45.2,3.2125,9663604,145.205
3777,44.9,3.2125,9667381,144.24124999999998
1889,45.0,3.2125,9669270,144.5625
1889,44.8,3.2165,9671159,144.0992
1889,45.2,3.2165,9673048,145.38580000000002
1891,45.2,3.2125,9674939,145.205
1889,45.0,3.2125,9676828,144.5625
1889,44.8,3.2165,9678717,144.0992
1893,44.8,3.2125,9680610,143.92
1889,45.2,3.2125,9682499,145.205
1890,45.1,3.2125,9684389,144.88375
1889,44.8,3.2165,9686278,144.0992
1889,45.0,3.2125,9688167,144.5625
