dt,current,voltage,time,power
1890,45.2,3.2005,1530486,144.6626
1889,45.3,3.2005,1532375,144.98264999999998
1890,45.2,3.2005,1534265,144.6626
1890,44.9,3.2005,1536155,143.70245
1888,45.5,3.2005,1538043,145.62275
1890,45.6,3.2006,1539933,145.94736
1888,45.5,3.2006,1541821,145.6273
1890,45.5,3.1965,1543711,145.44075
1889,45.5,3.2006,1545600,145.6273
1889,45.5,3.2006,1547489,145.6273
9438,45.6,3.1965,1556927,145.7604
1888,45.5,3.1966,1558815,145.4453
1890,45.5,3.1965,1560705,145.44075
1889,45.5,3.2006,1562594,145.6273
3776,45.6,3.2006,1566370,145.94736
1888,45.5,3.1965,1568258,145.44075
3777,45.5,3.2006,1572035,145.6273
9438,45.6,3.2006,1581473,145.94736
1891,45.6,3.1966,1583364,145.76496
1888,45.5,3.2006,1585252,145.6273
1890,45.5,3.2006,1587142,145.6273
1889,45.5,3.2006,1589031,145.6273
1890,45.5,3.1965,1590921,145.44075
1889,45.5,3.2006,1592810,145.6273
7551,45.5,3.1965,1600361,145.44075
3777,45.5,3.2006,1604138,145.6273
5664,45.5,3.2006,1609802,145.6273
1890,45.5,3.1965,1611692,145.44075
1889,45.5,3.2006,1613581,145.6273
1889,45.5,3.1965,1615470,145.44075
5664,45.5,3.2006,1621134,145.6273
1890,45.5,3.1965,1623024,145.44075
3777,45.6,3.2006,1626801,145.94736
1890,45.6,3.2006,1628691,145.94736
1888,45.5,3.1966,1630579,145.4453
1890,45.5,3.2006,1632469,145.6273
1889,45.5,3.1965,1634358,145.44075
11325,47.0,3.1965,1645683,150.2355
1890,49.4,3.1927,1647573,157.71938
1888,50.0,3.193,1649461,159.65
1889,49.9,3.193,1651350,159.3307
1891,49.9,3.197,1653241,159.5303
1890,49.9,3.193,1655131,159.3307
1889,50.0,3.193,1657020,159.65
1890,50.1,3.197,1658910,160.1697
1889,49.9,3.197,1660799,159.5303
1891,49.9,3.193,1662690,159.3307
1888,50.0,3.193,1664578,159.65
1889,50.1,3.197,1666467,160.1697
1888,50.0,3.193,1668355,159.65
1890,50.0,3.197,1670245,159.85
1889,49.9,3.197,1672134,159.5303
1891,49.9,3.197,1674025,159.5303
1889,50.0,3.197,1675914,159.85
1889,50.1,3.197,1677803,160.1697
1891,50.1,3.197,1679694,160.1697
1888,50.0,3.197,1681582,159.85
1889,49.9,3.197,1683471,159.5303
1888,50.0,3.197,1685359,159.85
1890,50.0,3.193,1687249,159.65
1890,50.0,3.197,1689139,159.85
7551,50.0,3.193,1696690,159.65
1889,50.1,3.193,1698579,159.9693
1888,50.0,3.197,1700467,159.85
1890,50.0,3.193,1702357,159.65
1889,49.9,3.193,1704246,159.3307
1889,50.0,3.197,1706135,159.85
1889,50.0,3.193,1708024,159.65
1890,50.0,3.197,1709914,159.85
5664,50.1,3.193,1715578,159.9693
3776,50.0,3.197,1719354,159.85
1890,50.0,3.197,1721244,159.85
3776,50.1,3.197,1725020,160.1697
1892,50.1,3.197,1726912,160.1697
3776,50.0,3.193,1730688,159.65
3777,50.1,3.197,1734465,160.1697
1888,50.0,3.197,1736353,159.85
1890,50.1,3.197,1738243,160.1697
1888,50.0,3.197,1740131,159.85
1890,50.0,3.201,1742021,160.05
1890,50.0,3.193,1743911,159.65
3777,50.1,3.197,1747688,160.1697
1888,50.0,3.197,1749576,159.85
1889,49.9,3.193,1751465,159.3307
1891,49.9,3.193,1753356,159.3307
1888,50.0,3.197,1755244,159.85
1890,50.1,3.193,1757134,159.9693
1889,50.0,3.193,1759023,159.65
1889,50.0,3.193,1760912,159.65
5664,50.1,3.197,1766576,160.1697
1888,50.0,3.197,1768464,159.85
1889,50.0,3.193,1770353,159.65
1890,50.0,3.197,1772243,159.85
1890,50.0,3.193,1774133,159.65
1889,50.1,3.197,1776022,160.1697
1890,50.2,3.197,1777912,160.48940000000002
1888,50.0,3.197,1779800,159.85
1890,50.0,3.197,1781690,159.85
5663,50.1,3.193,1787353,159.9693
1889,50.0,3.197,1789242,159.85
3777,50.1,3.197,1793019,160.1697
1888,50.0,3.197,1794907,159.85
1890,50.1,3.197,1796797,160.1697
1888,50.0,3.197,1798685,159.85
1890,50.7,3.197,1800575,162.08790000000002
1889,50.6,3.1931,1802464,161.57085999999998
1889,50.7,3.197,1804353,162.08790000000002
1889,50.5,3.1971,1806242,161.45354999999998
1890,50.6,3.197,1808132,161.7682
1889,49.6,3.1971,1810021,158.57616
1890,36.7,3.2046,1811911,117.60882000000001
1891,36.7,3.2077,1813802,117.72259000000001
1890,36.7,3.2077,1815692,117.72259000000001
9444,36.7,3.2037,1825136,117.57579000000001
3780,36.7,3.2077,1828916,117.72259000000001
1889,36.6,3.2077,1830805,117.40182
1890,36.7,3.2077,1832695,117.72259000000001
1890,36.7,3.2077,1834585,117.72259000000001
1891,36.7,3.2077,1836476,117.72259000000001
1889,36.8,3.2077,1838365,118.04335999999999
1890,36.7,3.2077,1840255,117.72259000000001
1889,36.6,3.2037,1842144,117.25542
1890,36.7,3.2037,1844034,117.57579000000001
3778,36.6,3.2077,1847812,117.40182
1889,36.7,3.2037,1849701,117.57579000000001
1891,36.7,3.2037,1851592,117.57579000000001
1889,36.6,3.2037,1853481,117.25542
1889,36.7,3.2037,1855370,117.57579000000001
1890,36.6,3.2037,1857260,117.25542
1889,36.7,3.2037,1859149,117.57579000000001
1889,36.6,3.2037,1861038,117.25542
1890,36.7,3.2037,1862928,117.57579000000001
1890,36.6,3.2077,1864818,117.40182
1889,36.7,3.2077,1866707,117.72259000000001
1890,36.7,3.2077,1868597,117.72259000000001
1891,36.7,3.2077,1870488,117.72259000000001
1890,36.7,3.2077,1872378,117.72259000000001
1891,36.7,3.2077,1874269,117.72259000000001
5667,36.6,3.2077,1879936,117.40182
1890,36.7,3.2077,1881826,117.72259000000001
1890,36.7,3.2077,1883716,117.72259000000001
1892,36.8,3.2077,1885608,118.04335999999999
1889,36.6,3.2077,1887497,117.40182
1889,36.7,3.2077,1889386,117.72259000000001
1891,36.7,3.2077,1891277,117.72259000000001
1889,36.8,3.2077,1893166,118.04335999999999
1890,36.7,3.2077,1895056,117.72259000000001
5669,36.7,3.2037,1900725,117.57579000000001
1891,36.7,3.2077,1902616,117.72259000000001
1891,36.7,3.2037,1904507,117.57579000000001
1889,36.6,3.2037,1906396,117.25542
1891,36.6,3.2037,1908287,117.25542
1891,36.6,3.2037,1910178,117.25542
1890,36.7,3.2037,1912068,117.57579000000001
5668,36.7,3.2077,1917736,117.72259000000001
1891,36.7,3.2077,1919627,117.72259000000001
3777,36.6,3.2037,1923404,117.25542
1890,36.7,3.2037,1925294,117.57579000000001
1889,36.6,3.2077,1927183,117.40182
1889,36.7,3.2077,1929072,117.72259000000001
3779,36.6,3.2077,1932851,117.40182
3778,43.8,3.2037,1936629,140.32206
1890,49.8,3.1964,1938519,159.18072
1888,50.0,3.197,1940407,159.85
1890,49.9,3.193,1942297,159.3307
1890,49.9,3.193,1944187,159.3307
1889,50.0,3.193,1946076,159.65
1889,49.9,3.193,1947965,159.3307
1891,49.9,3.193,1949856,159.3307
3777,50.0,3.197,1953633,159.85
1889,50.6,3.193,1955522,161.5658
1891,50.6,3.1931,1957413,161.57085999999998
1890,50.6,3.193,1959303,161.5658
1890,50.4,3.1931,1961193,160.93223999999998
1889,50.6,3.193,1963082,161.5658
1889,50.5,3.1931,1964971,161.25154999999998
1889,47.2,3.1967,1966860,150.88424
1889,50.0,3.1929,1968749,159.64499999999998
1889,50.1,3.193,1970638,159.9693
1888,50.0,3.193,1972526,159.65
1890,49.9,3.193,1974416,159.3307
1888,50.0,3.193,1976304,159.65
3777,50.1,3.193,1980081,159.9693
1888,50.0,3.193,1981969,159.65
1890,50.7,3.193,1983859,161.88510000000002
1889,50.3,3.1931,1985748,160.61292999999998
1890,50.6,3.193,1987638,161.5658
1889,50.4,3.1931,1989527,160.93223999999998
1889,50.6,3.1931,1991416,161.57085999999998
1890,46.2,3.193,1993306,147.5166
